Note: gmapl.sse42 does not exist.  For faster speed, may want to compile package on an SSE4.2 machine
Note: gmapl.sse41 does not exist.  For faster speed, may want to compile package on an SSE4.1 machine
Note: gmapl.ssse3 does not exist.  For faster speed, may want to compile package on an SSSE3 machine
GMAP version 2019-06-10 called with args: gmapl.sse2 -K 1000000 -L 10000000 --cross-species -T -F -D /isg/shared/databases/alignerIndex/plant/Pila/gmap/v1.5/gmap-2019-06-10/Pila.1_5.gmap/ -d Pila.1_5.gmap -f gff3_gene /labs/Wegrzyn/ConiferGenomes/Pila/Genes/Maker/maker_transcripts.fasta --nthreads=20 --min-trimmed-coverage=0.95 --min-identity=0.95 -n1
Note: -n 1 will not report chimeric alignments.  If you want a single alignment plus chimeras, use -n 0 instead.
Checking compiler assumptions for SSE2: 6B8B4567 327B23C6 xor=59F066A1
Finished checking compiler assumptions
Pre-loading compressed genome (oligos)......done (7,920,926,408 bytes, 1933820 pages, 13.56 sec)
Pre-loading compressed genome (bits)......done (7,920,926,448 bytes, 1933820 pages, 11.83 sec)
Looking for index files in directory /isg/shared/databases/alignerIndex/plant/Pila/gmap/v1.5/gmap-2019-06-10/Pila.1_5.gmap/
  Pages file is Pila.1_5.gmap.ref153offsets64pages
  Pointers file is Pila.1_5.gmap.ref153offsets64meta
  Offsets file is Pila.1_5.gmap.ref153offsets64strm
  Positions files are Pila.1_5.gmap.ref153positionsh and Pila.1_5.gmap.ref153positions
Offsets compression type: bitpack64
Allocating memory for ref offset pointers, kmer 15, interval 3...Attached new memory for /isg/shared/databases/alignerIndex/plant/Pila/gmap/v1.5/gmap-2019-06-10/Pila.1_5.gmap//Pila.1_5.gmap.ref153offsets64meta...done (134,217,744 bytes, 0.42 sec)
Allocating memory for ref offsets, kmer 15, interval 3...Attached new memory for /isg/shared/databases/alignerIndex/plant/Pila/gmap/v1.5/gmap-2019-06-10/Pila.1_5.gmap//Pila.1_5.gmap.ref153offsets64strm...done (845,540,720 bytes, 2.55 sec)
Attached new memory for /isg/shared/databases/alignerIndex/plant/Pila/gmap/v1.5/gmap-2019-06-10/Pila.1_5.gmap//Pila.1_5.gmap.ref153offsets64pages...Pre-loading ref positions, kmer 15, interval 3......done (6,509,448,142 bytes, 8.34 sec)
...done (26,037,792,568 bytes, 42.24 sec)
Starting alignment
No paths found for PILAhm_000677-RA
No paths found for PILAhm_000726-RA
No paths found for PILAhm_000871-RA
No paths found for PILAhm_001630-RA
No paths found for PILAhm_001490-RA
No paths found for PILAhm_000210-RA
No paths found for PILAhm_000690-RA
No paths found for PILAhm_001295-RA
No paths found for PILAhm_002008-RA
No paths found for PILAhm_001299-RA
No paths found for PILAhm_000209-RA
No paths found for PILAhm_001312-RA
No paths found for PILAhm_000084-RA
No paths found for PILAhm_000319-RA
No paths found for PILAhm_001590-RA
No paths found for PILAhm_001565-RA
No paths found for PILAhm_000634-RA
No paths found for PILAhm_001548-RA
No paths found for PILAhm_000667-RA
No paths found for PILAhm_000777-RA
No paths found for PILAhm_001833-RA
No paths found for PILAhm_000282-RA
No paths found for PILAhm_001207-RA
No paths found for PILAhm_001762-RA
No paths found for PILAhm_000199-RA
No paths found for PILAhm_001187-RA
No paths found for PILAhm_001659-RA
No paths found for PILAhm_000811-RA
No paths found for PILAhm_000129-RA
No paths found for PILAhm_001614-RA
No paths found for PILAhm_001637-RA
No paths found for PILAhm_000725-RA
No paths found for PILAhm_001212-RA
No paths found for PILAhm_001208-RA
No paths found for PILAhm_000676-RA
No paths found for PILAhm_000414-RA
No paths found for PILAhm_000910-RA
No paths found for PILAhm_001723-RA
No paths found for PILAhm_000681-RA
No paths found for PILAhm_001111-RA
No paths found for PILAhm_001203-RA
No paths found for PILAhm_001183-RA
No paths found for PILAhm_001720-RA
No paths found for PILAhm_001711-RA
No paths found for PILAhm_000336-RA
No paths found for PILAhm_002007-RA
No paths found for PILAhm_001096-RA
No paths found for PILAhm_000100-RA
No paths found for PILAhm_001242-RA
No paths found for PILAhm_000206-RA
No paths found for PILAhm_000603-RA
No paths found for PILAhm_000341-RA
No paths found for PILAhm_000333-RA
No paths found for PILAhm_001904-RA
No paths found for PILAhm_001567-RA
No paths found for PILAhm_000546-RA
No paths found for PILAhm_000759-RA
No paths found for PILAhm_001017-RA
No paths found for PILAhm_000255-RA
No paths found for PILAhm_000114-RA
No paths found for PILAhm_001676-RA
No paths found for PILAhm_001979-RA
No paths found for PILAhm_000434-RA
No paths found for PILAhm_001829-RA
No paths found for PILAhm_000362-RA
No paths found for PILAhm_000928-RA
No paths found for PILAhm_000013-RA
No paths found for PILAhm_000977-RA
No paths found for PILAhm_000140-RA
No paths found for PILAhm_001664-RA
No paths found for PILAhm_001981-RA
No paths found for PILAhm_000679-RA
No paths found for PILAhm_001261-RA
No paths found for PILAhm_001798-RA
No paths found for PILAhm_000337-RA
No paths found for PILAhm_000721-RA
No paths found for PILAhm_000534-RA
No paths found for PILAhm_001695-RA
No paths found for PILAhm_001476-RA
No paths found for PILAhm_000493-RA
No paths found for PILAhm_000633-RA
No paths found for PILAhm_001432-RA
No paths found for PILAhm_001034-RA
No paths found for PILAhm_000009-RA
No paths found for PILAhm_000873-RA
No paths found for PILAhm_000042-RA
No paths found for PILAhm_002046-RA
No paths found for PILAhm_000294-RA
No paths found for PILAhm_002071-RA
No paths found for PILAhm_000946-RA
No paths found for PILAhm_000870-RA
No paths found for PILAhm_000383-RA
No paths found for PILAhm_000180-RA
No paths found for PILAhm_000950-RA
No paths found for PILAhm_001078-RA
No paths found for PILAhm_000918-RA
No paths found for PILAhm_001680-RA
No paths found for PILAhm_000889-RA
No paths found for PILAhm_001201-RA
No paths found for PILAhm_000287-RA
No paths found for PILAhm_002026-RA
No paths found for PILAhm_000166-RA
No paths found for PILAhm_001572-RA
No paths found for PILAhm_001785-RA
No paths found for PILAhm_000412-RA
No paths found for PILAhm_001174-RA
No paths found for PILAhm_001067-RA
No paths found for PILAhm_001185-RA
No paths found for PILAhm_001037-RA
No paths found for PILAhm_000105-RA
No paths found for PILAhm_000186-RA
No paths found for PILAhm_000108-RA
No paths found for PILAhm_002099-RA
No paths found for PILAhm_001867-RA
No paths found for PILAhm_000155-RA
No paths found for PILAhm_001741-RA
No paths found for PILAhm_002037-RA
No paths found for PILAhm_000547-RA
No paths found for PILAhm_002030-RA
No paths found for PILAhm_001289-RA
No paths found for PILAhm_002011-RA
No paths found for PILAhm_001845-RA
No paths found for PILAhm_000041-RA
No paths found for PILAhm_000401-RA
No paths found for PILAhm_001584-RA
No paths found for PILAhm_001200-RA
No paths found for PILAhm_000196-RA
No paths found for PILAhm_002101-RA
No paths found for PILAhm_002001-RA
No paths found for PILAhm_000198-RA
No paths found for PILAhm_000994-RA
No paths found for PILAhm_000189-RA
No paths found for PILAhm_002100-RA
No paths found for PILAhm_000028-RA
No paths found for PILAhm_002075-RA
No paths found for PILAhm_000957-RA
No paths found for PILAhm_001461-RA
No paths found for PILAhm_000290-RA
No paths found for PILAhm_001310-RA
No paths found for PILAhm_000321-RA
No paths found for PILAhm_001227-RA
No paths found for PILAhm_000174-RA
No paths found for PILAhm_001994-RA
No paths found for PILAhm_000475-RA
No paths found for PILAhm_002082-RA
No paths found for PILAhm_000847-RA
No paths found for PILAhm_001240-RA
No paths found for PILAhm_000523-RA
No paths found for PILAhm_001773-RA
No paths found for PILAhm_000373-RA
No paths found for PILAhm_001222-RA
No paths found for PILAhm_000097-RA
No paths found for PILAhm_001886-RA
No paths found for PILAhm_000625-RA
No paths found for PILAhm_000213-RA
No paths found for PILAhm_001989-RA
No paths found for PILAhm_001761-RA
No paths found for PILAhm_000440-RA
No paths found for PILAhm_001103-RA
No paths found for PILAhm_001985-RA
No paths found for PILAhm_000334-RA
No paths found for PILAhq_074348-RA
No paths found for PILAhm_002033-RA
No paths found for PILAhm_001148-RA
No paths found for PILAhm_000018-RA
No paths found for PILAhq_014324-RA
No paths found for PILAhm_000517-RA
No paths found for PILAhq_083173-RA
No paths found for PILAhq_043909-RA
No paths found for PILAhm_000358-RA
No paths found for PILAhq_006176-RA
No paths found for PILAhq_081047-RA
No paths found for PILAhm_001774-RA
No paths found for PILAhq_053272-RA
No paths found for PILAhq_044889-RA
No paths found for PILAlq_122891-RA
No paths found for PILAhm_000367-RA
No paths found for PILAhq_062825-RA
No paths found for PILAhq_072820-RA
No paths found for PILAhq_074711-RA
No paths found for PILAhq_069440-RA
No paths found for PILAlq_042477-RA
No paths found for PILAhq_071325-RA
No paths found for PILAhq_029246-RA
No paths found for PILAhq_064297-RA
No paths found for PILAhm_001849-RA
No paths found for PILAhm_000045-RA
No paths found for PILAhq_018611-RA
No paths found for PILAhq_080175-RA
No paths found for PILAlq_128513-RA
No paths found for PILAhq_065283-RA
No paths found for PILAhq_002167-RA
No paths found for PILAhq_048596-RA
No paths found for PILAhq_042966-RA
No paths found for PILAhm_000070-RA
No paths found for PILAlq_122612-RA
No paths found for PILAlq_058895-RA
No paths found for PILAhq_051706-RA
No paths found for PILAhq_073427-RA
No paths found for PILAhq_071450-RA
No paths found for PILAhq_035605-RA
No paths found for PILAhq_048126-RA
No paths found for PILAhq_069911-RA
No paths found for PILAlq_052535-RA
No paths found for PILAhq_053461-RA
No paths found for PILAhq_069210-RA
No paths found for PILAhq_061596-RA
No paths found for PILAhq_060650-RA
No paths found for PILAhq_084180-RA
No paths found for PILAhq_074974-RA
No paths found for PILAhq_046725-RA
No paths found for PILAhq_082695-RA
No paths found for PILAhq_026419-RA
No paths found for PILAhq_062510-RA
No paths found for PILAhq_064409-RA
No paths found for PILAhq_050424-RA
No paths found for PILAhq_075736-RA
No paths found for PILAhq_059792-RA
No paths found for PILAhq_067702-RA
No paths found for PILAhq_024636-RA
No paths found for PILAhq_037265-RA
No paths found for PILAhq_046376-RA
No paths found for PILAlq_128582-RA
No paths found for PILAhq_039666-RA
No paths found for PILAhq_037373-RA
No paths found for PILAhq_077134-RA
No paths found for PILAhq_040045-RA
No paths found for PILAhq_048430-RA
No paths found for PILAhq_065669-RA
No paths found for PILAhq_073505-RA
No paths found for PILAhq_014148-RA
No paths found for PILAhq_078526-RA
No paths found for PILAlq_110971-RA
No paths found for PILAhq_058943-RA
No paths found for PILAlq_074742-RA
No paths found for PILAhq_073165-RA
No paths found for PILAhq_047985-RA
No paths found for PILAhq_014145-RA
No paths found for PILAhq_066936-RA
No paths found for PILAhq_056542-RA
No paths found for PILAhq_047338-RA
No paths found for PILAhq_036195-RA
No paths found for PILAhq_049776-RA
No paths found for PILAhq_069154-RA
No paths found for PILAhq_075371-RA
No paths found for PILAhq_041288-RA
No paths found for PILAhq_076257-RA
No paths found for PILAhq_060711-RA
No paths found for PILAhq_070199-RA
No paths found for PILAhq_037954-RA
No paths found for PILAlq_123393-RA
No paths found for PILAhq_073988-RA
No paths found for PILAhq_079949-RA
No paths found for PILAhq_032619-RA
No paths found for PILAhq_017251-RA
No paths found for PILAhq_069987-RA
No paths found for PILAhq_080086-RA
No paths found for PILAhq_057997-RA
No paths found for PILAhq_061060-RA
No paths found for PILAhq_032618-RA
No paths found for PILAhq_061598-RA
No paths found for PILAhq_029137-RA
No paths found for PILAhq_048851-RA
No paths found for PILAhq_072388-RA
No paths found for PILAlq_127500-RA
No paths found for PILAhq_075229-RA
No paths found for PILAhq_015467-RA
No paths found for PILAhq_062834-RA
No paths found for PILAhq_081767-RA
No paths found for PILAhq_041058-RA
No paths found for PILAhq_069050-RA
No paths found for PILAhq_001926-RA
No paths found for PILAhq_053880-RA
No paths found for PILAhq_056078-RA
No paths found for PILAlq_127056-RA
No paths found for PILAhq_069690-RA
No paths found for PILAhq_051768-RA
No paths found for PILAhq_058516-RA
No paths found for PILAhq_070123-RA
No paths found for PILAlq_108849-RA
No paths found for PILAhq_029141-RA
No paths found for PILAlq_126014-RA
No paths found for PILAhq_067048-RA
No paths found for PILAhq_064561-RA
No paths found for PILAhq_075968-RA
No paths found for PILAhq_083961-RA
No paths found for PILAlq_048957-RA
No paths found for PILAhq_053298-RA
No paths found for PILAhq_053307-RA
No paths found for PILAlq_075318-RA
No paths found for PILAhq_007990-RA
No paths found for PILAhq_067690-RA
No paths found for PILAhq_042794-RA
No paths found for PILAhq_070600-RA
No paths found for PILAhq_042020-RA
No paths found for PILAhq_007985-RA
No paths found for PILAhq_084583-RA
No paths found for PILAlq_076522-RA
No paths found for PILAhq_076530-RA
No paths found for PILAhq_070597-RA
No paths found for PILAhq_016085-RA
No paths found for PILAhq_056892-RA
No paths found for PILAhq_008582-RA
No paths found for PILAhq_066357-RA
No paths found for PILAhq_066356-RA
No paths found for PILAlq_113280-RA
No paths found for PILAhq_048372-RA
No paths found for PILAhq_067544-RA
No paths found for PILAhq_067543-RA
No paths found for PILAhq_057575-RA
No paths found for PILAlq_123480-RA
No paths found for PILAhq_050224-RA
No paths found for PILAhq_070246-RA
No paths found for PILAhq_046979-RA
No paths found for PILAhq_057952-RA
No paths found for PILAhq_031140-RA
No paths found for PILAlq_091945-RA
No paths found for PILAhq_058780-RA
No paths found for PILAlq_065863-RA
No paths found for PILAhq_030288-RA
No paths found for PILAhq_069638-RA
No paths found for PILAlq_127567-RA
No paths found for PILAhq_084931-RA
No paths found for PILAhq_027637-RA
No paths found for PILAlq_110883-RA
No paths found for PILAhq_066327-RA
No paths found for PILAhq_084001-RA
No paths found for PILAhq_075545-RA
No paths found for PILAhm_001221-RA
No paths found for PILAhq_036314-RA
No paths found for PILAhq_064004-RA
No paths found for PILAhq_056972-RA
No paths found for PILAhq_066190-RA
No paths found for PILAlq_121885-RA
No paths found for PILAhq_080135-RA
No paths found for PILAlq_091802-RA
No paths found for PILAhq_074186-RA
No paths found for PILAhq_082459-RA
No paths found for PILAlq_126589-RA
No paths found for PILAlq_099284-RA
No paths found for PILAhq_032721-RA
No paths found for PILAhq_066677-RA
No paths found for PILAhq_030020-RA
No paths found for PILAlq_123619-RA
No paths found for PILAlq_067862-RA
No paths found for PILAlq_110975-RA
No paths found for PILAlq_107077-RA
No paths found for PILAlq_060412-RA
No paths found for PILAlq_065829-RA
No paths found for PILAlq_087478-RA
No paths found for PILAhq_057487-RA
No paths found for PILAhq_030429-RA
No paths found for PILAhq_059364-RA
No paths found for PILAlq_106945-RA
No paths found for PILAhq_070031-RA
No paths found for PILAhq_068392-RA
No paths found for PILAlq_082148-RA
No paths found for PILAhq_054417-RA
No paths found for PILAhq_046948-RA
No paths found for PILAhq_046947-RA
No paths found for PILAhq_005965-RA
No paths found for PILAhq_082460-RA
No paths found for PILAhq_040927-RA
No paths found for PILAhq_065975-RA
No paths found for PILAhq_046841-RA
No paths found for PILAlq_023269-RA
No paths found for PILAhq_073980-RA
No paths found for PILAhq_056513-RA
No paths found for PILAhq_048824-RA
No paths found for PILAhq_025649-RA
No paths found for PILAhq_078002-RA
No paths found for PILAhq_036338-RA
No paths found for PILAhq_076973-RA
No paths found for PILAhq_074547-RA
No paths found for PILAhq_082019-RA
No paths found for PILAhq_075044-RA
No paths found for PILAhq_062216-RA
No paths found for PILAhq_034928-RA
No paths found for PILAhq_014193-RA
No paths found for PILAhq_061993-RA
No paths found for PILAhq_077129-RA
No paths found for PILAhq_073628-RA
No paths found for PILAhq_046772-RA
No paths found for PILAlq_096504-RA
No paths found for PILAhq_061794-RA
No paths found for PILAhq_072848-RA
No paths found for PILAhq_040865-RA
No paths found for PILAhq_082830-RA
No paths found for PILAlq_035269-RA
No paths found for PILAhq_081159-RA
No paths found for PILAhq_084628-RA
No paths found for PILAhq_079151-RA
No paths found for PILAhq_032987-RA
No paths found for PILAhq_024475-RA
No paths found for PILAhq_084449-RA
No paths found for PILAhq_043818-RA
No paths found for PILAhq_064433-RA
No paths found for PILAhq_066981-RA
No paths found for PILAhq_022904-RA
No paths found for PILAhq_047851-RA
No paths found for PILAhq_054614-RA
No paths found for PILAhq_025073-RA
No paths found for PILAhq_056633-RA
No paths found for PILAhq_084134-RA
No paths found for PILAhq_034466-RA
No paths found for PILAhq_080261-RA
No paths found for PILAhq_067155-RA
No paths found for PILAhq_080107-RA
No paths found for PILAlq_088441-RA
No paths found for PILAhq_037904-RA
No paths found for PILAhq_084590-RA
No paths found for PILAhq_071526-RA
No paths found for PILAhq_082637-RA
No paths found for PILAhq_084851-RA
No paths found for PILAhq_083663-RA
No paths found for PILAhq_061426-RA
No paths found for PILAhq_063274-RA
No paths found for PILAhq_025710-RA
No paths found for PILAhq_081318-RA
No paths found for PILAhq_046179-RA
No paths found for PILAhq_065665-RA
No paths found for PILAhq_076669-RA
No paths found for PILAhq_031062-RA
No paths found for PILAhq_032186-RA
No paths found for PILAlq_025112-RA
No paths found for PILAhq_074585-RA
No paths found for PILAhq_031663-RA
No paths found for PILAhq_064664-RA
No paths found for PILAhq_069485-RA
No paths found for PILAhq_069395-RA
No paths found for PILAhq_080962-RA
No paths found for PILAhq_065661-RA
No paths found for PILAlq_130223-RA
No paths found for PILAhq_004547-RA
No paths found for PILAlq_104666-RA
No paths found for PILAhq_057847-RA
No paths found for PILAlq_106607-RA
No paths found for PILAhq_041743-RA
No paths found for PILAhq_062109-RA
No paths found for PILAhq_041287-RA
No paths found for PILAhq_032536-RA
No paths found for PILAhq_083777-RA
No paths found for PILAhq_070121-RA
No paths found for PILAhq_052817-RA
No paths found for PILAhq_070202-RA
No paths found for PILAhq_047029-RA
No paths found for PILAhq_068781-RA
No paths found for PILAhq_039287-RA
No paths found for PILAhq_071190-RA
No paths found for PILAlq_122451-RA
No paths found for PILAhq_075242-RA
No paths found for PILAhq_070894-RA
No paths found for PILAhq_061760-RA
No paths found for PILAhq_069022-RA
No paths found for PILAhq_003612-RA
No paths found for PILAhq_083585-RA
No paths found for PILAlq_063328-RA
No paths found for PILAhq_081296-RA
No paths found for PILAlq_113654-RA
No paths found for PILAhq_045183-RA
No paths found for PILAlq_128201-RA
No paths found for PILAhq_066351-RA
No paths found for PILAhq_016736-RA
No paths found for PILAhq_061397-RA
No paths found for PILAhq_044874-RA
No paths found for PILAhq_071134-RA
No paths found for PILAlq_131002-RA
No paths found for PILAhq_066834-RA
No paths found for PILAlq_041308-RA
No paths found for PILAlq_131380-RA
No paths found for PILAhq_034307-RA
No paths found for PILAhq_034693-RA
No paths found for PILAhq_074871-RA
No paths found for PILAlq_098307-RA
No paths found for PILAlq_084638-RA
No paths found for PILAhq_073126-RA
No paths found for PILAhq_046516-RA
No paths found for PILAlq_041307-RA
No paths found for PILAhq_033944-RA
No paths found for PILAhq_063105-RA
No paths found for PILAhq_083909-RA
No paths found for PILAhq_034308-RA
No paths found for PILAlq_067906-RA
No paths found for PILAlq_095928-RA
No paths found for PILAhq_075727-RA
No paths found for PILAhq_069500-RA
No paths found for PILAhq_054816-RA
No paths found for PILAhq_042495-RA
No paths found for PILAhq_036602-RA
No paths found for PILAhq_078678-RA
No paths found for PILAhq_038755-RA
No paths found for PILAhq_073460-RA
No paths found for PILAhq_057738-RA
No paths found for PILAhq_001696-RA
No paths found for PILAhq_007869-RA
No paths found for PILAhq_040503-RA
No paths found for PILAhq_049179-RA
No paths found for PILAhq_047828-RA
No paths found for PILAhq_042774-RA
No paths found for PILAhq_061179-RA
No paths found for PILAhq_049511-RA
No paths found for PILAhq_084217-RA
No paths found for PILAhq_069728-RA
No paths found for PILAhq_067416-RA
No paths found for PILAhq_014239-RA
No paths found for PILAhq_063799-RA
No paths found for PILAhq_073990-RA
No paths found for PILAlq_061494-RA
No paths found for PILAhq_033885-RA
No paths found for PILAhq_010711-RA
No paths found for PILAlq_008770-RA
No paths found for PILAhq_057691-RA
No paths found for PILAhq_009684-RA
No paths found for PILAhq_064123-RA
No paths found for PILAhq_010710-RA
No paths found for PILAhq_033884-RA
No paths found for PILAlq_008777-RA
No paths found for PILAhq_041837-RA
No paths found for PILAhq_047502-RA
No paths found for PILAhq_045848-RA
No paths found for PILAhq_081135-RA
No paths found for PILAlq_122655-RA
No paths found for PILAhq_036606-RA
No paths found for PILAlq_033821-RA
No paths found for PILAhq_080861-RA
No paths found for PILAlq_079766-RA
No paths found for PILAhq_026280-RA
No paths found for PILAhq_019453-RA
No paths found for PILAhq_080044-RA
No paths found for PILAlq_126702-RA
No paths found for PILAhq_018832-RA
No paths found for PILAhq_018830-RA
No paths found for PILAhq_065840-RA
No paths found for PILAlq_028709-RA
No paths found for PILAhq_079854-RA
No paths found for PILAlq_037399-RA
No paths found for PILAhq_014407-RA
No paths found for PILAlq_037403-RA
No paths found for PILAhq_054771-RA
No paths found for PILAhq_061840-RA
No paths found for PILAhq_083407-RA
No paths found for PILAhq_044054-RA
No paths found for PILAhq_047925-RA
No paths found for PILAhq_036129-RA
No paths found for PILAhq_074666-RA
No paths found for PILAhq_002839-RA
No paths found for PILAhq_063047-RA
No paths found for PILAlq_108836-RA
No paths found for PILAhq_065182-RA
No paths found for PILAhq_043969-RA
No paths found for PILAhq_025037-RA
No paths found for PILAhq_060108-RA
No paths found for PILAhq_060679-RA
No paths found for PILAhq_048632-RA
No paths found for PILAhq_067537-RA
No paths found for PILAhq_038249-RA
No paths found for PILAlq_108469-RA
No paths found for PILAhq_074530-RA
No paths found for PILAlq_127830-RA
No paths found for PILAhq_075100-RA
No paths found for PILAhq_045857-RA
No paths found for PILAhq_051356-RA
No paths found for PILAhq_046372-RA
No paths found for PILAhq_067324-RA
No paths found for PILAhq_028979-RA
No paths found for PILAhq_066630-RA
No paths found for PILAhq_070131-RA
No paths found for PILAhq_004409-RA
No paths found for PILAhq_067494-RA
No paths found for PILAhq_053017-RA
No paths found for PILAlq_037884-RA
No paths found for PILAlq_082193-RA
No paths found for PILAhq_078027-RA
No paths found for PILAhq_074939-RA
No paths found for PILAhq_084874-RA
No paths found for PILAhq_010648-RA
No paths found for PILAhq_074270-RA
No paths found for PILAlq_057452-RA
No paths found for PILAhq_067319-RA
No paths found for PILAhq_025134-RA
No paths found for PILAhq_062815-RA
No paths found for PILAhq_045856-RA
No paths found for PILAhq_052745-RA
No paths found for PILAhq_072712-RA
No paths found for PILAhq_049908-RA
No paths found for PILAlq_098132-RA
No paths found for PILAlq_130551-RA
No paths found for PILAhq_066900-RA
No paths found for PILAhq_055777-RA
No paths found for PILAhq_030866-RA
No paths found for PILAhq_019454-RA
No paths found for PILAhq_051216-RA
No paths found for PILAhq_075363-RA
No paths found for PILAhq_051218-RA
No paths found for PILAhq_006347-RA
No paths found for PILAhq_036675-RA
No paths found for PILAlq_036540-RA
No paths found for PILAhq_012617-RA
No paths found for PILAhq_071378-RA
No paths found for PILAhq_055956-RA
No paths found for PILAhq_026754-RA
No paths found for PILAlq_095648-RA
No paths found for PILAhq_070393-RA
No paths found for PILAlq_021037-RA
No paths found for PILAhq_058539-RA
No paths found for PILAhq_042760-RA
No paths found for PILAhq_069630-RA
No paths found for PILAhq_064538-RA
No paths found for PILAlq_018812-RA
No paths found for PILAhq_021630-RA
No paths found for PILAhq_013389-RA
No paths found for PILAhq_060129-RA
No paths found for PILAlq_130447-RA
No paths found for PILAhq_066698-RA
No paths found for PILAhq_018692-RA
No paths found for PILAlq_125906-RA
No paths found for PILAhq_069386-RA
No paths found for PILAhq_084102-RA
No paths found for PILAhq_061599-RA
No paths found for PILAhq_060052-RA
No paths found for PILAhq_075567-RA
No paths found for PILAhq_007129-RA
No paths found for PILAhq_028561-RA
No paths found for PILAlq_038538-RA
No paths found for PILAhq_058597-RA
No paths found for PILAhq_054109-RA
No paths found for PILAhq_074048-RA
No paths found for PILAhq_077571-RA
No paths found for PILAhq_065369-RA
No paths found for PILAhq_054108-RA
No paths found for PILAlq_122177-RA
No paths found for PILAhq_030495-RA
No paths found for PILAhq_066032-RA
No paths found for PILAhq_004524-RA
No paths found for PILAhq_020609-RA
No paths found for PILAhq_047464-RA
No paths found for PILAhq_047463-RA
No paths found for PILAhq_019340-RA
No paths found for PILAhq_004525-RA
No paths found for PILAhq_064941-RA
No paths found for PILAlq_079802-RA
No paths found for PILAhq_020220-RA
No paths found for PILAhq_065437-RA
No paths found for PILAhq_076948-RA
No paths found for PILAlq_079804-RA
No paths found for PILAhq_050460-RA
No paths found for PILAhq_021050-RA
No paths found for PILAhq_062694-RA
No paths found for PILAhq_056174-RA
No paths found for PILAhq_012929-RA
No paths found for PILAhq_036266-RA
No paths found for PILAhq_017328-RA
No paths found for PILAhq_025452-RA
No paths found for PILAhq_017332-RA
No paths found for PILAhq_017331-RA
No paths found for PILAhq_011329-RA
No paths found for PILAhq_017330-RA
No paths found for PILAhq_082878-RA
No paths found for PILAhq_028226-RA
No paths found for PILAhq_064783-RA
No paths found for PILAlq_113103-RA
No paths found for PILAhq_034273-RA
No paths found for PILAhq_069955-RA
No paths found for PILAhq_068794-RA
No paths found for PILAhq_025192-RA
No paths found for PILAhq_028135-RA
No paths found for PILAhq_028616-RA
No paths found for PILAhq_004527-RA
No paths found for PILAhq_022421-RA
No paths found for PILAhq_054245-RA
No paths found for PILAhq_049608-RA
No paths found for PILAhq_003698-RA
No paths found for PILAhq_007848-RA
No paths found for PILAhq_069396-RA
No paths found for PILAhq_001488-RA
No paths found for PILAhq_003329-RA
No paths found for PILAhq_021049-RA
No paths found for PILAhq_076425-RA
No paths found for PILAhq_003697-RA
No paths found for PILAhq_017484-RA
No paths found for PILAhq_069974-RA
No paths found for PILAhq_014197-RA
No paths found for PILAhq_002182-RA
No paths found for PILAhq_050591-RA
No paths found for PILAhq_003699-RA
No paths found for PILAhq_050590-RA
No paths found for PILAlq_081507-RA
No paths found for PILAhq_024722-RA
No paths found for PILAhq_007199-RA
No paths found for PILAhq_020165-RA
No paths found for PILAhq_028227-RA
No paths found for PILAhq_020166-RA
No paths found for PILAhq_020167-RA
No paths found for PILAhq_008761-RA
No paths found for PILAhq_016270-RA
No paths found for PILAhq_019339-RA
No paths found for PILAhq_012185-RA
No paths found for PILAhq_083933-RA
No paths found for PILAhq_077023-RA
No paths found for PILAhq_029503-RA
No paths found for PILAhq_046144-RA
No paths found for PILAhq_016221-RA
No paths found for PILAhq_068834-RA
No paths found for PILAhq_048646-RA
No paths found for PILAhq_076666-RA
No paths found for PILAhq_012930-RA
No paths found for PILAhq_021689-RA
No paths found for PILAhq_014276-RA
No paths found for PILAhq_005768-RA
No paths found for PILAhq_002770-RA
No paths found for PILAhq_025663-RA
No paths found for PILAhq_038064-RA
No paths found for PILAhq_031595-RA
No paths found for PILAhq_053306-RA
No paths found for PILAhq_050124-RA
No paths found for PILAhq_019220-RA
No paths found for PILAhq_002118-RA
No paths found for PILAlq_005511-RA
No paths found for PILAhq_007267-RA
No paths found for PILAhq_065944-RA
No paths found for PILAhq_058570-RA
No paths found for PILAhq_068832-RA
No paths found for PILAhq_016271-RA
No paths found for PILAhq_027290-RA
No paths found for PILAhq_028800-RA
No paths found for PILAhq_062138-RA
No paths found for PILAhq_069652-RA
No paths found for PILAhq_062139-RA
No paths found for PILAhq_040069-RA
No paths found for PILAhq_031362-RA
No paths found for PILAhq_031594-RA
No paths found for PILAhq_062452-RA
No paths found for PILAhq_021136-RA
No paths found for PILAhq_013948-RA
No paths found for PILAhq_033672-RA
No paths found for PILAhq_040070-RA
No paths found for PILAhq_026372-RA
No paths found for PILAhq_017280-RA
No paths found for PILAhq_031364-RA
No paths found for PILAhq_005815-RA
No paths found for PILAhq_024313-RA
No paths found for PILAhq_050928-RA
No paths found for PILAhq_040068-RA
No paths found for PILAhq_077548-RA
No paths found for PILAlq_015642-RA
No paths found for PILAhq_005816-RA
No paths found for PILAhq_000308-RA
No paths found for PILAhq_058591-RA
No paths found for PILAhq_058571-RA
No paths found for PILAhq_005818-RA
No paths found for PILAhq_062491-RA
No paths found for PILAhq_038462-RA
No paths found for PILAhq_013156-RA
No paths found for PILAhq_039405-RA
No paths found for PILAhq_066197-RA
No paths found for PILAhq_013517-RA
No paths found for PILAhq_021914-RA
No paths found for PILAhq_019233-RA
No paths found for PILAhq_043729-RA
No paths found for PILAhq_029147-RA
No paths found for PILAhq_044644-RA
No paths found for PILAhq_018194-RA
No paths found for PILAhq_005776-RA
No paths found for PILAhq_054456-RA
No paths found for PILAhq_036027-RA
No paths found for PILAhq_022838-RA
No paths found for PILAhq_067497-RA
No paths found for PILAhq_006537-RA
No paths found for PILAhq_019523-RA
No paths found for PILAhq_026522-RA
No paths found for PILAhq_047479-RA
No paths found for PILAhq_007352-RA
No paths found for PILAhq_066628-RA
No paths found for PILAhq_017457-RA
No paths found for PILAhq_004052-RA
No paths found for PILAhq_029149-RA
No paths found for PILAhq_082385-RA
No paths found for PILAhq_035430-RA
No paths found for PILAhq_013029-RA
No paths found for PILAhq_019521-RA
No paths found for PILAhq_009468-RA
No paths found for PILAhq_064446-RA
No paths found for PILAhq_080512-RA
No paths found for PILAhq_000155-RA
No paths found for PILAhq_029034-RA
No paths found for PILAhq_037192-RA
No paths found for PILAhq_020541-RA
No paths found for PILAhq_054128-RA
No paths found for PILAhq_002981-RA
No paths found for PILAlq_058231-RA
No paths found for PILAhq_080228-RA
No paths found for PILAlq_070386-RA
No paths found for PILAhq_082527-RA
No paths found for PILAhq_001543-RA
No paths found for PILAhq_015875-RA
No paths found for PILAhq_075201-RA
No paths found for PILAhq_014806-RA
No paths found for PILAhq_038663-RA
No paths found for PILAhq_001831-RA
No paths found for PILAlq_002779-RA
No paths found for PILAhq_010030-RA
No paths found for PILAhq_047480-RA
No paths found for PILAhq_075362-RA
No paths found for PILAhq_068971-RA
No paths found for PILAhq_028028-RA
No paths found for PILAhq_028027-RA
No paths found for PILAhq_010027-RA
No paths found for PILAhq_066586-RA
No paths found for PILAhq_006933-RA
No paths found for PILAhq_001789-RA
No paths found for PILAhq_027414-RA
No paths found for PILAhq_010582-RA
No paths found for PILAhq_006932-RA
No paths found for PILAhq_016990-RA
No paths found for PILAhq_006930-RA
No paths found for PILAlq_071032-RA
No paths found for PILAhq_038519-RA
No paths found for PILAhq_040935-RA
No paths found for PILAhq_041082-RA
No paths found for PILAhq_010025-RA
No paths found for PILAhq_041605-RA
No paths found for PILAhq_014039-RA
No paths found for PILAhq_068964-RA
No paths found for PILAhq_012296-RA
No paths found for PILAhq_025921-RA
No paths found for PILAhq_060503-RA
No paths found for PILAhq_018182-RA
No paths found for PILAhq_008661-RA
No paths found for PILAhq_003791-RA
No paths found for PILAhq_003039-RA
No paths found for PILAhq_016231-RA
No paths found for PILAhq_066308-RA
No paths found for PILAhq_015525-RA
No paths found for PILAhq_037689-RA
No paths found for PILAlq_109118-RA
No paths found for PILAhq_077264-RA
No paths found for PILAlq_084417-RA
No paths found for PILAhq_049885-RA
No paths found for PILAhq_030038-RA
No paths found for PILAhq_015524-RA
No paths found for PILAhq_006321-RA
No paths found for PILAhq_007013-RA
No paths found for PILAhq_043577-RA
No paths found for PILAhq_002826-RA
No paths found for PILAhq_079232-RA
No paths found for PILAhq_006322-RA
No paths found for PILAhq_057548-RA
No paths found for PILAhq_019912-RA
No paths found for PILAhq_009469-RA
No paths found for PILAhq_021099-RA
No paths found for PILAhq_030140-RA
No paths found for PILAhq_046817-RA
No paths found for PILAhq_002820-RA
No paths found for PILAhq_018549-RA
No paths found for PILAhq_019914-RA
No paths found for PILAhq_009567-RA
No paths found for PILAhq_000082-RA
No paths found for PILAhq_075643-RA
No paths found for PILAhq_009569-RA
No paths found for PILAhq_065435-RA
No paths found for PILAhq_004368-RA
No paths found for PILAhq_064681-RA
No paths found for PILAlq_065415-RA
No paths found for PILAlq_073563-RA
No paths found for PILAhq_024879-RA
No paths found for PILAhq_015526-RA
No paths found for PILAhq_051456-RA
No paths found for PILAhq_033302-RA
No paths found for PILAhq_006837-RA
No paths found for PILAhq_045022-RA
No paths found for PILAhq_030028-RA
No paths found for PILAhq_017712-RA
No paths found for PILAhq_024880-RA
No paths found for PILAhq_055415-RA
No paths found for PILAhq_017805-RA
No paths found for PILAhq_071123-RA
No paths found for PILAhq_024878-RA
No paths found for PILAlq_019360-RA
No paths found for PILAhq_073087-RA
No paths found for PILAhq_012914-RA
No paths found for PILAlq_007687-RA
No paths found for PILAhq_070136-RA
No paths found for PILAhq_033849-RA
No paths found for PILAlq_080698-RA
No paths found for PILAhq_084514-RA
No paths found for PILAhq_039269-RA
No paths found for PILAhq_057756-RA
No paths found for PILAlq_017640-RA
No paths found for PILAhq_039268-RA
No paths found for PILAhq_040087-RA
No paths found for PILAhq_052857-RA
No paths found for PILAhq_024877-RA
No paths found for PILAhq_081750-RA
No paths found for PILAhq_052370-RA
No paths found for PILAhq_007274-RA
No paths found for PILAhq_003269-RA
No paths found for PILAhq_067968-RA
No paths found for PILAhq_051200-RA
No paths found for PILAhq_069447-RA
No paths found for PILAhq_008191-RA
No paths found for PILAhq_052371-RA
No paths found for PILAhq_076670-RA
No paths found for PILAlq_049036-RA
No paths found for PILAhq_033848-RA
No paths found for PILAhq_066857-RA
No paths found for PILAhq_035642-RA
No paths found for PILAhq_034175-RA
No paths found for PILAhq_054885-RA
No paths found for PILAhq_053384-RA
No paths found for PILAhq_031437-RA
No paths found for PILAhq_057210-RA
No paths found for PILAhq_007564-RA
No paths found for PILAhq_010580-RA
No paths found for PILAhq_000140-RA
No paths found for PILAhq_031646-RA
No paths found for PILAhq_038797-RA
No paths found for PILAhq_065829-RA
No paths found for PILAhq_000366-RA
No paths found for PILAhq_033850-RA
No paths found for PILAhq_058301-RA
No paths found for PILAhq_021260-RA
No paths found for PILAhq_014133-RA
No paths found for PILAhq_007736-RA
No paths found for PILAhq_045227-RA
No paths found for PILAhq_060570-RA
No paths found for PILAhq_028525-RA
No paths found for PILAhq_049453-RA
No paths found for PILAhq_043674-RA
No paths found for PILAhq_028332-RA
No paths found for PILAhq_030983-RA
No paths found for PILAhq_002717-RA
No paths found for PILAhq_046986-RA
No paths found for PILAhq_002718-RA
No paths found for PILAhq_015540-RA
No paths found for PILAhq_021222-RA
No paths found for PILAhq_058746-RA
No paths found for PILAhq_043424-RA
No paths found for PILAhq_000771-RA
No paths found for PILAhq_014764-RA
No paths found for PILAhq_021226-RA
No paths found for PILAhq_025535-RA
No paths found for PILAhq_027671-RA
No paths found for PILAhq_038468-RA
No paths found for PILAhq_030993-RA
No paths found for PILAhq_073934-RA
No paths found for PILAhq_009862-RA
No paths found for PILAhq_046428-RA
No paths found for PILAhq_011158-RA
No paths found for PILAhq_075862-RA
No paths found for PILAhq_013159-RA
No paths found for PILAhq_039373-RA
No paths found for DCR/hiseq/c101942_g2_i1|m.96813.mrna1
No paths found for SDN/miseq/c24354_g1_i1|m.24318.mrna1
No paths found for PILAhq_006525-RA
No paths found for V_1kb/023250|m.898088.mrna1
No paths found for S_2kb_1/002222|m.574651.mrna1
No paths found for E1/hiseq/c40651_g3_i1|m.29502.mrna1
No paths found for PILAhq_051837-RA
No paths found for PILAhq_001139-RA
No paths found for BRS/miseq/c23291_g1_i1|m.27691.mrna1
No paths found for K_S1/c26895_g1_i1|m.216754.mrna1
No paths found for PILAhq_079305-RA
No paths found for PILAhq_005717-RA
No paths found for SDN/miseq/c23586_g1_i1|m.22746.mrna1
No paths found for SDN/miseq/c28238_g1_i3|m.34883.mrna1
No paths found for DCR/hiseq/c104262_g1_i1|m.107938.mrna1
No paths found for BRN/hiseq/c64352_g3_i1|m.34006.mrna1
No paths found for NACLR/hiseq/c24521_g1_i1|m.11958.mrna1
No paths found for BRS/miseq/c29474_g2_i3|m.48365.mrna1
No paths found for Basket/c43154_g1_i2|m.59672.mrna1
No paths found for DCS1kb_3/006910|m.76690.mrna1
No paths found for BRN/hiseq/c39048_g1_i3|m.8760.mrna1
No paths found for PILAhq_043423-RA
No paths found for DCS/hiseq/c36660_g1_i1|m.9581.mrna1
No paths found for Neg_S1/c3204_g1_i1|m.62735.mrna1
No paths found for NACLR/hiseq/c42043_g1_i1|m.19515.mrna1
No paths found for Wound/hiseq/c66374_g1_i1|m.35208.mrna1
No paths found for E1/hiseq/c3812_g1_i1|m.717.mrna1
No paths found for BRS/miseq/c22602_g1_i2|m.26012.mrna1
No paths found for DCS1kb_1/013775|m.18064.mrna1
No paths found for DCS_2kb/polished_high/000972|m.1240.mrna1
No paths found for DCS1kb_1/polished_high/000627|m.1017.mrna1
No paths found for JASS/hiseq/c62260_g1_i3|m.62600.mrna2
No paths found for SDN/miseq/c31679_g1_i1|m.50458.mrna1
No paths found for Wound/hiseq/c46410_g1_i1|m.11969.mrna1
No paths found for DCS1kb_2/polished_high/001066|m.1234.mrna1
No paths found for S/hiseq/c45301_g1_i2|m.49656.mrna1
No paths found for V/hiseq/c17471_g1_i1|m.4592.mrna1
No paths found for Wound/hiseq/c66552_g1_i1|m.35697.mrna1
No paths found for JASS/hiseq/c1569_g1_i1|m.369.mrna1
No paths found for DCS1kb_2/009536|m.48093.mrna1
No paths found for PILAhq_036818-RA
No paths found for E1_3-6kb/018126|m.469756.mrna1
No paths found for Wound/hiseq/c70482_g2_i1|m.48920.mrna1
No paths found for K_S1/c25069_g1_i1|m.210877.mrna1
No paths found for K_S1/c24225_g3_i2|m.208527.mrna1
No paths found for Basket/c15035_g1_i2|m.16783.mrna1
No paths found for V1_2kb/007432|m.837407.mrna1
No paths found for DCR/hiseq/c31891_g1_i1|m.10590.mrna1
No paths found for BRN/hiseq/c71073_g8_i5|m.60031.mrna1
No paths found for V_2kb_1/009440|m.921831.mrna1
No paths found for SDN/miseq/c13998_g1_i1|m.9595.mrna1
No paths found for K_S1/c16454_g1_i1|m.192739.mrna1
No paths found for BRN/hiseq/c69472_g5_i2|m.51851.mrna1
No paths found for V/hiseq/c54586_g1_i4|m.35356.mrna1
No paths found for DCR/hiseq/c94260_g1_i1|m.68799.mrna1
No paths found for JASS/hiseq/c62754_g1_i1|m.64044.mrna1
No paths found for E1_2kb_2/001150|m.324621.mrna1
No paths found for E1_3-6kb/009927|m.454030.mrna1
No paths found for JASS/hiseq/c45123_g1_i2|m.13263.mrna1
No paths found for E1_2kb_3/polished_high/001452|m.1584.mrna1
No paths found for E1_2kb_2/006447|m.330773.mrna1
No paths found for DCR/hiseq/c77828_g1_i2|m.36144.mrna1
No paths found for NACLR/hiseq/c49431_g1_i1|m.26585.mrna1
No paths found for BRS/miseq/c28305_g5_i3|m.43229.mrna1
No paths found for JASS/hiseq/c44117_g1_i1|m.12306.mrna1
No paths found for E1_1kb/006690|m.274563.mrna1
No paths found for BRS/miseq/c17430_g1_i1|m.16059.mrna1
No paths found for V1_1kb_1/001194|m.697817.mrna1
No paths found for BRN/hiseq/c20436_g1_i2|m.4810.mrna1
No paths found for Neg_S1/c17277_g1_i2|m.86424.mrna1
No paths found for DCR/hiseq/c45029_g1_i1|m.14511.mrna1
No paths found for V/hiseq/c46963_g1_i2|m.20121.mrna1
No paths found for JASS/hiseq/c50465_g1_i1|m.19580.mrna1
No paths found for S/hiseq/c42102_g1_i3|m.34014.mrna1
No paths found for NACLR/hiseq/c73371_g1_i1|m.83978.mrna1
No paths found for E1_1kb/014163|m.286350.mrna1
No paths found for NACLR/hiseq/c52875_g1_i1|m.30333.mrna1
No paths found for V1_2kb/007445|m.837430.mrna1
No paths found for NACLR/hiseq/c68534_g1_i1|m.66413.mrna1
No paths found for DCS1kb_1/polished_high/000809|m.1076.mrna1
No paths found for M_S1/c18548_g2_i1|m.121087.mrna1
No paths found for SDN/miseq/c29612_g1_i2|m.39936.mrna1
No paths found for SDN/miseq/c23531_g1_i2|m.22637.mrna1
No paths found for BRN/hiseq/c50305_g1_i2|m.14497.mrna1
No paths found for BRS/miseq/c30057_g7_i2|m.51786.mrna1
No paths found for DCS1kb_3/polished_high/000505|m.735.mrna1
No paths found for SDN/miseq/c21403_g2_i1|m.18890.mrna1
No paths found for V/hiseq/c16898_g1_i1|m.4455.mrna1
No paths found for NACLR/hiseq/c42958_g1_i2|m.20455.mrna1
No paths found for M_S1/c26682_g1_i2|m.131178.mrna1
No paths found for E1_2kb_3/polished_high/000990|m.1271.mrna1
No paths found for E1_2kb/003393|m.398082.mrna1
No paths found for JASS/hiseq/c52001_g1_i1|m.22566.mrna1
No paths found for DCR/hiseq/c79893_g1_i1|m.38870.mrna1
No paths found for V_2kb/018370|m.1018963.mrna1
No paths found for DCR/hiseq/c90921_g2_i1|m.59705.mrna1
No paths found for NACLR/hiseq/c68534_g1_i1|m.66413.mrna2
No paths found for S_2kb/015741|m.681476.mrna1
No paths found for S_2kb_2/000425|m.599583.mrna5
No paths found for Neg_S1/c17784_g1_i2|m.88142.mrna1
No paths found for SDN/miseq/c30799_g1_i2|m.45389.mrna1
No paths found for JASS/hiseq/c58395_g2_i1|m.40928.mrna1
No paths found for BRN/hiseq/c57234_g1_i1|m.21243.mrna1
No paths found for V1_1kb_3/polished_high/001669|m.1653.mrna1
No paths found for S/hiseq/c26201_g1_i1|m.7593.mrna1
No paths found for SDN/miseq/c14370_g1_i1|m.9939.mrna1
No paths found for S_2kb_1/000386|m.572162.mrna1
No paths found for Wound/hiseq/c62651_g1_i2|m.26937.mrna1
No paths found for V1_2kb/003025|m.829558.mrna1
No paths found for V1_1kb_3/006697|m.794221.mrna1
No paths found for BRS/miseq/c11500_g1_i1|m.8355.mrna1
No paths found for BRS/miseq/c30775_g3_i1|m.56185.mrna1
No paths found for E1_2kb_3/polished_high/000868|m.942.mrna4
No paths found for DCR/hiseq/c104458_g1_i2|m.109085.mrna1
No paths found for NACLR/hiseq/c73322_g1_i1|m.83902.mrna1
No paths found for S_2kb_1/008767|m.583858.mrna1
No paths found for Basket/c18421_g1_i1|m.25007.mrna1
No paths found for Wound/hiseq/c77870_g1_i1|m.74893.mrna1
No paths found for S/hiseq/c45628_g3_i1|m.51705.mrna1
No paths found for PILAhq_033353-RA
No paths found for V/hiseq/c58232_g1_i1|m.46163.mrna1
No paths found for K_S1/c26325_g2_i2|m.214819.mrna1
No paths found for Wound/hiseq/c64301_g1_i3|m.30230.mrna1
No paths found for V/hiseq/c30225_g1_i1|m.8532.mrna1
No paths found for V/hiseq/c42860_g1_i1|m.15535.mrna1
No paths found for SDN/miseq/c29257_g1_i1|m.38590.mrna1
No paths found for V1_1kb_1/polished_high/002413|m.2481.mrna1
No paths found for S_2kb_1/polished_high/000916|m.771.mrna1
No paths found for NACLR/hiseq/c75929_g1_i1|m.85980.mrna1
No paths found for SDN/miseq/c25714_g1_i1|m.27692.mrna1
No paths found for BRN/hiseq/c51348_g1_i1|m.15291.mrna1
No paths found for E1_2kb_1/polished_high/001119|m.1297.mrna1
No paths found for S/hiseq/c5153_g1_i1|m.1301.mrna1
No paths found for BRN/hiseq/c71461_g2_i5|m.62371.mrna1
No paths found for BRN/hiseq/c68219_g1_i2|m.46386.mrna1
No paths found for SDN/miseq/c6424_g1_i1|m.4039.mrna1
No paths found for Wound/hiseq/c66958_g1_i2|m.36721.mrna1
No paths found for DCS1kb_3/021458|m.96029.mrna1
No paths found for JASS/hiseq/c54590_g1_i1|m.28580.mrna1
No paths found for S_1kb/polished_high/000642|m.562.mrna1
No paths found for M_S1/c30227_g1_i1|m.139187.mrna1
No paths found for DCR/hiseq/c71355_g1_i1|m.28776.mrna1
No paths found for DCS/hiseq/c54189_g3_i1|m.29830.mrna1
No paths found for SDN/miseq/c27800_g1_i1|m.33390.mrna1
No paths found for V/hiseq/c46467_g1_i1|m.19411.mrna1
No paths found for V1_1kb_1/025230|m.733825.mrna1
No paths found for SDN/miseq/c14424_g1_i1|m.10003.mrna1
No paths found for BRN/hiseq/c65141_g1_i1|m.36039.mrna1
No paths found for DCS1kb_2/polished_high/000682|m.859.mrna1
No paths found for NACLR/hiseq/c74923_g1_i1|m.85228.mrna1
No paths found for SDN/miseq/c27588_g1_i1|m.32766.mrna1
No paths found for BRN/hiseq/c24895_g1_i2|m.6420.mrna1
No paths found for Wound/hiseq/c72784_g1_i2|m.60287.mrna1
No paths found for DCR/hiseq/c4643_g1_i1|m.1451.mrna1
No paths found for Wound/hiseq/c62873_g1_i3|m.27348.mrna1
No paths found for V/hiseq/c64457_g1_i2|m.78874.mrna1
No paths found for DCS1kb_2/007588|m.45488.mrna1
No paths found for Basket/c26665_g1_i1|m.53539.mrna1
No paths found for V/hiseq/c53838_g1_i1|m.33323.mrna1
No paths found for V/hiseq/c38319_g1_i1|m.12254.mrna1
No paths found for BRN/hiseq/c71525_g1_i3|m.62794.mrna1
No paths found for Wound/hiseq/c69264_g3_i1|m.43958.mrna1
No paths found for SDN/miseq/c29581_g8_i1|m.39811.mrna1
No paths found for SDN/miseq/c30360_g1_i1|m.43166.mrna1
No paths found for NACLR/hiseq/c68426_g1_i2|m.65936.mrna1
No paths found for Basket/c20494_g1_i1|m.31236.mrna1
No paths found for K_S1/c30067_g1_i1|m.230973.mrna1
No paths found for Neg_S1/c10218_g1_i1|m.70510.mrna1
No paths found for Wound/hiseq/c69567_g1_i1|m.45076.mrna1
No paths found for M_S1/c31146_g1_i2|m.141647.mrna1
No paths found for BRN/hiseq/c47804_g1_i2|m.13241.mrna1
No paths found for E1_2kb_1/009636|m.297643.mrna1
No paths found for DCS/hiseq/c21145_g1_i1|m.5804.mrna1
No paths found for BRN/hiseq/c18320_g1_i1|m.4087.mrna1
No paths found for Wound/hiseq/c51491_g1_i1|m.14331.mrna1
No paths found for Wound/hiseq/c58533_g1_i2|m.20560.mrna1
No paths found for BRN/hiseq/c71499_g1_i2|m.62628.mrna1
No paths found for K_S1/c29915_g1_i3|m.230276.mrna1
No paths found for BRN/hiseq/c60319_g1_i3|m.25473.mrna1
No paths found for M_S1/c33046_g1_i1|m.147421.mrna1
No paths found for SDN/miseq/c25851_g1_i1|m.28042.mrna1
No paths found for DCR/hiseq/c98791_g2_i4|m.83933.mrna1
No paths found for DCR/hiseq/c107358_g11_i1|m.126978.mrna1
No paths found for S/hiseq/c19518_g1_i1|m.4935.mrna1
No paths found for DCS2kb_3/polished_high/000476|m.677.mrna1
No paths found for Basket/c16023_g1_i2|m.18921.mrna1
No paths found for E1_2kb_1/polished_high/002037|m.2084.mrna1
No paths found for E1/hiseq/c39173_g2_i4|m.24787.mrna1
No paths found for DCS_1kb/000234|m.98843.mrna1
No paths found for E1_2kb_2/polished_high/000801|m.1057.mrna1
No paths found for Basket/c18358_g1_i1|m.24828.mrna1
No paths found for SDN/miseq/c55231_g1_i1|m.68931.mrna1
No paths found for M_S1/c5239_g1_i1|m.114837.mrna1
No paths found for Wound/hiseq/c68163_g1_i1|m.40262.mrna1
No paths found for DCR/hiseq/c89038_g1_i2|m.55368.mrna1
No paths found for M_S1/c32459_g1_i2|m.145514.mrna1
No paths found for JASS/hiseq/c65195_g1_i1|m.65168.mrna1
No paths found for S/hiseq/c42221_g1_i3|m.34440.mrna1
No paths found for Wound/hiseq/c70866_g5_i6|m.50600.mrna1
No paths found for V/hiseq/c50317_g1_i1|m.25580.mrna1
No paths found for Wound/hiseq/c73559_g4_i1|m.64847.mrna1
No paths found for S_2kb/005299|m.665499.mrna1
No paths found for JASS/hiseq/c50086_g1_i1|m.18967.mrna1
No paths found for V/hiseq/c46550_g1_i1|m.19503.mrna1
No paths found for DCR/hiseq/c97181_g1_i1|m.78056.mrna1
No paths found for E1/hiseq/c35879_g2_i3|m.16708.mrna1
No paths found for DCR/hiseq/c80703_g1_i1|m.39900.mrna1
No paths found for S/hiseq/c42000_g1_i1|m.33619.mrna1
No paths found for BRS/miseq/c30418_g5_i2|m.53918.mrna1
No paths found for V_1kb/polished_high/000280|m.423.mrna1
No paths found for DCS/hiseq/c53635_g2_i1|m.28300.mrna1
No paths found for NACLR/hiseq/c70899_g4_i1|m.78690.mrna1
No paths found for BRN/hiseq/c63184_g1_i1|m.31058.mrna1
No paths found for DCR/hiseq/c98302_g1_i1|m.82186.mrna1
No paths found for K_S1/c12611_g1_i1|m.187772.mrna1
No paths found for Basket/c14868_g1_i1|m.16451.mrna1
No paths found for K_S1/c54509_g1_i1|m.245497.mrna1
No paths found for JASS/hiseq/c59685_g1_i2|m.46657.mrna1
No paths found for JASS/hiseq/c55610_g1_i2|m.31291.mrna1
No paths found for Wound/hiseq/c75390_g1_i1|m.73767.mrna1
No paths found for E1_2kb_3/polished_high/000275|m.276.mrna1
No paths found for E1_1kb/008534|m.277446.mrna1
No paths found for DCR/hiseq/c95550_g1_i1|m.72617.mrna1
No paths found for BRN/hiseq/c63823_g3_i1|m.32559.mrna1
No paths found for K_S1/c6931_g1_i1|m.183252.mrna1
No paths found for K_S1/c19540_g1_i2|m.197751.mrna1
No paths found for V1_2kb/008822|m.839803.mrna1
No paths found for SDN/miseq/c30386_g1_i2|m.43301.mrna1
No paths found for SDN/miseq/c28131_g1_i1|m.34496.mrna1
No paths found for DCS/hiseq/c52923_g1_i3|m.26408.mrna1
No paths found for SDN/miseq/c22871_g1_i2|m.21304.mrna1
No paths found for JASS/hiseq/c60879_g3_i1|m.53372.mrna1
No paths found for K_S1/c25095_g1_i1|m.210973.mrna1
No paths found for Basket/c21355_g1_i1|m.34034.mrna1
No paths found for DCR/hiseq/c101087_g1_i1|m.92883.mrna1
No paths found for S/hiseq/c27405_g1_i1|m.8476.mrna1
Processed 8775 queries in 14594.97 seconds (0.60 queries/sec)
Removed existing memory for shmid 688129
Removed existing memory for shmid 655360
Removed existing memory for shmid 720898
