EOG09360025
EOG093600CL
EOG093600FR
EOG093600G6
EOG093600T8
EOG093600U9
EOG0936019N
EOG093601DT
EOG093601IV
EOG093601IY
EOG093601PV
EOG093601QL
EOG09360236
EOG0936023S
EOG0936025H
EOG093602EO
EOG093602F2
EOG093602LT
EOG093602MY
EOG093602SW
EOG093602U5
EOG093602X4
EOG0936031Y
EOG0936033V
EOG0936035U
EOG0936037T
EOG0936038S
EOG093603IM
EOG093603JD
EOG093603OV
EOG093603QQ
EOG093603QT
EOG093603SR
EOG093603TE
EOG093603WH
EOG093603XO
EOG09360439
EOG0936043U
EOG093604B8
EOG093604F0
EOG093604FM
EOG093604HB
EOG093604HK
EOG093604KN
EOG093604MP
EOG093604P6
EOG093604X5
EOG093604YC
EOG0936052S
EOG09360557
EOG0936056C
EOG0936057B
EOG093605DF
EOG093605NL
EOG093605OT
EOG093605PH
EOG093605PR
EOG093605QW
EOG093605RH
EOG093605TV
EOG093605VH
EOG093605XW
EOG0936063C
EOG09360640
EOG0936065V
EOG0936066T
EOG09360676
EOG0936068S
EOG093606C9
EOG093606D1
EOG093606G1
EOG093606LZ
EOG093606N3
EOG093606S1
EOG0936070W
EOG09360720
EOG09360725
EOG0936079P
EOG093607GQ
EOG093607HY
EOG093607I7
EOG093607TG
EOG093607UA
EOG093607YB
EOG093607ZG
EOG093607ZT
EOG0936082I
EOG0936082Y
EOG0936083D
EOG0936085U
EOG093608AX
EOG093608FN
EOG093608R5
EOG093608ZW
EOG09360916
EOG0936091G
EOG0936096C
EOG093609D4
EOG093609NZ
EOG093609PH
EOG093609R4
EOG093609UI
EOG093609UJ
EOG093609VP
EOG093609X6
EOG09360A0R
EOG09360A77
EOG09360A7W
EOG09360A7X
EOG09360A8J
EOG09360AA1
EOG09360ADB
EOG09360AKC
EOG09360ALA
EOG09360ALP
EOG09360AQ0
EOG09360ARD
EOG09360AX2
EOG09360B47
EOG09360B4L
EOG09360B4S
EOG09360BA6
EOG09360BDG
EOG09360BEL
EOG09360BIG
EOG09360BJO
EOG09360BN6
EOG09360BOH
EOG09360BPW
EOG09360BR4
EOG09360BY2
EOG09360C61
EOG09360C7N
EOG09360CDH
EOG09360CEB
EOG09360CFL
EOG09360CG1
EOG09360CG3
EOG09360CTZ
EOG09360CX9
EOG09360D08
EOG09360D36
EOG09360D4T
EOG09360D7K
EOG09360D8C
EOG09360DCC
EOG09360DKW
EOG09360DMR
EOG09360DNG
EOG09360DV9
EOG09360DVB
EOG09360DX3
EOG09360DZZ
EOG09360E5A
EOG09360E9S
EOG09360EE5
EOG09360EKU
EOG09360ELM
EOG09360EMI
EOG09360EX7
EOG09360F0Y
EOG09360F1B
EOG09360F40
EOG09360F53
EOG09360FE1
EOG09360FJP
EOG09360FJY
EOG09360FLC
EOG09360FM4
EOG09360FQU
EOG09360FR1
EOG09360FVP
EOG09360G0X
EOG09360G1W
EOG09360G5B
EOG09360G91
EOG09360GKN
EOG09360GMQ
EOG09360GN9
EOG09360GOA
EOG09360GQJ
EOG09360GQN
EOG09360GU0
EOG09360GXL
EOG09360GZJ
EOG09360H49
EOG09360H4M
EOG09360HAG
EOG09360HC5
EOG09360HCK
EOG09360HD9
EOG09360HE3
EOG09360HI2
EOG09360HIJ
EOG09360HKF
EOG09360HN7
EOG09360HQF
EOG09360HRI
EOG09360HSL
EOG09360HX1
EOG09360I5J
EOG09360I5Z
EOG09360IHY
EOG09360IKP
EOG09360IML
EOG09360IPD
EOG09360IPZ
EOG09360IS4
EOG09360ISB
EOG09360J00
EOG09360J0A
EOG09360J1Z
EOG09360J3N
EOG09360J79
EOG09360JHI
EOG09360JL5
EOG09360JMJ
EOG09360JO1
EOG09360JOE
EOG09360JSH
EOG09360JWQ
EOG09360K1I
EOG09360K2J
EOG09360K5X
EOG09360K7R
EOG09360KBS
EOG09360KGN
EOG09360KKY
EOG09360KMC
EOG09360KRQ
EOG09360KZ9
EOG09360L3E
EOG09360LF5
EOG09360LFN
EOG09360LHZ
EOG09360LJZ
EOG09360LL8
EOG09360LLC
EOG09360LO8
EOG09360LPQ
EOG09360LYU
EOG09360M1L
EOG09360M3L
EOG09360MDX
EOG09360MF2
EOG09360MKH
EOG09360MRP
EOG09360MUD
EOG09360N12
EOG09360N4L
EOG09360N7D
EOG09360N7F
EOG09360NB8
EOG09360NBT
EOG09360NF5
EOG09360NM4
EOG09360NSW
EOG09360NTO
EOG09360O2N
EOG09360O4B
EOG09360OBH
EOG09360OGZ
EOG09360ONA
EOG09360OQ1
EOG09360PA0
EOG09360PLN
EOG09360PQE
EOG09360Q2G
EOG09360QMO
EOG09360RFB
EOG09360S1W
EOG09360SLX
EOG09360TMO
EOG09360TWW
EOG09360UCM
EOG09360UZA
EOG09360V3N
EOG09360XE7
