/isg/shared/apps/quast/4.6/quast.py /labs/Wegrzyn/cycad/Panzhihua_sutie/00_GENOME/sutie2.genome.fasta -o quast_panzhihua

Version: 4.6.0, 22f3f69

System information:
  OS: Linux-3.10.0-957.5.1.el7.x86_64-x86_64-with-centos-7.6.1810-Core (linux_64)
  Python version: 2.7.13
  CPUs number: 48

Started: 2020-03-19 14:25:10

Logging to /labs/Wegrzyn/ConiferGenomes/coniferannotations/cycad/panzhihua/1_prelim_check/quast/quast_panzhihua/quast.log
NOTICE: Maximum number of threads is set to 12 (use --threads option to set it manually)

CWD: /labs/Wegrzyn/ConiferGenomes/coniferannotations/cycad/panzhihua/1_prelim_check/quast
Main parameters: 
  Threads: 12, minimum contig length: 500, ambiguity: one, threshold for extensive misassembly size: 1000

Contigs:
  Pre-processing...
  /labs/Wegrzyn/cycad/Panzhihua_sutie/00_GENOME/sutie2.genome.fasta ==> sutie2.genome

2020-03-19 14:49:48
Running Basic statistics processor...
  Contig files: 
    sutie2.genome
  Calculating N50 and L50...
    sutie2.genome, N50 = 12673008, L50 = 249, Total length = 10764188900, GC % = 36.02, # N's per 100 kbp =  0.00
  Drawing Nx plot...
    saved to /labs/Wegrzyn/ConiferGenomes/coniferannotations/cycad/panzhihua/1_prelim_check/quast/quast_panzhihua/basic_stats/Nx_plot.pdf
  Drawing cumulative plot...
    saved to /labs/Wegrzyn/ConiferGenomes/coniferannotations/cycad/panzhihua/1_prelim_check/quast/quast_panzhihua/basic_stats/cumulative_plot.pdf
  Drawing GC content plot...
    saved to /labs/Wegrzyn/ConiferGenomes/coniferannotations/cycad/panzhihua/1_prelim_check/quast/quast_panzhihua/basic_stats/GC_content_plot.pdf
  Drawing sutie2.genome GC content plot...
    saved to /labs/Wegrzyn/ConiferGenomes/coniferannotations/cycad/panzhihua/1_prelim_check/quast/quast_panzhihua/basic_stats/sutie2.genome_GC_content_plot.pdf
Done.

NOTICE: Genes are not predicted by default. Use --gene-finding option to enable it.

2020-03-19 15:14:28
Creating large visual summaries...
This may take a while: press Ctrl-C to skip this step..
  1 of 2: Creating Icarus viewers...
  2 of 2: Creating PDF with all tables and plots...
Done

2020-03-19 15:20:56
RESULTS:
  Text versions of total report are saved to /labs/Wegrzyn/ConiferGenomes/coniferannotations/cycad/panzhihua/1_prelim_check/quast/quast_panzhihua/report.txt, report.tsv, and report.tex
  Text versions of transposed total report are saved to /labs/Wegrzyn/ConiferGenomes/coniferannotations/cycad/panzhihua/1_prelim_check/quast/quast_panzhihua/transposed_report.txt, transposed_report.tsv, and transposed_report.tex
  HTML version (interactive tables and plots) saved to /labs/Wegrzyn/ConiferGenomes/coniferannotations/cycad/panzhihua/1_prelim_check/quast/quast_panzhihua/report.html
  PDF version (tables and plots) is saved to /labs/Wegrzyn/ConiferGenomes/coniferannotations/cycad/panzhihua/1_prelim_check/quast/quast_panzhihua/report.pdf
  Icarus (contig browser) is saved to /labs/Wegrzyn/ConiferGenomes/coniferannotations/cycad/panzhihua/1_prelim_check/quast/quast_panzhihua/icarus.html
  Log saved to /labs/Wegrzyn/ConiferGenomes/coniferannotations/cycad/panzhihua/1_prelim_check/quast/quast_panzhihua/quast.log

Finished: 2020-03-19 15:20:57
Elapsed time: 0:55:47.396825
NOTICEs: 2; WARNINGs: 0; non-fatal ERRORs: 0

Thank you for using QUAST!
