# BUSCO version is: 3.0.2 
# The lineage dataset is: embryophyta_odb9 (Creation date: 2016-02-13, number of species: 30, number of BUSCOs: 1440)
# To reproduce this run: python /isg/shared/apps/busco/3.0.2b/scripts/run_BUSCO.py -i ./Merged_PacBio.Cluster.fasta -o Busco_PITA_pacbio -l /isg/shared/databases/busco_lineages/embryophyta_odb9/ -m transcriptome -c 8
#
# Busco id	Status	Sequence	Score	Length
EOG09360002	Fragmented	c27146_f1p3_3910	1627.7	863
EOG0936000A	Fragmented	c2523_f1p2_3860	1170.9	904
EOG0936001N	Fragmented	c13512_f1p0_6015	1049.5	585
EOG0936001W	Fragmented	c23022_f1p0_3451	223.6	298
EOG09360025	Complete	c2111_f2p1_3743	1717.8	980
EOG0936003Z	Missing
EOG0936004R	Missing
EOG0936004W	Missing
EOG0936008E	Missing
EOG0936008K	Missing
EOG09360091	Missing
EOG0936009W	Missing
EOG093600CA	Missing
EOG093600CH	Missing
EOG093600CL	Complete	c7554_f1p1_3710	1680.4	1050
EOG093600DF	Missing
EOG093600DJ	Missing
EOG093600DL	Missing
EOG093600EH	Missing
EOG093600FR	Complete	c27710_f1p1_2791	634.2	562
EOG093600G6	Complete	c14283_f1p0_3343	849.6	770
EOG093600GM	Missing
EOG093600H1	Missing
EOG093600IQ	Missing
EOG093600K5	Complete	c8911_f1p0_2621	577.9	419
EOG093600LV	Missing
EOG093600N9	Missing
EOG093600NS	Missing
EOG093600O6	Missing
EOG093600OF	Fragmented	c22904_f1p1_1343	768.6	377
EOG093600ON	Duplicated	c17910_f2p0_3111	1386.7	830
EOG093600ON	Duplicated	c21832_f1p4_4221	1524.0	973
EOG093600ON	Duplicated	c24884_f1p3_3494	1469.8	924
EOG093600OU	Missing
EOG093600P5	Fragmented	c11380_f1p0_3289	782.9	553
EOG093600PE	Missing
EOG093600QB	Fragmented	c18546_f1p1_3597	647.3	342
EOG093600R5	Missing
EOG093600SL	Complete	c28085_f1p1_3377	1200.6	793
EOG093600SS	Missing
EOG093600SY	Fragmented	c18179_f1p1_3443	987.8	519
EOG093600T6	Missing
EOG093600T8	Complete	c28201_f1p1_3834	285.9	504
EOG093600TY	Missing
EOG093600TZ	Missing
EOG093600U4	Duplicated	c10174_f1p1_3948	1015.0	673
EOG093600U4	Duplicated	c13237_f2p1_4201	1014.8	673
EOG093600U4	Duplicated	c9097_f1p1_3440	1015.5	673
EOG093600U9	Complete	c22114_f2p3_3615	1247.0	921
EOG093600UX	Missing
EOG093600W2	Missing
EOG093600WS	Missing
EOG093600X9	Missing
EOG093600XL	Missing
EOG093600YH	Missing
EOG093600ZL	Missing
EOG0936011P	Missing
EOG0936011U	Missing
EOG0936011V	Missing
EOG09360146	Missing
EOG09360155	Missing
EOG0936015N	Missing
EOG0936017C	Duplicated	c21138_f1p5_3699	1468.4	831
EOG0936017C	Duplicated	c22970_f1p5_3504	1469.0	831
EOG0936017K	Duplicated	c21847_f1p2_3679	805.3	553
EOG0936017K	Duplicated	c23829_f1p0_4135	814.3	561
EOG09360199	Missing
EOG0936019N	Duplicated	c20963_f2p5_3027	1227.7	773
EOG0936019N	Duplicated	c271_f11p5_3288	1227.3	773
EOG0936019N	Duplicated	c31097_f1p5_3143	1227.4	773
EOG0936019X	Missing
EOG093601AL	Fragmented	c30958_f2p2_3710	1662.8	904
EOG093601AN	Missing
EOG093601CE	Missing
EOG093601CM	Duplicated	c4026_f1p2_3003	399.2	550
EOG093601CM	Duplicated	c849_f5p3_3124	398.8	550
EOG093601CX	Missing
EOG093601DT	Duplicated	c10187_f1p1_3787	1080.1	762
EOG093601DT	Duplicated	c3153_f1p1_3537	1197.5	812
EOG093601FF	Fragmented	c12364_f1p1_3593	1137.2	551
EOG093601FH	Missing
EOG093601G4	Missing
EOG093601IB	Missing
EOG093601IL	Complete	c6548_f1p0_4212	1366.0	978
EOG093601IV	Duplicated	c3714_f1p2_3419	1277.7	783
EOG093601IV	Duplicated	c4556_f2p2_3390	1277.8	783
EOG093601IY	Complete	c25191_f1p0_3232	747.0	754
EOG093601KV	Missing
EOG093601KY	Missing
EOG093601LZ	Complete	c18553_f1p0_3281	379.6	291
EOG093601M6	Complete	c25386_f1p1_3362	477.8	495
EOG093601MF	Missing
EOG093601MT	Duplicated	c11199_f1p7_3785	619.0	788
EOG093601MT	Duplicated	c23060_f1p10_4120	636.9	800
EOG093601NK	Complete	c12173_f2p1_3628	875.7	643
EOG093601NU	Fragmented	c18751_f1p0_3383	586.9	465
EOG093601OK	Missing
EOG093601PF	Complete	c22743_f1p0_4192	1482.1	816
EOG093601PJ	Missing
EOG093601PV	Complete	c6833_f1p0_2442	322.5	297
EOG093601Q7	Missing
EOG093601QL	Duplicated	c390_f6p3_3192	267.9	544
EOG093601QL	Duplicated	c731_f1p2_3203	267.9	544
EOG093601SL	Missing
EOG093601SQ	Missing
EOG093601T9	Complete	c12723_f1p0_3077	874.4	591
EOG093601TO	Duplicated	c14024_f2p5_2485	1138.2	623
EOG093601TO	Duplicated	c17424_f1p3_3049	1197.8	655
EOG093601TR	Missing
EOG093601U2	Missing
EOG093601UA	Missing
EOG093601UC	Complete	c7363_f2p0_3697	1246.4	736
EOG093601V0	Missing
EOG093601VD	Missing
EOG093601WC	Fragmented	c16259_f1p0_1491	626.1	399
EOG093601XR	Fragmented	c5011_f1p1_3465	442.2	247
EOG093601Y2	Missing
EOG093601Y6	Missing
EOG09360205	Missing
EOG0936020C	Missing
EOG0936020T	Missing
EOG0936021K	Missing
EOG09360236	Complete	c19466_f1p0_3515	521.0	445
EOG0936023S	Complete	c13913_f1p0_3178	918.5	667
EOG0936024P	Fragmented	c28332_f1p0_1186	611.5	318
EOG0936024U	Complete	c10895_f1p0_2993	910.2	673
EOG09360254	Missing
EOG09360259	Missing
EOG0936025H	Complete	c13008_f1p0_3040	697.2	519
EOG0936025L	Fragmented	c1128_f2p1_3064	703.3	505
EOG0936026P	Missing
EOG0936026R	Missing
EOG0936026Z	Missing
EOG0936027I	Missing
EOG0936028K	Missing
EOG0936028O	Duplicated	c17192_f1p0_1495	525.1	341
EOG0936028O	Duplicated	c28574_f1p1_3319	508.5	320
EOG0936028V	Missing
EOG09360296	Fragmented	c1056_f2p2_3272	1423.7	734
EOG093602A0	Duplicated	c2041_f2p1_3603	1358.9	759
EOG093602A0	Duplicated	c715_f3p1_3701	1275.4	734
EOG093602C3	Missing
EOG093602CL	Missing
EOG093602E8	Duplicated	c31222_f2p3_3250	1236.9	688
EOG093602E8	Duplicated	c584_f5p3_3194	1237.0	688
EOG093602E8	Duplicated	c6162_f1p3_3089	1233.9	688
EOG093602EO	Complete	c25357_f1p1_3698	958.9	726
EOG093602EU	Fragmented	c21086_f1p0_1950	711.1	468
EOG093602F2	Complete	c13834_f1p1_3088	883.3	528
EOG093602FO	Missing
EOG093602GP	Duplicated	c12614_f1p3_2559	1134.4	600
EOG093602GP	Duplicated	c26148_f2p3_2430	1123.9	596
EOG093602GP	Duplicated	c3578_f1p3_2735	1134.1	600
EOG093602H1	Missing
EOG093602HL	Missing
EOG093602I0	Missing
EOG093602IG	Missing
EOG093602K0	Complete	c3476_f1p0_2268	735.1	522
EOG093602KH	Complete	c21548_f1p0_3352	1010.5	555
EOG093602KV	Fragmented	c16032_f1p0_1356	279.6	209
EOG093602LT	Complete	c29087_f1p0_826	95.0	136
EOG093602MY	Complete	c10449_f1p0_2819	950.2	534
EOG093602N6	Missing
EOG093602O1	Missing
EOG093602OJ	Missing
EOG093602PW	Missing
EOG093602QH	Missing
EOG093602QV	Missing
EOG093602RY	Missing
EOG093602S0	Missing
EOG093602SP	Complete	c7261_f1p2_4238	239.6	533
EOG093602SW	Complete	c22163_f1p0_4373	357.7	469
EOG093602T8	Missing
EOG093602TY	Fragmented	c25892_f1p0_2536	657.9	472
EOG093602U5	Complete	c8446_f1p0_2277	663.1	651
EOG093602UL	Missing
EOG093602V4	Duplicated	c13916_f3p0_3138	1011.5	731
EOG093602V4	Duplicated	c19692_f2p6_3148	1010.2	732
EOG093602VC	Missing
EOG093602VE	Missing
EOG093602VI	Missing
EOG093602WA	Missing
EOG093602X4	Complete	c12687_f1p0_3125	417.7	385
EOG093602XV	Missing
EOG093602XZ	Missing
EOG093602Y5	Duplicated	c1969_f4p4_3573	958.2	587
EOG093602Y5	Duplicated	c894_f4p4_3662	958.1	587
EOG093602Y9	Missing
EOG093602YD	Missing
EOG093602Z8	Missing
EOG093602ZN	Missing
EOG09360300	Missing
EOG09360317	Missing
EOG0936031D	Missing
EOG0936031Y	Duplicated	c15690_f1p2_3069	844.8	812
EOG0936031Y	Duplicated	c19511_f1p3_3356	844.2	812
EOG0936031Y	Duplicated	c8821_f2p2_3160	844.6	812
EOG0936032C	Missing
EOG0936032P	Complete	c26116_f1p0_3235	1012.8	1089
EOG0936033H	Missing
EOG0936033V	Complete	c13276_f2p0_3053	877.1	565
EOG09360353	Missing
EOG09360358	Duplicated	c26861_f1p2_2596	922.7	597
EOG09360358	Duplicated	c28397_f6p2_2296	924.8	597
EOG09360358	Duplicated	c9877_f6p2_2480	924.4	597
EOG0936035H	Missing
EOG0936035T	Fragmented	c11668_f1p3_3741	793.7	536
EOG0936035U	Duplicated	c12657_f1p5_3504	713.4	513
EOG0936035U	Duplicated	c16789_f1p1_2388	714.8	513
EOG0936035U	Duplicated	c17718_f3p6_3233	713.7	513
EOG0936036G	Complete	c1159_f3p2_3657	873.6	583
EOG0936036H	Missing
EOG0936036V	Duplicated	c14854_f1p2_3571	886.5	778
EOG0936036V	Duplicated	c19360_f1p2_3761	886.2	779
EOG0936036V	Duplicated	c6568_f1p2_3387	887.5	781
EOG0936037E	Missing
EOG0936037T	Complete	c29000_f1p0_3622	391.9	596
EOG0936037Y	Duplicated	c10080_f1p1_2920	473.4	435
EOG0936037Y	Duplicated	c22807_f1p0_3240	527.6	445
EOG09360383	Duplicated	c22389_f1p0_2264	770.7	583
EOG09360383	Duplicated	c22754_f1p0_2366	770.3	584
EOG09360383	Duplicated	c5670_f1p0_2493	769.6	584
EOG0936038D	Fragmented	c7201_f1p0_2362	670.1	307
EOG0936038M	Missing
EOG0936038S	Complete	c24742_f1p0_3043	706.3	606
EOG0936038Z	Missing
EOG09360391	Missing
EOG09360394	Missing
EOG093603DJ	Fragmented	c22699_f1p0_1432	259.3	275
EOG093603DO	Missing
EOG093603EX	Missing
EOG093603F5	Complete	c16661_f1p0_3247	922.7	749
EOG093603FC	Missing
EOG093603FG	Missing
EOG093603FS	Missing
EOG093603GP	Missing
EOG093603H7	Missing
EOG093603HD	Duplicated	c11019_f2p0_2915	1153.0	604
EOG093603HD	Duplicated	c25248_f1p0_3254	1152.4	604
EOG093603HD	Duplicated	c30446_f1p0_3137	1148.3	604
EOG093603I2	Missing
EOG093603IB	Missing
EOG093603IM	Complete	c17773_f2p0_3345	535.2	837
EOG093603J1	Missing
EOG093603J5	Missing
EOG093603JD	Duplicated	c12460_f1p5_2400	614.5	639
EOG093603JD	Duplicated	c22413_f2p5_2506	614.5	639
EOG093603JD	Duplicated	c25809_f2p1_2434	554.1	640
EOG093603K3	Duplicated	c572_f5p2_3162	996.3	628
EOG093603K3	Duplicated	c626_f4p2_3106	996.5	628
EOG093603K7	Complete	c29453_f1p0_1350	446.6	348
EOG093603K9	Missing
EOG093603KJ	Missing
EOG093603LQ	Fragmented	c9177_f1p0_3946	517.7	243
EOG093603M5	Missing
EOG093603MT	Complete	c6065_f2p2_3528	912.3	571
EOG093603NH	Missing
EOG093603OJ	Missing
EOG093603OL	Complete	c989_f2p0_3937	882.3	543
EOG093603OR	Missing
EOG093603OV	Duplicated	c22278_f1p0_3398	736.0	628
EOG093603OV	Duplicated	c26385_f1p3_3575	733.0	630
EOG093603OV	Duplicated	c3460_f1p2_3548	681.2	632
EOG093603PK	Complete	c9422_f1p0_1100	132.8	215
EOG093603PO	Fragmented	c13343_f1p0_1108	266.7	190
EOG093603PW	Missing
EOG093603QH	Missing
EOG093603QQ	Complete	c3829_f1p0_1973	801.3	484
EOG093603QT	Duplicated	c29475_f1p0_1347	454.7	371
EOG093603QT	Duplicated	c32404_f1p0_1404	471.3	366
EOG093603RD	Missing
EOG093603RW	Missing
EOG093603SM	Missing
EOG093603SR	Duplicated	c2232_f3p3_1994	837.0	470
EOG093603SR	Duplicated	c28547_f5p6_2276	869.0	487
EOG093603SR	Duplicated	c3841_f2p2_1815	824.1	432
EOG093603SX	Missing
EOG093603T3	Missing
EOG093603TE	Complete	c20904_f1p1_3770	980.9	879
EOG093603UO	Missing
EOG093603UU	Complete	c9213_f1p1_2360	826.2	438
EOG093603UW	Missing
EOG093603VH	Duplicated	c2664_f1p2_3249	286.5	529
EOG093603VH	Duplicated	c3037_f1p1_2281	276.9	471
EOG093603VX	Missing
EOG093603VZ	Missing
EOG093603W4	Duplicated	c2034_f3p1_2363	1041.6	576
EOG093603W4	Duplicated	c2103_f3p1_2226	1031.6	546
EOG093603W4	Duplicated	c23290_f1p1_2504	1041.1	576
EOG093603W7	Missing
EOG093603WH	Complete	c11863_f1p0_3713	741.0	746
EOG093603WZ	Fragmented	c16447_f1p2_3261	800.0	368
EOG093603XJ	Complete	c30997_f1p5_3248	465.1	637
EOG093603XO	Duplicated	c17920_f3p1_3224	455.4	463
EOG093603XO	Duplicated	c637_f2p1_3117	481.2	524
EOG093603XO	Duplicated	c905_f3p2_3158	449.9	532
EOG093603YN	Missing
EOG093603Z1	Missing
EOG093603ZW	Missing
EOG0936040G	Missing
EOG0936041E	Missing
EOG0936041M	Duplicated	c23483_f1p0_2865	413.4	369
EOG0936041M	Duplicated	c23483_f1p0_2865	453.4	307
EOG0936041Q	Fragmented	c27663_f1p3_1988	1088.6	538
EOG0936041Y	Missing
EOG09360424	Missing
EOG0936042H	Duplicated	c12822_f1p0_3334	527.5	428
EOG0936042H	Duplicated	c17968_f3p2_3337	553.6	447
EOG0936042H	Duplicated	c31401_f1p2_3476	568.6	463
EOG0936042R	Missing
EOG09360439	Complete	c28864_f1p0_2821	884.9	561
EOG0936043P	Complete	c26888_f1p2_2392	621.7	505
EOG0936043U	Complete	c20056_f1p2_1866	1135.0	515
EOG0936044V	Missing
EOG0936045K	Missing
EOG0936046G	Missing
EOG0936047E	Missing
EOG0936048K	Missing
EOG09360490	Missing
EOG0936049L	Missing
EOG093604AJ	Missing
EOG093604B8	Duplicated	c19834_f1p1_3095	613.0	529
EOG093604B8	Duplicated	c3583_f1p1_3592	592.6	415
EOG093604B8	Duplicated	c3583_f1p1_3592	600.9	321
EOG093604BC	Missing
EOG093604C7	Missing
EOG093604CE	Missing
EOG093604D2	Missing
EOG093604D4	Missing
EOG093604D9	Missing
EOG093604DG	Missing
EOG093604DM	Missing
EOG093604F0	Duplicated	c10740_f1p1_1874	360.8	366
EOG093604F0	Duplicated	c28763_f2p6_1848	358.2	384
EOG093604F6	Missing
EOG093604FE	Fragmented	c6861_f1p3_2636	789.8	451
EOG093604FM	Duplicated	c10956_f1p3_2473	491.2	594
EOG093604FM	Duplicated	c20920_f1p3_2646	490.8	594
EOG093604HB	Duplicated	c18660_f1p2_3370	1043.8	635
EOG093604HB	Duplicated	c22531_f1p3_2874	1044.6	636
EOG093604HB	Duplicated	c26136_f1p2_3068	1046.3	604
EOG093604HD	Missing
EOG093604HI	Missing
EOG093604HK	Complete	c21309_f1p0_3471	563.2	657
EOG093604HV	Missing
EOG093604IO	Missing
EOG093604JQ	Missing
EOG093604JS	Missing
EOG093604JV	Duplicated	c15446_f1p3_2465	910.9	587
EOG093604JV	Duplicated	c28156_f1p1_3113	970.1	667
EOG093604JV	Duplicated	c6588_f1p1_2828	970.6	667
EOG093604K0	Duplicated	c2730_f2p0_3643	504.6	387
EOG093604K0	Duplicated	c6116_f1p0_1764	554.4	418
EOG093604KN	Complete	c38087_f1p0_1487	476.4	307
EOG093604LD	Missing
EOG093604LM	Missing
EOG093604MP	Complete	c20474_f1p2_1918	730.9	379
EOG093604MW	Complete	c5598_f1p0_3074	953.8	516
EOG093604MY	Fragmented	c22653_f1p0_1997	390.3	224
EOG093604NO	Missing
EOG093604OT	Missing
EOG093604P1	Missing
EOG093604P6	Complete	c14057_f1p0_1982	549.3	394
EOG093604PT	Complete	c20381_f1p0_2638	238.4	300
EOG093604PU	Missing
EOG093604QJ	Missing
EOG093604R2	Missing
EOG093604R6	Missing
EOG093604R7	Missing
EOG093604RL	Missing
EOG093604SP	Complete	c8467_f1p0_2172	199.2	417
EOG093604T4	Missing
EOG093604TP	Duplicated	c14026_f3p2_3163	722.5	573
EOG093604TP	Duplicated	c3416_f1p0_2177	686.6	514
EOG093604TS	Missing
EOG093604U7	Complete	c6514_f2p0_1968	410.2	315
EOG093604UF	Missing
EOG093604V6	Missing
EOG093604VR	Missing
EOG093604W6	Missing
EOG093604WD	Missing
EOG093604WH	Missing
EOG093604WU	Missing
EOG093604X5	Duplicated	c1640_f3p0_2502	318.6	419
EOG093604X5	Duplicated	c3042_f1p0_2491	326.7	414
EOG093604XX	Complete	c17429_f1p0_2155	572.7	500
EOG093604Y6	Missing
EOG093604YC	Complete	c1753_f2p2_2240	755.4	483
EOG093604YI	Missing
EOG093604YO	Fragmented	c6305_f1p0_2417	292.0	308
EOG093604Z0	Missing
EOG093604ZI	Missing
EOG093604ZR	Missing
EOG0936051T	Complete	c8671_f1p1_2015	800.9	447
EOG09360525	Missing
EOG0936052S	Complete	c24658_f1p1_1913	460.8	436
EOG0936053E	Missing
EOG0936053F	Missing
EOG09360541	Missing
EOG09360548	Duplicated	c11648_f2p1_3023	633.1	405
EOG09360548	Duplicated	c30115_f1p0_2894	720.4	478
EOG0936054G	Missing
EOG09360557	Complete	c13081_f2p1_2080	1012.4	533
EOG09360558	Complete	c6478_f1p0_3657	125.4	449
EOG0936055I	Missing
EOG0936055R	Missing
EOG0936056C	Duplicated	c28102_f4p0_2107	895.9	476
EOG0936056C	Duplicated	c28354_f1p0_2175	895.7	476
EOG0936056J	Fragmented	c27481_f1p0_2150	558.3	434
EOG0936057B	Complete	c14858_f1p0_3175	283.5	343
EOG09360595	Complete	c17842_f2p0_3066	669.9	722
EOG0936059C	Missing
EOG0936059L	Missing
EOG093605A0	Missing
EOG093605AK	Complete	c13079_f1p0_1960	888.6	477
EOG093605BP	Missing
EOG093605BU	Missing
EOG093605C3	Missing
EOG093605CQ	Missing
EOG093605DD	Fragmented	c13155_f1p0_1879	552.5	295
EOG093605DE	Missing
EOG093605DF	Duplicated	c20728_f1p0_2937	457.1	649
EOG093605DF	Duplicated	c24050_f1p0_3280	456.3	649
EOG093605DF	Duplicated	c2553_f1p0_3469	452.9	649
EOG093605DG	Missing
EOG093605E3	Missing
EOG093605E8	Missing
EOG093605E9	Complete	c21088_f1p0_2396	703.4	499
EOG093605FL	Missing
EOG093605GO	Missing
EOG093605I3	Missing
EOG093605IQ	Fragmented	c1146_f2p0_3213	548.0	295
EOG093605IT	Missing
EOG093605J6	Duplicated	c19414_f1p6_2131	945.3	489
EOG093605J6	Duplicated	c25781_f3p3_2105	945.3	489
EOG093605J6	Duplicated	c28223_f6p4_2112	945.3	489
EOG093605K4	Missing
EOG093605M5	Fragmented	c8482_f1p0_2356	752.6	426
EOG093605ME	Missing
EOG093605MM	Missing
EOG093605MS	Complete	c21654_f1p1_2187	565.5	390
EOG093605MY	Missing
EOG093605NL	Duplicated	c17717_f2p0_3283	565.4	395
EOG093605NL	Duplicated	c26054_f1p0_2731	520.5	363
EOG093605OJ	Missing
EOG093605OT	Complete	c7440_f1p1_2147	827.9	508
EOG093605PB	Missing
EOG093605PH	Duplicated	c20138_f1p2_3349	424.8	431
EOG093605PH	Duplicated	c892_f2p4_3644	424.2	431
EOG093605PH	Duplicated	c9013_f1p2_3967	423.6	431
EOG093605PR	Duplicated	c17599_f11p3_3186	462.7	545
EOG093605PR	Duplicated	c853_f3p2_3430	456.0	527
EOG093605PS	Duplicated	c2042_f2p2_2078	686.0	482
EOG093605PS	Duplicated	c26001_f1p4_2461	685.3	482
EOG093605QW	Duplicated	c8342_f1p3_1472	703.2	366
EOG093605QW	Duplicated	c909_f19p5_2197	787.0	437
EOG093605R5	Missing
EOG093605RH	Complete	c21987_f1p0_3500	576.6	523
EOG093605RL	Missing
EOG093605SE	Fragmented	c28625_f1p0_1205	36.5	99
EOG093605T0	Missing
EOG093605TB	Missing
EOG093605TG	Missing
EOG093605TN	Complete	c22673_f1p0_1917	656.2	461
EOG093605TV	Complete	c16673_f1p2_2031	509.2	410
EOG093605UA	Missing
EOG093605UB	Missing
EOG093605UZ	Missing
EOG093605VA	Missing
EOG093605VH	Duplicated	c17046_f1p0_3032	906.0	524
EOG093605VH	Duplicated	c18218_f1p0_2966	979.7	581
EOG093605VH	Duplicated	c369_f6p0_3101	916.8	510
EOG093605XN	Missing
EOG093605XW	Duplicated	c17650_f1p3_2485	618.6	483
EOG093605XW	Duplicated	c21993_f1p2_2043	616.6	482
EOG093605XW	Duplicated	c9619_f1p3_2386	623.6	473
EOG093605Y2	Missing
EOG093605YJ	Fragmented	c23480_f1p0_1942	764.5	489
EOG093605YX	Missing
EOG093605ZP	Missing
EOG09360604	Missing
EOG09360607	Missing
EOG0936060Z	Missing
EOG0936061C	Missing
EOG0936063C	Complete	c27687_f1p0_3041	560.0	575
EOG09360640	Duplicated	c25023_f3p19_1959	906.8	507
EOG09360640	Duplicated	c28386_f14p14_2001	907.1	508
EOG09360640	Duplicated	c3689_f8p9_1916	893.4	489
EOG0936064Q	Missing
EOG0936065V	Complete	c446_f5p0_3434	464.0	440
EOG0936066R	Missing
EOG0936066T	Complete	c18729_f1p0_3313	1009.1	594
EOG0936066Y	Duplicated	c18288_f1p2_1805	1021.7	481
EOG0936066Y	Duplicated	c18653_f1p2_1862	1021.5	481
EOG09360676	Complete	c26045_f1p0_2026	787.4	438
EOG09360677	Complete	c12923_f1p1_2071	707.9	433
EOG09360679	Missing
EOG0936067H	Missing
EOG0936068L	Missing
EOG0936068S	Complete	c32197_f1p0_1358	168.8	248
EOG0936069Q	Missing
EOG0936069S	Complete	c28222_f1p0_3163	539.4	677
EOG0936069X	Missing
EOG093606A7	Duplicated	c4828_f1p0_2411	921.7	463
EOG093606A7	Duplicated	c5837_f2p1_2410	918.9	457
EOG093606AC	Missing
EOG093606C9	Complete	c8410_f1p1_3594	871.7	696
EOG093606CH	Missing
EOG093606CI	Duplicated	c23994_f1p0_1570	921.8	457
EOG093606CI	Duplicated	c25457_f2p3_2119	954.5	480
EOG093606CI	Duplicated	c25765_f8p3_2002	954.8	480
EOG093606CK	Missing
EOG093606D1	Complete	c16659_f1p0_2575	1028.2	659
EOG093606G1	Duplicated	c1426_f4p3_1892	808.1	424
EOG093606G1	Duplicated	c28339_f13p3_1788	808.3	424
EOG093606G1	Duplicated	c7748_f1p3_1512	809.1	424
EOG093606G2	Missing
EOG093606GA	Missing
EOG093606K5	Missing
EOG093606KG	Missing
EOG093606KR	Missing
EOG093606L0	Missing
EOG093606L8	Missing
EOG093606LZ	Complete	c8816_f1p2_2662	749.4	542
EOG093606MV	Missing
EOG093606MY	Fragmented	c11960_f1p0_822	214.7	121
EOG093606N3	Duplicated	c16657_f1p4_2298	868.1	440
EOG093606N3	Duplicated	c2557_f1p2_1969	868.9	440
EOG093606N3	Duplicated	c39869_f1p2_1482	852.2	394
EOG093606NA	Duplicated	c10464_f5p2_1966	822.8	448
EOG093606NA	Duplicated	c21620_f1p2_1927	822.9	448
EOG093606NA	Duplicated	c6007_f1p1_1733	803.3	439
EOG093606ND	Missing
EOG093606NL	Missing
EOG093606O6	Missing
EOG093606O8	Duplicated	c1254_f5p0_3363	896.1	623
EOG093606O8	Duplicated	c30449_f1p0_3197	896.2	624
EOG093606O8	Duplicated	c4706_f4p0_3248	896.2	624
EOG093606O9	Missing
EOG093606OC	Complete	c22725_f1p0_3998	1389.3	895
EOG093606Q8	Missing
EOG093606QR	Missing
EOG093606RM	Complete	c4452_f1p1_2194	893.4	468
EOG093606RP	Missing
EOG093606S1	Duplicated	c15348_f1p1_1972	711.3	467
EOG093606S1	Duplicated	c19306_f1p1_2004	765.3	493
EOG093606ST	Complete	c19704_f1p1_2065	673.8	439
EOG093606SW	Missing
EOG093606T7	Complete	c9751_f1p0_2981	674.0	430
EOG093606UJ	Missing
EOG093606UT	Missing
EOG093606VV	Complete	c28609_f1p0_1478	591.9	322
EOG093606VY	Missing
EOG093606W4	Missing
EOG093606YS	Missing
EOG093606ZH	Missing
EOG093606ZK	Missing
EOG0936070D	Missing
EOG0936070W	Complete	c3861_f1p0_2372	582.7	448
EOG0936071Y	Missing
EOG09360720	Duplicated	c27888_f2p3_2214	860.1	436
EOG09360720	Duplicated	c28275_f8p2_2135	860.2	436
EOG09360720	Duplicated	c28597_f1p2_2088	860.3	436
EOG09360725	Duplicated	c1219_f5p3_3246	463.6	477
EOG09360725	Duplicated	c20761_f1p2_2920	464.3	479
EOG09360725	Duplicated	c841_f2p3_3218	463.7	477
EOG0936072X	Duplicated	c13495_f2p0_1579	716.5	385
EOG0936072X	Duplicated	c28340_f11p11_1975	715.5	385
EOG0936072X	Duplicated	c28666_f8p11_1844	715.8	385
EOG0936072Y	Duplicated	c2137_f2p0_2041	840.7	463
EOG0936072Y	Duplicated	c24717_f1p2_2272	840.2	463
EOG0936073E	Missing
EOG09360748	Missing
EOG0936075Y	Missing
EOG0936076E	Fragmented	c20017_f1p1_1957	609.0	393
EOG0936076T	Duplicated	c14073_f1p0_2153	901.6	500
EOG0936076T	Duplicated	c3183_f1p0_2047	901.9	500
EOG0936077B	Missing
EOG0936077I	Duplicated	c15109_f2p1_1867	619.3	435
EOG0936077I	Duplicated	c2253_f2p1_1880	619.2	435
EOG09360784	Missing
EOG0936079H	Fragmented	c29600_f1p1_1423	152.6	192
EOG0936079P	Duplicated	c29209_f1p1_3405	326.9	461
EOG0936079P	Duplicated	c861_f3p1_3486	344.9	490
EOG093607BZ	Missing
EOG093607D0	Duplicated	c15208_f4p12_2092	861.1	482
EOG093607D0	Duplicated	c25733_f11p8_1944	861.4	482
EOG093607D0	Duplicated	c28283_f1p9_2077	861.1	482
EOG093607E0	Missing
EOG093607E9	Missing
EOG093607EA	Missing
EOG093607EB	Missing
EOG093607EE	Missing
EOG093607FC	Complete	c10500_f1p0_1908	474.7	380
EOG093607FH	Missing
EOG093607FL	Complete	c27198_f1p0_1556	748.3	442
EOG093607GQ	Complete	c13520_f1p2_2471	787.5	573
EOG093607HU	Missing
EOG093607HY	Duplicated	c11994_f1p1_2450	279.4	362
EOG093607HY	Duplicated	c9927_f1p0_1896	257.5	410
EOG093607I5	Missing
EOG093607I7	Complete	c26408_f1p0_2019	794.2	427
EOG093607J8	Missing
EOG093607KK	Missing
EOG093607LD	Missing
EOG093607NG	Missing
EOG093607NQ	Complete	c7359_f1p1_2259	386.6	518
EOG093607OL	Duplicated	c1926_f3p1_2125	652.5	346
EOG093607OL	Duplicated	c9394_f1p1_1960	742.4	417
EOG093607OO	Missing
EOG093607OT	Missing
EOG093607OZ	Missing
EOG093607PL	Missing
EOG093607PO	Missing
EOG093607QO	Complete	c7652_f1p0_2188	796.8	467
EOG093607RL	Missing
EOG093607RN	Complete	c5989_f1p0_2022	404.7	386
EOG093607RU	Missing
EOG093607TC	Missing
EOG093607TG	Complete	c16124_f1p2_2012	766.4	449
EOG093607TH	Missing
EOG093607U8	Complete	c17773_f2p0_3345	524.4	977
EOG093607UA	Duplicated	c20096_f1p2_1853	843.6	436
EOG093607UA	Duplicated	c20366_f1p2_2120	842.7	436
EOG093607UA	Duplicated	c8846_f1p2_2122	847.0	436
EOG093607UE	Missing
EOG093607UJ	Missing
EOG093607UO	Missing
EOG093607WA	Missing
EOG093607WN	Missing
EOG093607XJ	Missing
EOG093607YA	Duplicated	c12636_f2p1_2343	665.7	385
EOG093607YA	Duplicated	c25569_f1p0_1677	651.2	367
EOG093607YB	Duplicated	c11724_f1p0_1328	595.5	338
EOG093607YB	Duplicated	c4402_f2p0_1440	694.7	383
EOG093607ZG	Complete	c27883_f1p0_3138	575.1	324
EOG093607ZP	Complete	c23823_f1p0_1939	737.4	404
EOG093607ZT	Duplicated	c15694_f1p0_3208	570.1	475
EOG093607ZT	Duplicated	c27619_f1p0_3354	569.9	475
EOG093607ZT	Duplicated	c7119_f1p0_3226	578.2	483
EOG09360803	Missing
EOG09360806	Missing
EOG0936081F	Missing
EOG09360829	Duplicated	c13611_f1p4_2156	571.3	489
EOG09360829	Duplicated	c5235_f1p4_2014	569.1	489
EOG09360829	Duplicated	c964_f11p4_2019	571.5	489
EOG0936082I	Complete	c13646_f2p2_1913	589.0	342
EOG0936082J	Missing
EOG0936082K	Missing
EOG0936082Y	Complete	c17730_f1p0_2016	695.1	429
EOG0936083D	Complete	c21309_f1p0_3471	672.4	787
EOG0936083O	Missing
EOG09360843	Missing
EOG0936084P	Missing
EOG0936084R	Missing
EOG0936085E	Missing
EOG0936085U	Complete	c4093_f1p0_1971	418.6	385
EOG0936086V	Missing
EOG0936086W	Missing
EOG09360877	Missing
EOG0936087S	Complete	c26370_f1p0_2113	529.0	416
EOG0936088K	Missing
EOG0936088P	Duplicated	c13191_f1p2_2400	809.5	444
EOG0936088P	Duplicated	c21659_f1p1_2025	810.2	444
EOG093608A7	Duplicated	c13379_f1p2_2032	547.4	463
EOG093608A7	Duplicated	c1982_f3p2_2089	565.9	472
EOG093608AK	Missing
EOG093608AS	Missing
EOG093608AU	Missing
EOG093608AX	Duplicated	c14850_f2p2_1485	650.7	406
EOG093608AX	Duplicated	c4624_f1p0_1770	617.0	391
EOG093608AX	Duplicated	c5137_f2p1_1645	656.2	409
EOG093608B1	Fragmented	c4163_f1p0_1392	445.2	370
EOG093608BO	Fragmented	c12539_f2p0_2664	352.9	299
EOG093608CS	Missing
EOG093608FN	Duplicated	c12955_f1p0_1906	540.0	367
EOG093608FN	Duplicated	c26614_f1p0_2054	538.2	367
EOG093608GA	Missing
EOG093608GF	Missing
EOG093608GT	Complete	c12585_f3p1_2087	323.7	317
EOG093608I9	Missing
EOG093608IL	Fragmented	c21696_f1p0_1981	498.6	272
EOG093608JW	Fragmented	c17661_f1p0_1515	829.9	391
EOG093608K2	Fragmented	c26565_f1p4_1874	625.8	371
EOG093608KQ	Missing
EOG093608LD	Complete	c3156_f1p2_2121	720.1	457
EOG093608NO	Duplicated	c13684_f2p0_1878	835.7	428
EOG093608NO	Duplicated	c14954_f2p0_1969	835.5	428
EOG093608OZ	Fragmented	c8048_f1p0_1480	514.7	264
EOG093608P1	Missing
EOG093608PC	Missing
EOG093608PU	Complete	c13174_f2p1_1876	491.7	396
EOG093608R5	Duplicated	c1497_f4p2_2409	484.1	365
EOG093608R5	Duplicated	c17855_f1p3_2398	484.1	365
EOG093608R5	Duplicated	c4839_f2p2_2559	483.7	365
EOG093608SZ	Missing
EOG093608T4	Fragmented	c30287_f1p0_946	197.9	172
EOG093608V7	Complete	c15695_f1p3_1849	687.9	405
EOG093608VJ	Missing
EOG093608WC	Complete	c1248_f2p0_3584	244.5	207
EOG093608XE	Missing
EOG093608XY	Fragmented	c17793_f1p0_1183	604.6	308
EOG093608YK	Missing
EOG093608ZW	Duplicated	c27473_f1p3_1894	686.2	365
EOG093608ZW	Duplicated	c28332_f2p3_2017	686.0	365
EOG093608ZW	Duplicated	c28602_f1p3_1963	686.1	365
EOG0936090G	Missing
EOG09360916	Duplicated	c16859_f1p1_2977	522.0	327
EOG09360916	Duplicated	c18769_f1p0_2129	480.9	314
EOG09360916	Duplicated	c26526_f1p1_3424	521.4	327
EOG0936091G	Complete	c13790_f1p0_1784	652.8	381
EOG0936091T	Missing
EOG0936092Y	Missing
EOG09360945	Missing
EOG0936096A	Missing
EOG0936096C	Duplicated	c15233_f2p0_2417	419.3	382
EOG0936096C	Duplicated	c20153_f1p0_1826	454.5	394
EOG0936097H	Missing
EOG0936098C	Missing
EOG0936098U	Missing
EOG0936099K	Duplicated	c17070_f1p5_2307	662.6	377
EOG0936099K	Duplicated	c9034_f2p5_2418	662.5	377
EOG0936099O	Missing
EOG093609BK	Missing
EOG093609C8	Missing
EOG093609D4	Complete	c7175_f1p0_1529	503.7	307
EOG093609DP	Missing
EOG093609EF	Fragmented	c14899_f1p0_1318	449.8	261
EOG093609G8	Missing
EOG093609GK	Missing
EOG093609GV	Duplicated	c2709_f2p4_1468	763.2	362
EOG093609GV	Duplicated	c32817_f1p1_1338	763.1	362
EOG093609GV	Duplicated	c7222_f1p1_1873	762.2	362
EOG093609HF	Fragmented	c20041_f1p0_1144	65.6	87
EOG093609HT	Missing
EOG093609I6	Complete	c8960_f1p2_2286	435.5	313
EOG093609I7	Missing
EOG093609JA	Missing
EOG093609KC	Missing
EOG093609LK	Missing
EOG093609MH	Fragmented	c15013_f2p0_2355	425.0	285
EOG093609NR	Missing
EOG093609NZ	Duplicated	c13430_f2p1_941	281.8	262
EOG093609NZ	Duplicated	c1599_f3p1_2163	283.2	285
EOG093609O4	Complete	c14742_f3p0_2032	755.6	431
EOG093609PH	Duplicated	c13245_f2p0_2138	430.9	415
EOG093609PH	Duplicated	c17541_f1p0_1909	435.7	433
EOG093609PI	Missing
EOG093609PW	Missing
EOG093609Q8	Missing
EOG093609QX	Complete	c22177_f1p1_1878	731.8	412
EOG093609R4	Complete	c22163_f1p0_2158	767.2	495
EOG093609SJ	Missing
EOG093609SU	Duplicated	c20721_f1p2_1889	715.0	403
EOG093609SU	Duplicated	c26156_f1p0_2029	737.8	403
EOG093609TC	Fragmented	c19289_f1p1_714	131.3	99
EOG093609TH	Missing
EOG093609UI	Complete	c29650_f1p0_3527	149.6	313
EOG093609UJ	Complete	c18439_f2p0_1919	723.1	402
EOG093609VP	Duplicated	c22058_f1p5_1813	865.7	428
EOG093609VP	Duplicated	c5339_f4p7_1919	865.5	428
EOG093609VP	Duplicated	c6143_f3p5_1769	865.9	428
EOG093609VT	Missing
EOG093609VZ	Missing
EOG093609WJ	Duplicated	c25644_f10p11_1850	656.4	367
EOG093609WJ	Duplicated	c28461_f7p20_2043	656.0	367
EOG093609WJ	Duplicated	c28463_f14p16_2011	656.1	367
EOG093609X6	Complete	c15276_f1p0_2104	315.8	317
EOG093609XY	Missing
EOG093609YB	Missing
EOG093609YH	Missing
EOG093609YQ	Missing
EOG093609ZU	Missing
EOG09360A0R	Duplicated	c14059_f1p0_2346	525.5	339
EOG09360A0R	Duplicated	c18121_f1p1_2121	526.0	339
EOG09360A16	Duplicated	c11787_f4p2_1857	696.2	383
EOG09360A16	Duplicated	c16537_f1p2_1862	630.2	342
EOG09360A16	Duplicated	c24111_f2p2_1876	696.1	383
EOG09360A2C	Missing
EOG09360A2I	Missing
EOG09360A3A	Complete	c17818_f2p0_3085	553.0	585
EOG09360A5W	Missing
EOG09360A63	Missing
EOG09360A69	Missing
EOG09360A72	Missing
EOG09360A77	Duplicated	c7622_f2p0_2109	628.0	385
EOG09360A77	Duplicated	c8458_f2p0_1837	627.8	385
EOG09360A7J	Missing
EOG09360A7L	Missing
EOG09360A7W	Duplicated	c2362_f3p2_2081	314.8	564
EOG09360A7W	Duplicated	c917_f8p6_2262	314.5	564
EOG09360A7W	Duplicated	c9525_f1p3_2048	313.1	561
EOG09360A7X	Duplicated	c20991_f1p3_1294	168.2	325
EOG09360A7X	Duplicated	c31464_f12p4_1271	168.3	325
EOG09360A7X	Duplicated	c8139_f2p7_1229	168.5	325
EOG09360A8D	Complete	c12905_f2p0_1929	657.2	361
EOG09360A8J	Complete	c7186_f1p0_2292	436.4	382
EOG09360A9V	Missing
EOG09360AA1	Duplicated	c1653_f6p41_1864	484.7	354
EOG09360AA1	Duplicated	c27625_f7p43_1777	484.9	354
EOG09360AA1	Duplicated	c28391_f2p40_1949	484.5	354
EOG09360AAI	Missing
EOG09360AAM	Missing
EOG09360AC9	Duplicated	c14829_f2p0_2255	406.4	342
EOG09360AC9	Duplicated	c4230_f1p0_2318	406.2	342
EOG09360ADB	Complete	c13529_f2p1_2000	458.5	410
EOG09360ADD	Missing
EOG09360AE6	Complete	c3857_f1p2_1980	455.7	293
EOG09360AEU	Missing
EOG09360AH1	Missing
EOG09360AI2	Fragmented	c8343_f1p0_1903	466.2	253
EOG09360AJ0	Complete	c2169_f2p0_2023	552.7	366
EOG09360AKC	Complete	c2814_f2p8_2095	323.1	353
EOG09360AKZ	Missing
EOG09360ALA	Duplicated	c28465_f1p2_1504	672.3	361
EOG09360ALA	Duplicated	c4894_f1p2_1472	672.3	361
EOG09360ALA	Duplicated	c7237_f1p4_1473	672.3	361
EOG09360ALP	Duplicated	c10669_f1p1_1938	685.0	387
EOG09360ALP	Duplicated	c10829_f1p1_1857	685.2	387
EOG09360ALP	Duplicated	c12146_f1p0_1396	584.0	314
EOG09360ALT	Missing
EOG09360AMJ	Complete	c9183_f3p1_2027	662.9	394
EOG09360AN8	Missing
EOG09360ANA	Fragmented	c8660_f1p0_833	143.9	142
EOG09360ANO	Missing
EOG09360AQ0	Complete	c24123_f1p2_1813	427.8	301
EOG09360AQO	Missing
EOG09360ARD	Complete	c22413_f1p0_1500	364.6	311
EOG09360ARK	Complete	c2171_f2p0_2145	313.0	399
EOG09360ASH	Missing
EOG09360ATC	Missing
EOG09360AW4	Complete	c26509_f2p0_1366	695.5	328
EOG09360AW9	Fragmented	c22436_f1p0_1162	266.0	194
EOG09360AWB	Complete	c4110_f2p1_2093	697.6	398
EOG09360AWI	Missing
EOG09360AWP	Duplicated	c27634_f1p0_1433	359.2	335
EOG09360AWP	Duplicated	c6277_f4p2_1892	357.9	335
EOG09360AWY	Missing
EOG09360AX2	Duplicated	c18720_f1p0_2278	462.4	330
EOG09360AX2	Duplicated	c4205_f1p2_3269	465.8	331
EOG09360AX2	Duplicated	c4213_f1p0_1963	466.7	333
EOG09360AXR	Missing
EOG09360AYE	Missing
EOG09360B27	Missing
EOG09360B3J	Missing
EOG09360B3R	Fragmented	c17813_f1p0_1090	126.0	165
EOG09360B40	Missing
EOG09360B41	Missing
EOG09360B47	Duplicated	c18086_f2p0_1091	607.0	280
EOG09360B47	Duplicated	c32153_f8p1_1527	649.7	305
EOG09360B4E	Missing
EOG09360B4I	Missing
EOG09360B4L	Complete	c27118_f1p0_1836	631.1	371
EOG09360B4S	Duplicated	c5310_f1p1_1961	378.9	294
EOG09360B4S	Duplicated	c7157_f1p1_2112	377.0	302
EOG09360B4Z	Complete	c4946_f1p0_1387	473.6	321
EOG09360B5K	Missing
EOG09360B5S	Fragmented	c9474_f1p2_1926	398.7	270
EOG09360B6P	Missing
EOG09360B71	Missing
EOG09360B8J	Missing
EOG09360B9U	Fragmented	c15869_f2p0_1288	430.0	248
EOG09360BA6	Complete	c6250_f2p0_1805	740.9	368
EOG09360BAH	Complete	c23667_f1p1_2004	491.1	394
EOG09360BAZ	Missing
EOG09360BDG	Duplicated	c11853_f1p2_1829	391.0	346
EOG09360BDG	Duplicated	c24439_f1p5_2346	389.8	346
EOG09360BDG	Duplicated	c25732_f21p5_2217	390.1	346
EOG09360BEF	Missing
EOG09360BEL	Duplicated	c13663_f1p1_1755	677.4	322
EOG09360BEL	Duplicated	c18315_f1p1_1587	708.1	340
EOG09360BEM	Complete	c6489_f1p0_2117	501.5	309
EOG09360BFF	Missing
EOG09360BG3	Missing
EOG09360BGE	Missing
EOG09360BGG	Missing
EOG09360BGW	Missing
EOG09360BI5	Duplicated	c14482_f2p2_1109	259.7	206
EOG09360BI5	Duplicated	c25740_f2p2_1429	259.7	236
EOG09360BI5	Duplicated	c6808_f1p0_1874	258.6	237
EOG09360BID	Missing
EOG09360BIG	Complete	c20520_f1p0_3036	370.5	315
EOG09360BJ2	Missing
EOG09360BJO	Complete	c22815_f1p0_1864	365.6	310
EOG09360BKS	Complete	c23684_f1p1_1932	395.7	306
EOG09360BLH	Duplicated	c21082_f1p0_1375	390.6	260
EOG09360BLH	Duplicated	c33848_f1p0_1391	409.1	287
EOG09360BM8	Fragmented	c22069_f1p0_1876	398.2	297
EOG09360BN6	Complete	c17655_f1p0_1541	648.4	359
EOG09360BNI	Complete	c6289_f1p0_2109	501.9	341
EOG09360BOH	Duplicated	c18759_f1p1_1476	692.8	396
EOG09360BOH	Duplicated	c9388_f1p2_1922	719.0	410
EOG09360BPW	Complete	c5217_f1p0_1946	372.6	262
EOG09360BQM	Missing
EOG09360BQU	Complete	c21337_f1p2_2062	278.5	376
EOG09360BR4	Complete	c8216_f1p0_3658	319.3	271
EOG09360BRK	Complete	c11854_f2p0_2387	789.4	442
EOG09360BRS	Missing
EOG09360BSY	Missing
EOG09360BT4	Complete	c2261_f3p1_2065	647.1	375
EOG09360BTH	Missing
EOG09360BVG	Missing
EOG09360BWZ	Missing
EOG09360BY2	Duplicated	c19554_f1p2_1470	335.4	293
EOG09360BY2	Duplicated	c30567_f1p2_1157	336.6	293
EOG09360BY3	Missing
EOG09360BYN	Missing
EOG09360BYY	Fragmented	c17440_f1p0_762	237.8	143
EOG09360BZ0	Complete	c20467_f1p0_1496	599.0	329
EOG09360C0Z	Fragmented	c11980_f1p1_1465	418.2	265
EOG09360C3E	Complete	c32115_f1p0_1220	424.2	303
EOG09360C3K	Missing
EOG09360C5R	Missing
EOG09360C5Z	Missing
EOG09360C61	Complete	c18690_f1p0_1550	285.6	544
EOG09360C6T	Missing
EOG09360C7E	Complete	c28094_f1p0_1425	532.6	300
EOG09360C7N	Complete	c11999_f1p0_1859	339.0	208
EOG09360C8Y	Missing
EOG09360CCO	Complete	c28763_f1p1_1264	402.4	246
EOG09360CCQ	Fragmented	c29190_f1p0_1223	327.8	211
EOG09360CDH	Complete	c7141_f1p0_1606	180.3	302
EOG09360CEB	Complete	c7990_f1p0_1517	438.0	286
EOG09360CEF	Complete	c26536_f1p0_1764	567.3	319
EOG09360CFL	Duplicated	c17916_f1p3_1877	753.0	398
EOG09360CFL	Duplicated	c18374_f1p3_1901	752.9	398
EOG09360CFL	Duplicated	c27420_f1p3_2023	752.7	398
EOG09360CG1	Complete	c11693_f1p1_1163	469.4	286
EOG09360CG3	Duplicated	c11712_f1p2_1845	323.4	248
EOG09360CG3	Duplicated	c20383_f1p2_1940	323.2	248
EOG09360CG3	Duplicated	c24160_f1p5_1933	317.4	243
EOG09360CGS	Duplicated	c22343_f1p0_1883	490.6	283
EOG09360CGS	Duplicated	c8558_f1p0_1373	490.6	268
EOG09360CH3	Missing
EOG09360CHA	Missing
EOG09360CI2	Missing
EOG09360CK0	Missing
EOG09360CMF	Complete	c17325_f1p2_1543	242.8	286
EOG09360CMK	Missing
EOG09360CMV	Missing
EOG09360CNG	Missing
EOG09360CNL	Duplicated	c15371_f1p3_2117	606.3	344
EOG09360CNL	Duplicated	c25610_f2p2_1989	606.5	344
EOG09360CNL	Duplicated	c4541_f1p3_2024	606.4	344
EOG09360CP3	Missing
EOG09360CPN	Complete	c29273_f1p0_1556	500.3	292
EOG09360CRR	Missing
EOG09360CTZ	Duplicated	c11124_f1p0_2399	372.2	499
EOG09360CTZ	Duplicated	c3004_f1p1_2308	431.8	529
EOG09360CVE	Complete	c24266_f1p1_927	132.1	165
EOG09360CVM	Missing
EOG09360CW3	Missing
EOG09360CWE	Fragmented	c19794_f1p0_1073	155.8	175
EOG09360CX9	Complete	c5903_f1p0_1730	288.3	372
EOG09360CXD	Fragmented	c8181_f2p1_889	90.1	85
EOG09360CXH	Complete	c32592_f1p1_1487	496.8	318
EOG09360CXL	Duplicated	c13473_f3p0_1372	559.9	326
EOG09360CXL	Duplicated	c5859_f1p1_1265	560.9	324
EOG09360CYM	Missing
EOG09360CYS	Duplicated	c10718_f4p2_1808	637.7	311
EOG09360CYS	Duplicated	c15201_f5p2_1851	637.6	311
EOG09360CYS	Duplicated	c37883_f1p4_1519	638.2	311
EOG09360D01	Complete	c16563_f2p0_1890	480.7	339
EOG09360D08	Duplicated	c13876_f1p0_2129	365.4	284
EOG09360D08	Duplicated	c16758_f1p0_1285	335.8	259
EOG09360D08	Duplicated	c7563_f2p0_1885	365.8	284
EOG09360D0R	Missing
EOG09360D2F	Complete	c8581_f1p1_907	319.4	194
EOG09360D2X	Duplicated	c1009_f2p2_3070	349.8	426
EOG09360D2X	Duplicated	c26663_f1p2_3360	349.4	426
EOG09360D2X	Duplicated	c6298_f1p0_4105	314.8	360
EOG09360D36	Complete	c20549_f1p1_1231	396.2	209
EOG09360D3T	Duplicated	c14985_f2p2_2099	644.6	481
EOG09360D3T	Duplicated	c18019_f1p2_1954	578.4	428
EOG09360D3T	Duplicated	c9623_f2p2_2223	645.5	482
EOG09360D41	Fragmented	c15132_f1p0_1156	233.5	166
EOG09360D4T	Complete	c38353_f1p0_1473	415.2	225
EOG09360D4X	Missing
EOG09360D63	Missing
EOG09360D64	Missing
EOG09360D6G	Missing
EOG09360D6K	Missing
EOG09360D7I	Duplicated	c23807_f1p2_1320	421.6	307
EOG09360D7I	Duplicated	c3429_f1p2_1036	371.9	270
EOG09360D7K	Duplicated	c14997_f1p0_1356	445.8	309
EOG09360D7K	Duplicated	c27403_f1p0_1606	480.9	349
EOG09360D8B	Duplicated	c28553_f1p1_1386	550.6	294
EOG09360D8B	Duplicated	c34189_f1p2_1200	551.7	294
EOG09360D8B	Duplicated	c8409_f3p6_1377	556.7	294
EOG09360D8C	Duplicated	c15108_f2p3_1781	351.2	329
EOG09360D8C	Duplicated	c1626_f3p3_1943	350.9	329
EOG09360D8C	Duplicated	c17345_f1p1_1431	352.1	329
EOG09360D9L	Complete	c19706_f1p0_1998	174.9	142
EOG09360D9T	Missing
EOG09360DBC	Missing
EOG09360DBO	Missing
EOG09360DBZ	Complete	c6632_f1p0_1491	471.5	320
EOG09360DCC	Complete	c7478_f1p0_1394	463.1	296
EOG09360DCI	Complete	c12472_f1p1_1309	540.4	296
EOG09360DCR	Missing
EOG09360DD0	Duplicated	c11653_f1p2_2043	473.5	310
EOG09360DD0	Duplicated	c5885_f2p2_1973	474.0	343
EOG09360DD0	Duplicated	c7477_f1p2_1934	473.9	343
EOG09360DDG	Complete	c4576_f1p2_1447	381.0	289
EOG09360DE6	Complete	c13031_f1p0_1331	580.4	309
EOG09360DFB	Missing
EOG09360DFK	Duplicated	c14808_f3p1_1987	565.0	383
EOG09360DFK	Duplicated	c3487_f1p1_1928	565.1	383
EOG09360DFK	Duplicated	c9045_f1p0_1953	522.1	383
EOG09360DFS	Missing
EOG09360DFZ	Missing
EOG09360DG2	Missing
EOG09360DH0	Missing
EOG09360DHF	Complete	c32230_f1p1_1569	490.2	323
EOG09360DI3	Missing
EOG09360DI6	Missing
EOG09360DII	Complete	c27251_f1p3_2550	340.5	469
EOG09360DJL	Missing
EOG09360DJM	Complete	c28234_f1p0_1318	571.5	307
EOG09360DJS	Missing
EOG09360DKG	Missing
EOG09360DKW	Duplicated	c16674_f2p0_1477	295.1	333
EOG09360DKW	Duplicated	c2294_f9p4_1876	294.1	333
EOG09360DKW	Duplicated	c4067_f1p4_1769	294.4	333
EOG09360DLF	Missing
EOG09360DLX	Complete	c27752_f1p0_1928	540.4	381
EOG09360DM6	Missing
EOG09360DMR	Duplicated	c1987_f3p0_1877	430.5	279
EOG09360DMR	Duplicated	c25932_f1p0_1250	367.3	246
EOG09360DNG	Duplicated	c21346_f1p9_1104	307.1	291
EOG09360DNG	Duplicated	c38423_f1p0_1278	312.7	292
EOG09360DNG	Duplicated	c39839_f1p0_1400	324.2	293
EOG09360DP5	Missing
EOG09360DQD	Missing
EOG09360DQK	Complete	c10356_f1p0_1513	581.7	342
EOG09360DR9	Missing
EOG09360DRR	Missing
EOG09360DTF	Missing
EOG09360DUR	Fragmented	c18028_f1p0_1116	396.4	240
EOG09360DV4	Missing
EOG09360DV6	Complete	c4379_f1p0_1542	359.0	272
EOG09360DV8	Fragmented	c11890_f1p0_1505	449.1	330
EOG09360DV9	Complete	c12461_f2p1_2993	169.9	409
EOG09360DVA	Complete	c15127_f2p1_1965	362.5	280
EOG09360DVB	Complete	c18026_f1p0_2000	535.8	353
EOG09360DVY	Missing
EOG09360DW4	Missing
EOG09360DWB	Missing
EOG09360DWT	Complete	c33459_f1p0_1512	562.7	343
EOG09360DX3	Complete	c4450_f1p0_1321	664.9	320
EOG09360DZZ	Duplicated	c14931_f2p2_1190	653.1	306
EOG09360DZZ	Duplicated	c29257_f1p0_1476	652.2	306
EOG09360DZZ	Duplicated	c4050_f1p2_1323	652.7	306
EOG09360E00	Fragmented	c29899_f1p0_1594	344.5	197
EOG09360E12	Missing
EOG09360E3A	Missing
EOG09360E4D	Fragmented	c12795_f1p1_750	266.3	148
EOG09360E5A	Duplicated	c29513_f1p0_1426	305.3	260
EOG09360E5A	Duplicated	c31132_f1p0_1116	341.7	275
EOG09360E5A	Duplicated	c8993_f3p0_1256	341.0	275
EOG09360E7L	Missing
EOG09360E9S	Complete	c2626_f1p0_845	145.5	120
EOG09360EB9	Missing
EOG09360EBH	Duplicated	c12260_f2p1_1168	558.8	284
EOG09360EBH	Duplicated	c1474_f2p1_1267	558.4	284
EOG09360EBH	Duplicated	c32806_f2p1_1296	558.3	284
EOG09360EE5	Duplicated	c13225_f1p3_1330	579.3	300
EOG09360EE5	Duplicated	c21158_f1p6_1144	580.0	300
EOG09360EE5	Duplicated	c376_f31p9_1332	579.3	300
EOG09360EEW	Missing
EOG09360EFD	Missing
EOG09360EFH	Fragmented	c40231_f1p1_1138	168.6	127
EOG09360EG7	Duplicated	c17735_f1p0_1912	339.0	262
EOG09360EG7	Duplicated	c18722_f1p0_1843	340.0	261
EOG09360EIH	Missing
EOG09360EKU	Duplicated	c11859_f1p1_1512	366.3	288
EOG09360EKU	Duplicated	c29757_f1p1_1374	332.9	253
EOG09360EL1	Complete	c28053_f1p0_1466	477.6	303
EOG09360ELM	Duplicated	c15822_f1p0_1089	363.9	288
EOG09360ELM	Duplicated	c34937_f1p2_1072	363.9	288
EOG09360EM9	Complete	c33826_f1p0_1121	505.7	284
EOG09360EMI	Duplicated	c32557_f1p1_1391	658.6	308
EOG09360EMI	Duplicated	c7797_f1p1_1229	657.7	308
EOG09360EMJ	Missing
EOG09360EMK	Complete	c11880_f1p0_1292	371.5	283
EOG09360EP0	Missing
EOG09360EPY	Missing
EOG09360ES7	Complete	c4335_f1p0_1494	262.1	259
EOG09360ESZ	Fragmented	c26071_f1p0_1912	491.8	323
EOG09360ETX	Complete	c38492_f1p0_1486	532.9	302
EOG09360EUJ	Fragmented	c3276_f1p0_1530	424.6	227
EOG09360EUK	Missing
EOG09360EUN	Duplicated	c3095_f1p5_2051	303.3	329
EOG09360EUN	Duplicated	c6092_f4p5_2505	302.4	329
EOG09360EV2	Missing
EOG09360EW1	Missing
EOG09360EWV	Missing
EOG09360EX7	Complete	c10084_f1p0_1512	580.7	312
EOG09360EYE	Missing
EOG09360EYO	Duplicated	c10862_f1p0_1430	514.0	262
EOG09360EYO	Duplicated	c22879_f1p1_1223	514.7	262
EOG09360F0Y	Complete	c11165_f1p1_1294	550.1	273
EOG09360F1B	Duplicated	c11521_f1p5_2144	539.0	333
EOG09360F1B	Duplicated	c16839_f1p4_1847	539.6	334
EOG09360F1B	Duplicated	c24602_f1p3_1977	539.3	333
EOG09360F1R	Missing
EOG09360F40	Duplicated	c26252_f1p2_1362	505.6	274
EOG09360F40	Duplicated	c2849_f2p8_1317	505.8	274
EOG09360F40	Duplicated	c4697_f1p1_1122	506.4	274
EOG09360F4O	Missing
EOG09360F53	Duplicated	c11957_f1p3_1420	532.5	326
EOG09360F53	Duplicated	c28011_f3p3_2025	531.5	326
EOG09360F53	Duplicated	c28237_f14p14_2137	531.3	326
EOG09360F56	Missing
EOG09360F69	Missing
EOG09360F6U	Duplicated	c13327_f1p1_1363	570.1	367
EOG09360F6U	Duplicated	c7703_f1p1_1206	591.1	354
EOG09360F71	Fragmented	c13339_f2p0_1295	242.1	153
EOG09360F83	Missing
EOG09360F8D	Complete	c17085_f1p0_1376	307.2	297
EOG09360F8I	Missing
EOG09360F8Q	Missing
EOG09360FB1	Complete	c12308_f1p0_1487	456.8	317
EOG09360FB7	Complete	c13043_f1p0_1274	428.4	274
EOG09360FBI	Fragmented	c18254_f1p0_988	177.6	149
EOG09360FCX	Fragmented	c8985_f1p0_1406	350.1	174
EOG09360FDV	Missing
EOG09360FE1	Duplicated	c10671_f1p0_1307	450.5	256
EOG09360FE1	Duplicated	c11035_f1p0_1457	449.9	256
EOG09360FIH	Missing
EOG09360FIO	Complete	c2460_f2p1_1263	559.3	280
EOG09360FJP	Duplicated	c11344_f1p0_2046	383.8	412
EOG09360FJP	Duplicated	c984_f9p8_1911	384.1	412
EOG09360FJQ	Missing
EOG09360FJY	Complete	c2973_f1p0_1307	490.4	273
EOG09360FKR	Missing
EOG09360FLC	Complete	c8064_f1p0_1449	297.0	177
EOG09360FM4	Complete	c9954_f1p0_3310	339.0	366
EOG09360FML	Missing
EOG09360FN1	Missing
EOG09360FOF	Missing
EOG09360FQU	Duplicated	c21900_f1p2_1439	336.2	319
EOG09360FQU	Duplicated	c28675_f5p14_1829	334.5	319
EOG09360FQU	Duplicated	c34359_f1p1_1364	335.9	318
EOG09360FR1	Complete	c23309_f1p1_1163	193.3	156
EOG09360FRJ	Missing
EOG09360FU3	Duplicated	c16811_f1p1_1111	437.2	260
EOG09360FU3	Duplicated	c19509_f1p1_1332	439.8	280
EOG09360FU3	Duplicated	c28113_f1p0_1271	442.3	261
EOG09360FUF	Missing
EOG09360FUV	Complete	c27932_f1p0_1130	445.8	256
EOG09360FVA	Duplicated	c10506_f3p2_1470	555.4	293
EOG09360FVA	Duplicated	c19531_f1p2_1476	555.4	293
EOG09360FVA	Duplicated	c26926_f1p3_1342	552.7	293
EOG09360FVB	Missing
EOG09360FVD	Duplicated	c12491_f1p0_1144	314.1	229
EOG09360FVD	Duplicated	c31761_f1p0_1203	312.3	230
EOG09360FVD	Duplicated	c4277_f1p0_1358	311.7	230
EOG09360FVP	Duplicated	c1638_f7p3_1400	441.7	271
EOG09360FVP	Duplicated	c1796_f3p4_1141	410.4	245
EOG09360FVP	Duplicated	c6255_f4p3_1300	442.0	271
EOG09360FWB	Duplicated	c14930_f2p1_1833	403.2	280
EOG09360FWB	Duplicated	c37838_f2p2_1520	404.1	280
EOG09360FWE	Complete	c6754_f2p1_1434	539.3	278
EOG09360G0D	Duplicated	c1297_f3p2_1209	556.1	276
EOG09360G0D	Duplicated	c13132_f5p2_1267	555.9	276
EOG09360G0D	Duplicated	c18861_f1p2_1166	556.3	276
EOG09360G0I	Complete	c6969_f1p3_1282	400.5	282
EOG09360G0X	Duplicated	c27908_f1p3_1857	291.3	267
EOG09360G0X	Duplicated	c9614_f5p12_1963	291.0	267
EOG09360G1W	Duplicated	c19898_f1p0_1062	476.6	263
EOG09360G1W	Duplicated	c39305_f1p0_1465	472.2	263
EOG09360G2E	Missing
EOG09360G30	Fragmented	c19920_f1p0_1562	466.6	244
EOG09360G3S	Missing
EOG09360G42	Complete	c19659_f1p0_1382	475.3	259
EOG09360G43	Complete	c7301_f1p0_1527	381.8	240
EOG09360G4Y	Fragmented	c30522_f1p0_1363	310.8	218
EOG09360G5B	Complete	c9506_f1p0_1235	493.3	279
EOG09360G5I	Missing
EOG09360G65	Complete	c3995_f1p0_3393	428.3	284
EOG09360G6G	Complete	c38491_f1p0_1480	446.4	259
EOG09360G7Q	Missing
EOG09360G91	Complete	c473_f4p1_4071	328.4	816
EOG09360G99	Missing
EOG09360GA9	Missing
EOG09360GB9	Missing
EOG09360GBZ	Complete	c11940_f1p0_1152	305.3	199
EOG09360GC2	Complete	c33605_f1p0_1450	556.3	331
EOG09360GC7	Missing
EOG09360GCH	Complete	c21208_f2p0_1409	491.6	257
EOG09360GEM	Duplicated	c10383_f1p0_1234	454.9	266
EOG09360GEM	Duplicated	c2135_f2p0_1115	455.2	266
EOG09360GEM	Duplicated	c4561_f2p0_1244	454.8	266
EOG09360GF5	Complete	c17218_f1p1_1584	328.3	321
EOG09360GFD	Missing
EOG09360GFV	Missing
EOG09360GHT	Missing
EOG09360GK5	Duplicated	c28356_f1p0_1286	372.0	244
EOG09360GK5	Duplicated	c34006_f1p0_1027	370.9	241
EOG09360GKN	Duplicated	c17142_f1p1_1719	129.0	200
EOG09360GKN	Duplicated	c20968_f1p1_1266	131.5	184
EOG09360GKN	Duplicated	c6859_f1p1_2058	127.8	200
EOG09360GKU	Fragmented	c7724_f1p0_1296	189.8	171
EOG09360GMF	Missing
EOG09360GMQ	Complete	c28205_f1p0_1292	366.7	254
EOG09360GMU	Missing
EOG09360GN9	Duplicated	c26492_f1p0_1262	385.2	239
EOG09360GN9	Duplicated	c28206_f1p0_1369	384.9	239
EOG09360GOA	Duplicated	c14829_f2p0_1127	343.2	237
EOG09360GOA	Duplicated	c16626_f1p0_1886	343.4	247
EOG09360GOA	Duplicated	c5407_f1p1_2302	384.7	285
EOG09360GOP	Missing
EOG09360GQJ	Complete	c6448_f1p0_2152	138.9	179
EOG09360GQN	Duplicated	c22368_f3p0_1563	433.5	284
EOG09360GQN	Duplicated	c2690_f1p1_1866	432.9	284
EOG09360GQQ	Missing
EOG09360GRH	Missing
EOG09360GS5	Missing
EOG09360GTG	Duplicated	c14959_f2p1_1129	548.7	282
EOG09360GTG	Duplicated	c25679_f2p0_1460	547.6	282
EOG09360GU0	Duplicated	c28285_f1p0_1406	479.9	312
EOG09360GU0	Duplicated	c32791_f1p0_1165	415.0	249
EOG09360GU6	Missing
EOG09360GUO	Missing
EOG09360GUZ	Complete	c34987_f1p0_1310	312.8	236
EOG09360GVP	Missing
EOG09360GVY	Complete	c33970_f1p0_1489	505.2	297
EOG09360GWA	Missing
EOG09360GXC	Missing
EOG09360GXD	Complete	c15680_f1p0_1619	479.9	288
EOG09360GXJ	Duplicated	c26331_f2p5_1313	360.2	241
EOG09360GXJ	Duplicated	c6570_f3p7_1468	359.7	241
EOG09360GXJ	Duplicated	c8420_f1p2_1365	360.1	241
EOG09360GXL	Duplicated	c15097_f1p0_1363	471.5	297
EOG09360GXL	Duplicated	c19436_f1p3_1478	471.2	297
EOG09360GXL	Duplicated	c4956_f1p3_1262	471.8	297
EOG09360GXV	Complete	c3713_f2p1_1832	515.3	278
EOG09360GYO	Complete	c40462_f1p0_1271	512.6	255
EOG09360GZ2	Missing
EOG09360GZA	Missing
EOG09360GZB	Duplicated	c32633_f8p2_1283	438.8	284
EOG09360GZB	Duplicated	c37798_f2p5_1249	438.9	284
EOG09360GZB	Duplicated	c43979_f17p10_1277	438.8	284
EOG09360GZJ	Complete	c21020_f1p0_1488	267.8	199
EOG09360H0G	Missing
EOG09360H49	Duplicated	c23842_f1p2_998	373.4	216
EOG09360H49	Duplicated	c2488_f2p2_1277	372.5	216
EOG09360H49	Duplicated	c8406_f1p0_1105	373.0	216
EOG09360H4K	Missing
EOG09360H4M	Complete	c1585_f2p0_1287	271.2	191
EOG09360H4R	Duplicated	c17072_f1p0_1829	441.1	245
EOG09360H4R	Duplicated	c28910_f1p0_1356	442.1	245
EOG09360H66	Missing
EOG09360H7R	Fragmented	c5090_f1p0_1338	325.1	158
EOG09360H7T	Missing
EOG09360H9R	Missing
EOG09360HAG	Complete	c9140_f1p0_1277	262.9	157
EOG09360HAP	Fragmented	c5191_f1p1_1369	441.2	264
EOG09360HBC	Missing
EOG09360HC5	Duplicated	c27202_f1p0_1314	305.3	251
EOG09360HC5	Duplicated	c7210_f1p1_1425	307.7	286
EOG09360HCK	Duplicated	c12440_f1p2_1370	490.9	271
EOG09360HCK	Duplicated	c26287_f1p0_1355	491.0	271
EOG09360HCK	Duplicated	c27194_f1p0_1510	490.5	271
EOG09360HD9	Complete	c16344_f3p1_1312	403.0	226
EOG09360HE3	Complete	c6347_f4p1_1259	326.0	201
EOG09360HGB	Missing
EOG09360HGJ	Duplicated	c15880_f1p0_2327	505.0	284
EOG09360HGJ	Duplicated	c24532_f1p0_2144	505.5	284
EOG09360HGT	Missing
EOG09360HGV	Missing
EOG09360HI2	Duplicated	c2883_f1p1_1754	186.5	251
EOG09360HI2	Duplicated	c6382_f1p1_2202	160.0	214
EOG09360HIJ	Complete	c6055_f1p0_976	378.7	202
EOG09360HK0	Missing
EOG09360HKF	Duplicated	c14762_f2p1_1238	492.1	288
EOG09360HKF	Duplicated	c15645_f1p6_1234	492.1	288
EOG09360HKF	Duplicated	c28708_f1p1_1085	492.7	288
EOG09360HKW	Missing
EOG09360HLN	Fragmented	c11850_f1p0_1426	323.2	215
EOG09360HMJ	Missing
EOG09360HN7	Complete	c19411_f1p0_1405	383.5	230
EOG09360HO3	Missing
EOG09360HOF	Missing
EOG09360HOV	Duplicated	c16430_f1p0_1378	374.9	237
EOG09360HOV	Duplicated	c28519_f1p1_1245	373.1	237
EOG09360HOV	Duplicated	c32631_f1p1_1268	374.8	237
EOG09360HPN	Missing
EOG09360HPQ	Duplicated	c10805_f2p1_1355	490.4	258
EOG09360HPQ	Duplicated	c29153_f1p1_1491	490.1	258
EOG09360HPQ	Duplicated	c9159_f1p2_1349	490.4	258
EOG09360HQF	Duplicated	c11291_f1p1_1051	418.2	235
EOG09360HQF	Duplicated	c20349_f1p2_1347	432.5	242
EOG09360HQF	Duplicated	c2988_f6p2_1237	432.9	242
EOG09360HQO	Missing
EOG09360HQQ	Missing
EOG09360HR1	Duplicated	c15587_f1p0_1342	488.7	263
EOG09360HR1	Duplicated	c22628_f1p0_1180	430.9	226
EOG09360HR3	Missing
EOG09360HRI	Duplicated	c11701_f2p4_1296	551.1	275
EOG09360HRI	Duplicated	c4003_f1p4_1339	551.0	275
EOG09360HSL	Duplicated	c31166_f1p1_1442	462.0	277
EOG09360HSL	Duplicated	c40324_f1p1_1291	448.4	270
EOG09360HSL	Duplicated	c6591_f1p1_1558	461.7	277
EOG09360HTY	Missing
EOG09360HUX	Missing
EOG09360HX1	Duplicated	c20848_f1p0_1317	94.4	151
EOG09360HX1	Duplicated	c6051_f1p0_1093	95.0	151
EOG09360HX1	Duplicated	c7083_f2p0_1096	95.0	151
EOG09360HY3	Complete	c17539_f2p0_1107	273.8	242
EOG09360HZF	Missing
EOG09360I07	Fragmented	c16707_f1p0_1242	264.7	148
EOG09360I0L	Fragmented	c33427_f1p0_1278	131.6	83
EOG09360I0P	Missing
EOG09360I13	Missing
EOG09360I30	Duplicated	c23609_f2p1_1306	379.3	222
EOG09360I30	Duplicated	c27056_f1p1_1460	378.9	222
EOG09360I49	Complete	c34366_f1p0_1055	333.5	198
EOG09360I4I	Complete	c19967_f1p0_1427	300.9	212
EOG09360I4M	Fragmented	c6323_f1p0_899	182.0	152
EOG09360I5A	Duplicated	c14699_f2p0_1395	368.3	280
EOG09360I5A	Duplicated	c21635_f1p1_1426	367.8	280
EOG09360I5A	Duplicated	c3286_f1p2_1325	365.1	270
EOG09360I5J	Duplicated	c19142_f1p1_1412	355.7	249
EOG09360I5J	Duplicated	c8044_f2p0_1408	355.5	249
EOG09360I5U	Missing
EOG09360I5Z	Duplicated	c2312_f3p1_1445	452.6	284
EOG09360I5Z	Duplicated	c27991_f1p1_1208	444.8	279
EOG09360I5Z	Duplicated	c9518_f5p2_1566	452.2	284
EOG09360I8Y	Missing
EOG09360IAQ	Fragmented	c9110_f1p0_1890	264.3	133
EOG09360IBH	Missing
EOG09360IBU	Duplicated	c19685_f2p0_1354	449.6	245
EOG09360IBU	Duplicated	c20375_f1p0_1212	451.1	245
EOG09360IC1	Missing
EOG09360ICO	Missing
EOG09360ID9	Duplicated	c15062_f1p0_1306	206.6	200
EOG09360ID9	Duplicated	c21432_f1p0_1088	207.3	201
EOG09360ID9	Duplicated	c30198_f1p0_1327	206.5	200
EOG09360IE8	Missing
EOG09360IEH	Missing
EOG09360IEI	Complete	c28945_f1p3_1198	370.7	222
EOG09360IFT	Duplicated	c22724_f1p2_1408	181.5	182
EOG09360IFT	Duplicated	c38515_f1p2_1543	181.2	182
EOG09360IFT	Duplicated	c6438_f2p1_1398	181.5	182
EOG09360IGG	Duplicated	c17288_f1p0_1246	307.7	217
EOG09360IGG	Duplicated	c20499_f1p0_1311	327.9	228
EOG09360IGG	Duplicated	c39191_f1p0_1265	328.0	228
EOG09360IGN	Missing
EOG09360IHY	Duplicated	c20882_f1p1_1249	435.6	290
EOG09360IHY	Duplicated	c23054_f1p1_1415	435.1	290
EOG09360IIY	Missing
EOG09360IJG	Duplicated	c28589_f1p4_1235	89.5	148
EOG09360IJG	Duplicated	c29597_f1p3_1057	90.0	148
EOG09360IJG	Duplicated	c4564_f1p3_926	90.4	148
EOG09360IKP	Duplicated	c20861_f1p0_1166	283.4	267
EOG09360IKP	Duplicated	c3558_f4p1_1482	288.7	269
EOG09360IKP	Duplicated	c9332_f3p0_1371	289.1	269
EOG09360ILO	Missing
EOG09360IML	Duplicated	c21565_f1p0_1589	256.0	173
EOG09360IML	Duplicated	c30252_f1p0_1266	256.9	172
EOG09360ING	Duplicated	c11600_f1p1_1583	577.2	343
EOG09360ING	Duplicated	c15417_f1p0_1443	577.5	343
EOG09360ING	Duplicated	c31983_f1p0_1506	533.0	343
EOG09360INV	Missing
EOG09360IP2	Missing
EOG09360IPD	Duplicated	c15788_f1p0_1601	488.2	303
EOG09360IPD	Duplicated	c6167_f1p0_1281	463.2	279
EOG09360IPS	Fragmented	c28040_f1p1_1358	200.6	176
EOG09360IPZ	Complete	c16444_f1p1_2398	315.7	241
EOG09360IQC	Complete	c14938_f2p0_1406	404.8	230
EOG09360IQI	Missing
EOG09360IQM	Missing
EOG09360IRW	Complete	c6227_f1p0_1980	788.8	448
EOG09360IS4	Complete	c31407_f1p1_1435	321.4	213
EOG09360ISB	Duplicated	c12247_f1p0_3347	332.9	207
EOG09360ISB	Duplicated	c19972_f1p0_987	305.3	172
EOG09360ISN	Missing
EOG09360IT9	Complete	c17905_f1p0_1332	265.2	165
EOG09360ITN	Complete	c39064_f1p0_1107	371.4	254
EOG09360IUA	Missing
EOG09360IUB	Missing
EOG09360IV8	Fragmented	c6855_f1p0_845	140.7	97
EOG09360IW8	Duplicated	c13021_f1p1_1492	193.3	272
EOG09360IW8	Duplicated	c18820_f1p0_1210	184.6	265
EOG09360IW8	Duplicated	c19882_f2p0_1362	193.9	272
EOG09360IWC	Duplicated	c1745_f2p1_1279	344.8	196
EOG09360IWC	Duplicated	c27762_f2p0_989	345.9	196
EOG09360IZ9	Missing
EOG09360IZH	Missing
EOG09360J00	Duplicated	c27613_f1p0_1238	399.3	216
EOG09360J00	Duplicated	c4088_f2p0_1320	464.9	264
EOG09360J0A	Duplicated	c18777_f1p4_2145	424.2	233
EOG09360J0A	Duplicated	c30527_f1p0_1158	406.4	221
EOG09360J0A	Duplicated	c8662_f1p4_2120	424.2	233
EOG09360J11	Duplicated	c1154_f8p10_1891	273.3	230
EOG09360J11	Duplicated	c6985_f1p8_1996	273.1	230
EOG09360J1D	Missing
EOG09360J1Z	Duplicated	c13227_f1p0_1480	420.8	217
EOG09360J1Z	Duplicated	c5940_f3p1_1412	426.3	238
EOG09360J1Z	Duplicated	c8143_f1p1_973	401.4	203
EOG09360J2V	Missing
EOG09360J39	Fragmented	c21089_f1p0_1825	200.7	211
EOG09360J3N	Duplicated	c17691_f1p0_1396	263.1	189
EOG09360J3N	Duplicated	c39475_f1p0_1208	250.5	168
EOG09360J46	Missing
EOG09360J5A	Duplicated	c22137_f1p0_948	257.9	178
EOG09360J5A	Duplicated	c26300_f1p0_1177	241.1	169
EOG09360J5A	Duplicated	c33699_f1p0_1301	258.4	186
EOG09360J5K	Duplicated	c33150_f7p0_1232	389.4	239
EOG09360J5K	Duplicated	c33450_f2p6_1228	389.4	239
EOG09360J5K	Duplicated	c33475_f3p0_1068	388.1	238
EOG09360J79	Complete	c5913_f1p0_1247	179.2	189
EOG09360J7A	Missing
EOG09360J7M	Missing
EOG09360J7T	Fragmented	c19373_f1p0_1353	150.1	99
EOG09360J9G	Missing
EOG09360JAG	Duplicated	c13383_f4p0_1228	167.7	152
EOG09360JAG	Duplicated	c20211_f1p0_1340	167.4	152
EOG09360JAG	Duplicated	c3162_f1p1_942	168.5	152
EOG09360JE0	Missing
EOG09360JFE	Missing
EOG09360JFI	Duplicated	c12182_f1p1_1846	235.9	232
EOG09360JFI	Duplicated	c28788_f1p1_1338	240.3	182
EOG09360JFS	Missing
EOG09360JGG	Duplicated	c14765_f4p0_1902	456.1	240
EOG09360JGG	Duplicated	c17263_f1p0_1896	456.1	240
EOG09360JHI	Complete	c12278_f1p0_1523	428.3	241
EOG09360JI8	Complete	c18921_f1p0_1324	365.1	227
EOG09360JIY	Missing
EOG09360JL5	Complete	c2132_f2p1_1905	340.8	333
EOG09360JLO	Missing
EOG09360JLQ	Missing
EOG09360JMJ	Complete	c28617_f1p0_1415	269.8	227
EOG09360JO0	Missing
EOG09360JO1	Complete	c10170_f1p0_1349	297.0	269
EOG09360JOE	Duplicated	c15373_f1p0_958	345.5	226
EOG09360JOE	Duplicated	c42152_f2p4_1251	358.6	232
EOG09360JOE	Duplicated	c43880_f3p2_1148	359.0	232
EOG09360JRA	Missing
EOG09360JSH	Complete	c10705_f1p1_996	358.2	276
EOG09360JU9	Fragmented	c21151_f1p0_1070	373.3	216
EOG09360JUS	Duplicated	c12088_f1p0_1042	293.1	187
EOG09360JUS	Duplicated	c33482_f1p1_1365	308.3	219
EOG09360JVS	Complete	c4732_f1p0_1341	349.1	188
EOG09360JVX	Missing
EOG09360JWQ	Duplicated	c22013_f1p1_1104	388.2	226
EOG09360JWQ	Duplicated	c38942_f1p0_1324	387.6	226
EOG09360JWQ	Duplicated	c4511_f1p1_1154	388.1	226
EOG09360JWS	Duplicated	c15790_f1p2_1327	398.7	236
EOG09360JWS	Duplicated	c2023_f5p3_1320	397.6	236
EOG09360JWS	Duplicated	c35454_f2p4_1142	399.3	236
EOG09360JWT	Missing
EOG09360JWZ	Fragmented	c26038_f1p0_2015	200.7	146
EOG09360JXC	Complete	c12269_f2p0_1103	361.2	209
EOG09360K0E	Missing
EOG09360K1H	Missing
EOG09360K1I	Duplicated	c12486_f2p1_1269	274.0	273
EOG09360K1I	Duplicated	c16506_f1p0_1560	273.9	273
EOG09360K1I	Duplicated	c23850_f1p0_1207	250.1	246
EOG09360K2H	Missing
EOG09360K2J	Duplicated	c22231_f1p1_1472	285.2	220
EOG09360K2J	Duplicated	c29833_f1p1_1572	285.0	220
EOG09360K2Q	Missing
EOG09360K2V	Missing
EOG09360K47	Complete	c2557_f3p1_1471	410.4	270
EOG09360K4S	Complete	c15856_f3p3_1042	395.6	228
EOG09360K5X	Duplicated	c34581_f1p0_939	475.6	216
EOG09360K5X	Duplicated	c35352_f2p0_1125	474.9	216
EOG09360K5X	Duplicated	c44274_f1p1_1208	474.7	216
EOG09360K5Y	Complete	c21952_f1p0_949	257.9	178
EOG09360K6Z	Missing
EOG09360K7R	Complete	c13399_f2p0_1036	319.7	203
EOG09360K87	Complete	c27759_f1p0_1013	282.4	200
EOG09360K8B	Missing
EOG09360K8L	Duplicated	c19895_f2p0_1093	346.5	174
EOG09360K8L	Duplicated	c22262_f1p1_1073	346.5	174
EOG09360K8L	Duplicated	c33743_f1p1_965	346.9	174
EOG09360K9G	Missing
EOG09360KAB	Duplicated	c16192_f2p0_991	291.7	186
EOG09360KAB	Duplicated	c2123_f5p0_1124	291.4	186
EOG09360KB8	Missing
EOG09360KBD	Missing
EOG09360KBS	Complete	c40226_f1p0_1316	179.8	177
EOG09360KCW	Missing
EOG09360KEM	Missing
EOG09360KES	Fragmented	c28373_f1p0_1463	210.8	147
EOG09360KF8	Complete	c33442_f1p0_1384	346.8	247
EOG09360KFU	Missing
EOG09360KG8	Missing
EOG09360KGN	Duplicated	c12050_f1p2_1922	470.2	256
EOG09360KGN	Duplicated	c21740_f1p1_2018	470.0	256
EOG09360KGN	Duplicated	c22589_f1p0_2077	470.0	256
EOG09360KH1	Missing
EOG09360KHE	Missing
EOG09360KJA	Complete	c27543_f1p0_884	358.8	181
EOG09360KKY	Duplicated	c22847_f1p2_1403	294.6	228
EOG09360KKY	Duplicated	c2629_f1p1_1386	292.5	207
EOG09360KKY	Duplicated	c6363_f1p2_1359	294.7	228
EOG09360KLG	Missing
EOG09360KLO	Missing
EOG09360KMC	Duplicated	c12692_f1p0_1068	441.5	246
EOG09360KMC	Duplicated	c14638_f2p0_1077	445.3	253
EOG09360KMC	Duplicated	c26747_f1p0_1294	451.1	272
EOG09360KOT	Complete	c21829_f1p0_1454	280.8	187
EOG09360KOU	Complete	c32853_f1p2_1037	359.7	196
EOG09360KOY	Missing
EOG09360KPV	Complete	c8135_f1p0_1391	248.9	261
EOG09360KQ2	Complete	c15129_f2p0_921	212.4	178
EOG09360KRQ	Duplicated	c23427_f1p1_1312	311.6	227
EOG09360KRQ	Duplicated	c31539_f2p2_1337	311.5	227
EOG09360KTE	Missing
EOG09360KUC	Missing
EOG09360KV4	Fragmented	c26903_f1p0_1121	147.7	75
EOG09360KVM	Missing
EOG09360KZ4	Duplicated	c17083_f1p1_988	213.2	180
EOG09360KZ4	Duplicated	c30870_f1p0_968	213.3	180
EOG09360KZ4	Duplicated	c31073_f1p0_1327	212.3	179
EOG09360KZ9	Duplicated	c13329_f1p6_1165	177.0	184
EOG09360KZ9	Duplicated	c15111_f2p7_1193	176.9	184
EOG09360KZ9	Duplicated	c19054_f1p2_1240	176.8	184
EOG09360L09	Missing
EOG09360L1R	Missing
EOG09360L3B	Duplicated	c11647_f1p1_1338	338.8	209
EOG09360L3B	Duplicated	c12213_f1p0_1190	339.2	209
EOG09360L3B	Duplicated	c6284_f1p0_1050	339.9	209
EOG09360L3E	Duplicated	c10907_f1p0_1116	148.0	109
EOG09360L3E	Duplicated	c11360_f2p1_1238	147.9	109
EOG09360L3E	Duplicated	c33496_f2p1_1047	148.3	109
EOG09360L3V	Duplicated	c22750_f1p0_987	184.7	134
EOG09360L3V	Duplicated	c38521_f1p0_911	185.2	134
EOG09360L5N	Missing
EOG09360L5O	Missing
EOG09360L6F	Duplicated	c21802_f1p1_1210	387.8	241
EOG09360L6F	Duplicated	c34639_f1p2_1328	387.3	241
EOG09360L6F	Duplicated	c3976_f1p1_1152	388.0	241
EOG09360L6S	Missing
EOG09360L7I	Fragmented	c15590_f1p0_933	167.0	108
EOG09360L9K	Complete	c25568_f2p0_1370	282.1	216
EOG09360LA3	Missing
EOG09360LAA	Missing
EOG09360LCF	Complete	c35031_f1p0_1191	299.0	177
EOG09360LCK	Missing
EOG09360LDJ	Missing
EOG09360LE4	Missing
EOG09360LF5	Complete	c975_f11p0_1938	229.2	197
EOG09360LF7	Complete	c26864_f1p0_1401	248.2	208
EOG09360LFN	Complete	c9582_f1p1_1175	321.7	215
EOG09360LFY	Missing
EOG09360LG0	Duplicated	c27194_f1p0_1171	417.7	209
EOG09360LG0	Duplicated	c39423_f1p0_762	410.3	202
EOG09360LG2	Duplicated	c20490_f1p0_1249	252.9	197
EOG09360LG2	Duplicated	c31074_f1p1_1118	253.5	197
EOG09360LG4	Missing
EOG09360LHO	Complete	c28067_f1p1_992	294.6	187
EOG09360LHQ	Complete	c33508_f1p0_1095	236.1	215
EOG09360LHZ	Duplicated	c1813_f3p0_1081	217.1	173
EOG09360LHZ	Duplicated	c37171_f1p2_1040	217.2	173
EOG09360LIN	Fragmented	c32029_f1p0_880	217.6	125
EOG09360LJ0	Missing
EOG09360LJF	Missing
EOG09360LJJ	Complete	c6681_f1p0_1432	188.3	221
EOG09360LJZ	Duplicated	c28628_f1p0_1262	319.2	192
EOG09360LJZ	Duplicated	c7468_f1p0_1287	319.1	192
EOG09360LK3	Missing
EOG09360LK7	Missing
EOG09360LL8	Complete	c5552_f1p0_1161	365.9	210
EOG09360LLC	Complete	c26164_f1p1_1068	253.0	201
EOG09360LMM	Missing
EOG09360LN2	Missing
EOG09360LO8	Complete	c28379_f1p0_1437	256.3	260
EOG09360LPP	Complete	c6057_f1p0_1364	329.4	199
EOG09360LPQ	Duplicated	c19791_f2p0_762	254.5	163
EOG09360LPQ	Duplicated	c20254_f1p0_1015	253.5	163
EOG09360LR9	Missing
EOG09360LU3	Missing
EOG09360LUG	Missing
EOG09360LVI	Missing
EOG09360LVN	Duplicated	c17429_f1p0_1061	261.1	139
EOG09360LVN	Duplicated	c38751_f1p0_1236	260.7	139
EOG09360LVN	Duplicated	c39358_f1p1_1350	260.5	139
EOG09360LWY	Fragmented	c5795_f1p1_1025	160.5	130
EOG09360LX9	Missing
EOG09360LYU	Duplicated	c30979_f1p2_842	289.8	167
EOG09360LYU	Duplicated	c8208_f1p2_1322	305.0	203
EOG09360M1I	Missing
EOG09360M1L	Complete	c20424_f1p0_1487	280.2	262
EOG09360M1M	Missing
EOG09360M2U	Complete	c19496_f1p0_1262	284.8	186
EOG09360M37	Missing
EOG09360M3L	Duplicated	c11578_f1p1_1084	203.3	177
EOG09360M3L	Duplicated	c24188_f1p3_1227	202.7	177
EOG09360M3L	Duplicated	c26624_f2p2_1237	202.6	177
EOG09360M5K	Missing
EOG09360MCN	Missing
EOG09360MCO	Fragmented	c27815_f1p1_925	172.0	124
EOG09360MCR	Missing
EOG09360MCT	Missing
EOG09360MDQ	Duplicated	c30312_f1p0_1220	328.0	218
EOG09360MDQ	Duplicated	c39513_f1p0_1335	327.6	218
EOG09360MDX	Complete	c2535_f1p1_1894	434.8	340
EOG09360MF2	Duplicated	c10649_f1p0_1189	206.8	189
EOG09360MF2	Duplicated	c31155_f1p1_1332	223.4	188
EOG09360MF2	Duplicated	c5067_f1p1_1298	223.5	188
EOG09360MF6	Missing
EOG09360MGG	Missing
EOG09360MIR	Fragmented	c22493_f1p0_880	222.5	148
EOG09360MJR	Complete	c22416_f1p0_1013	219.9	174
EOG09360MKH	Duplicated	c23522_f1p1_1551	263.3	166
EOG09360MKH	Duplicated	c27181_f1p1_1325	303.1	180
EOG09360MKH	Duplicated	c5315_f1p1_1130	303.6	180
EOG09360MNW	Duplicated	c27876_f1p0_1115	216.4	172
EOG09360MNW	Duplicated	c28732_f1p1_1121	216.4	172
EOG09360MNW	Duplicated	c32215_f1p0_1000	217.1	172
EOG09360MO9	Missing
EOG09360MQ0	Missing
EOG09360MQN	Complete	c9948_f1p0_1046	234.7	172
EOG09360MRP	Duplicated	c16026_f1p1_985	265.4	162
EOG09360MRP	Duplicated	c27596_f1p2_1065	265.2	162
EOG09360MRP	Duplicated	c8626_f2p0_1146	260.8	160
EOG09360MUD	Duplicated	c11373_f1p0_1411	82.7	255
EOG09360MUD	Duplicated	c6726_f1p2_1361	82.0	254
EOG09360MWT	Missing
EOG09360MYG	Missing
EOG09360MZ8	Missing
EOG09360N0I	Missing
EOG09360N12	Complete	c10506_f1p0_1052	322.7	160
EOG09360N2Y	Fragmented	c18291_f1p0_1112	225.6	156
EOG09360N4L	Duplicated	c17832_f3p2_1334	292.5	204
EOG09360N4L	Duplicated	c5523_f1p0_1063	293.3	204
EOG09360N4U	Missing
EOG09360N69	Complete	c35105_f1p0_1161	287.0	156
EOG09360N7D	Duplicated	c13437_f1p0_1056	266.4	189
EOG09360N7D	Duplicated	c15421_f1p0_967	266.6	189
EOG09360N7F	Duplicated	c11335_f1p0_1901	342.2	235
EOG09360N7F	Duplicated	c23304_f1p0_1037	294.2	203
EOG09360NB8	Duplicated	c14468_f4p1_1278	328.7	162
EOG09360NB8	Duplicated	c22135_f1p2_1006	329.4	162
EOG09360NB8	Duplicated	c24859_f1p1_1161	329.3	162
EOG09360NBT	Duplicated	c30216_f1p0_1118	377.2	202
EOG09360NBT	Duplicated	c5560_f1p0_961	377.9	202
EOG09360NC2	Missing
EOG09360NEY	Missing
EOG09360NF5	Complete	c21743_f1p0_1045	269.1	171
EOG09360NFA	Missing
EOG09360NGB	Missing
EOG09360NK5	Missing
EOG09360NKM	Duplicated	c24234_f1p6_788	319.2	162
EOG09360NKM	Duplicated	c41458_f6p10_796	318.9	162
EOG09360NKM	Duplicated	c510_f16p7_905	318.6	162
EOG09360NKX	Missing
EOG09360NM4	Duplicated	c7342_f1p1_1288	126.3	138
EOG09360NM4	Duplicated	c8493_f1p1_1165	126.6	138
EOG09360NN2	Complete	c32999_f1p0_1552	245.5	161
EOG09360NNQ	Fragmented	c7777_f1p1_1195	311.4	172
EOG09360NP8	Missing
EOG09360NQL	Complete	c23689_f2p2_1171	399.4	227
EOG09360NR1	Complete	c5465_f3p0_829	188.2	161
EOG09360NSW	Duplicated	c2266_f2p0_1184	295.2	164
EOG09360NSW	Duplicated	c29035_f1p0_1182	295.3	164
EOG09360NSW	Duplicated	c30032_f1p0_1030	290.0	159
EOG09360NTO	Duplicated	c21021_f1p2_1169	259.6	150
EOG09360NTO	Duplicated	c28129_f1p2_1317	259.3	150
EOG09360NTY	Missing
EOG09360NUJ	Duplicated	c10391_f1p0_1224	176.3	238
EOG09360NUJ	Duplicated	c23602_f1p0_1359	175.8	238
EOG09360NY1	Missing
EOG09360NZY	Duplicated	c10590_f2p0_1187	253.2	146
EOG09360NZY	Duplicated	c13249_f1p0_1383	252.8	146
EOG09360NZY	Duplicated	c14861_f2p0_1974	252.0	146
EOG09360O09	Complete	c15468_f1p0_1862	204.9	185
EOG09360O0R	Missing
EOG09360O2N	Duplicated	c13792_f2p2_894	148.3	66
EOG09360O2N	Duplicated	c2113_f2p1_1043	148.1	66
EOG09360O2N	Duplicated	c2272_f3p2_1049	148.1	66
EOG09360O4B	Complete	c28133_f1p1_1145	200.6	184
EOG09360O6Q	Missing
EOG09360O8P	Missing
EOG09360O92	Missing
EOG09360OA3	Duplicated	c20268_f1p4_998	283.3	163
EOG09360OA3	Duplicated	c23709_f1p3_1367	282.3	163
EOG09360OA3	Duplicated	c753_f16p3_1107	283.0	163
EOG09360OBH	Duplicated	c13392_f1p0_1008	238.4	141
EOG09360OBH	Duplicated	c20959_f1p0_890	238.5	140
EOG09360OBH	Duplicated	c23705_f2p0_765	239.8	141
EOG09360OBR	Duplicated	c12902_f2p1_1101	271.7	174
EOG09360OBR	Duplicated	c27505_f1p1_1208	272.8	174
EOG09360OBR	Duplicated	c9180_f4p1_1115	273.2	174
EOG09360OC8	Complete	c10395_f3p1_1204	403.2	219
EOG09360OD6	Complete	c6983_f1p0_1321	230.4	169
EOG09360OGZ	Duplicated	c12436_f5p0_968	204.4	143
EOG09360OGZ	Duplicated	c15944_f1p1_1123	204.1	143
EOG09360OGZ	Duplicated	c34599_f1p1_1118	193.5	119
EOG09360OHU	Missing
EOG09360OIY	Missing
EOG09360OJ7	Fragmented	c5777_f1p0_1853	196.5	107
EOG09360OLE	Missing
EOG09360ONA	Complete	c21808_f1p1_1184	209.3	151
EOG09360OQ1	Duplicated	c38608_f1p0_1193	170.1	161
EOG09360OQ1	Duplicated	c9259_f1p0_962	171.1	161
EOG09360OQ4	Duplicated	c17527_f2p1_867	207.0	169
EOG09360OQ4	Duplicated	c1848_f2p1_739	207.8	169
EOG09360OS0	Duplicated	c10868_f8p1_899	225.9	132
EOG09360OS0	Duplicated	c12450_f4p1_865	226.0	132
EOG09360OS0	Duplicated	c28509_f1p1_974	225.6	132
EOG09360OS5	Missing
EOG09360OT3	Duplicated	c15752_f1p1_1005	220.0	134
EOG09360OT3	Duplicated	c32514_f1p1_1140	219.6	134
EOG09360OT3	Duplicated	c8904_f1p0_1007	218.2	131
EOG09360OTB	Complete	c11271_f3p1_1278	251.9	143
EOG09360OW8	Missing
EOG09360OWV	Missing
EOG09360P08	Complete	c24082_f1p0_1126	267.9	167
EOG09360P0D	Fragmented	c8692_f1p0_924	112.0	119
EOG09360P3V	Duplicated	c17145_f1p0_1117	218.6	160
EOG09360P3V	Duplicated	c18728_f1p0_972	222.3	161
EOG09360P3V	Duplicated	c4429_f1p0_1078	221.9	161
EOG09360P5M	Missing
EOG09360P6I	Missing
EOG09360P82	Duplicated	c10494_f1p0_933	139.2	209
EOG09360P82	Duplicated	c11886_f1p0_1215	138.0	209
EOG09360P82	Duplicated	c29179_f1p0_1069	138.6	209
EOG09360PA0	Duplicated	c23716_f1p2_1013	206.0	135
EOG09360PA0	Duplicated	c5011_f2p2_905	206.4	135
EOG09360PA0	Duplicated	c6076_f1p0_776	206.3	135
EOG09360PFL	Complete	c6575_f1p0_1290	153.1	149
EOG09360PG1	Missing
EOG09360PGO	Missing
EOG09360PHQ	Complete	c16645_f1p0_1027	222.9	166
EOG09360PKV	Complete	c6090_f4p0_1095	290.8	197
EOG09360PLI	Missing
EOG09360PLN	Duplicated	c10787_f1p0_1045	167.3	88
EOG09360PLN	Duplicated	c22972_f2p0_922	167.6	88
EOG09360PLN	Duplicated	c8243_f2p0_785	168.0	88
EOG09360PMV	Duplicated	c16287_f1p1_974	177.5	147
EOG09360PMV	Duplicated	c2116_f2p1_901	177.8	147
EOG09360POQ	Complete	c21161_f1p0_1408	154.2	191
EOG09360PQE	Duplicated	c12042_f1p1_1272	156.1	154
EOG09360PQE	Duplicated	c14725_f3p4_1184	156.3	154
EOG09360PQE	Duplicated	c17678_f1p3_1234	156.0	154
EOG09360PQR	Complete	c10084_f1p0_1203	211.6	169
EOG09360PRE	Missing
EOG09360PV7	Missing
EOG09360PWB	Duplicated	c17271_f1p0_1188	211.3	144
EOG09360PWB	Duplicated	c29896_f1p0_1393	224.4	158
EOG09360PWB	Duplicated	c6950_f6p1_955	225.6	158
EOG09360PZZ	Complete	c28646_f1p0_987	305.8	167
EOG09360Q05	Missing
EOG09360Q0V	Complete	c15218_f1p0_1098	155.6	172
EOG09360Q2G	Complete	c15972_f1p0_994	163.2	143
EOG09360Q7Y	Complete	c29999_f1p0_967	96.4	86
EOG09360QB9	Duplicated	c1063_f7p1_927	311.4	166
EOG09360QB9	Duplicated	c8459_f2p0_802	311.9	166
EOG09360QE3	Missing
EOG09360QEX	Complete	c26273_f2p0_1125	239.8	141
EOG09360QFC	Missing
EOG09360QGD	Missing
EOG09360QHJ	Duplicated	c27580_f1p0_1436	240.2	187
EOG09360QHJ	Duplicated	c27740_f1p1_1183	239.9	187
EOG09360QIM	Missing
EOG09360QMN	Complete	c27304_f1p0_732	170.5	95
EOG09360QMO	Duplicated	c12354_f1p0_1369	348.5	251
EOG09360QMO	Duplicated	c30573_f1p0_1370	348.5	251
EOG09360QNQ	Duplicated	c19035_f1p1_970	247.8	134
EOG09360QNQ	Duplicated	c37954_f1p0_738	248.7	134
EOG09360QNQ	Duplicated	c6399_f2p0_849	248.3	134
EOG09360QPR	Complete	c22469_f1p0_1489	282.0	163
EOG09360QQP	Missing
EOG09360QS9	Missing
EOG09360QVA	Duplicated	c26570_f2p0_1372	227.9	117
EOG09360QVA	Duplicated	c9039_f1p0_1131	228.7	117
EOG09360QWS	Complete	c38407_f1p0_993	250.1	134
EOG09360QXX	Fragmented	c4753_f3p0_752	128.8	79
EOG09360R2K	Missing
EOG09360R4F	Complete	c8348_f3p1_1412	349.1	245
EOG09360R4Q	Complete	c9062_f1p0_977	210.6	144
EOG09360R4S	Missing
EOG09360R5H	Duplicated	c5472_f1p0_906	108.2	119
EOG09360R5H	Duplicated	c7553_f2p0_1033	107.8	119
EOG09360R94	Missing
EOG09360RCD	Fragmented	c22672_f1p0_773	159.7	117
EOG09360RFB	Duplicated	c25487_f16p2_1033	295.8	173
EOG09360RFB	Duplicated	c3252_f1p1_907	296.4	173
EOG09360RFB	Duplicated	c4877_f4p6_1103	295.5	173
EOG09360RFQ	Missing
EOG09360RHO	Missing
EOG09360RLS	Missing
EOG09360ROA	Duplicated	c20848_f1p1_720	131.3	106
EOG09360ROA	Duplicated	c5215_f2p1_845	130.7	106
EOG09360ROA	Duplicated	c7409_f5p1_723	131.2	106
EOG09360ROY	Missing
EOG09360RQP	Missing
EOG09360RRZ	Complete	c11334_f1p0_873	139.1	105
EOG09360RS5	Missing
EOG09360RTI	Missing
EOG09360S1U	Duplicated	c20315_f2p0_1113	188.6	120
EOG09360S1U	Duplicated	c8640_f1p0_973	189.6	120
EOG09360S1W	Complete	c18228_f1p0_962	165.2	102
EOG09360S6Z	Missing
EOG09360S81	Missing
EOG09360S90	Complete	c25298_f1p0_4035	106.8	92
EOG09360S9M	Missing
EOG09360S9S	Duplicated	c1618_f6p1_929	194.5	119
EOG09360S9S	Duplicated	c17705_f1p0_830	195.0	119
EOG09360SAC	Duplicated	c16032_f1p0_793	187.5	110
EOG09360SAC	Duplicated	c6724_f2p0_909	187.0	110
EOG09360SAC	Duplicated	c9139_f4p3_954	186.9	110
EOG09360SCW	Duplicated	c18198_f1p0_1042	160.9	109
EOG09360SCW	Duplicated	c33220_f1p2_869	161.2	109
EOG09360SCW	Duplicated	c4707_f1p2_678	156.3	105
EOG09360SHF	Missing
EOG09360SKX	Missing
EOG09360SL9	Missing
EOG09360SLX	Complete	c8269_f1p1_1313	272.2	192
EOG09360SMB	Missing
EOG09360SN1	Duplicated	c14507_f3p0_797	133.1	94
EOG09360SN1	Duplicated	c23959_f1p0_995	132.7	94
EOG09360SN1	Duplicated	c8204_f2p0_847	133.2	94
EOG09360SS7	Fragmented	c34271_f2p0_714	169.8	113
EOG09360SUH	Missing
EOG09360SVQ	Missing
EOG09360T01	Missing
EOG09360T1O	Duplicated	c18583_f1p0_1044	146.6	100
EOG09360T1O	Duplicated	c20251_f1p1_1011	146.7	100
EOG09360T1O	Duplicated	c34535_f1p0_886	147.1	100
EOG09360T3L	Complete	c12974_f1p0_1125	201.4	146
EOG09360T7J	Complete	c9612_f1p2_864	140.4	81
EOG09360TA9	Duplicated	c19287_f2p0_652	128.2	74
EOG09360TA9	Duplicated	c28194_f1p0_825	127.8	74
EOG09360TCV	Missing
EOG09360TDR	Missing
EOG09360TEN	Missing
EOG09360TJE	Fragmented	c32802_f1p0_955	146.8	99
EOG09360TJO	Duplicated	c11348_f1p1_934	193.6	130
EOG09360TJO	Duplicated	c11904_f1p4_786	192.1	128
EOG09360TJO	Duplicated	c19805_f2p3_765	194.3	130
EOG09360TLB	Duplicated	c11804_f1p2_818	150.2	86
EOG09360TLB	Duplicated	c16185_f1p2_797	150.3	86
EOG09360TLB	Duplicated	c6039_f1p2_675	150.8	86
EOG09360TLR	Missing
EOG09360TMO	Complete	c27278_f1p0_1019	229.8	137
EOG09360TUC	Duplicated	c19321_f1p0_947	194.4	118
EOG09360TUC	Duplicated	c22600_f1p0_1170	196.2	120
EOG09360TV2	Missing
EOG09360TWW	Complete	c13702_f1p1_2515	133.3	172
EOG09360TXX	Missing
EOG09360TYW	Duplicated	c40464_f1p0_734	134.5	108
EOG09360TYW	Duplicated	c6392_f2p0_853	133.8	108
EOG09360TZB	Missing
EOG09360U1R	Complete	c23083_f1p1_852	146.0	103
EOG09360U3T	Missing
EOG09360UCM	Complete	c31517_f1p0_728	143.5	101
EOG09360UCN	Complete	c8336_f1p1_824	137.4	84
EOG09360UGG	Missing
EOG09360UH0	Missing
EOG09360UKB	Duplicated	c17654_f1p0_1161	144.9	144
EOG09360UKB	Duplicated	c18743_f1p0_1134	142.3	144
EOG09360UKB	Duplicated	c26842_f1p0_1131	145.5	144
EOG09360ULO	Missing
EOG09360UMZ	Fragmented	c9987_f1p0_520	136.1	107
EOG09360UX0	Duplicated	c1798_f3p0_621	104.6	64
EOG09360UX0	Duplicated	c22149_f1p0_783	103.7	64
EOG09360UZA	Complete	c27494_f1p0_1012	193.9	104
EOG09360V3N	Duplicated	c1636_f5p1_1143	276.6	186
EOG09360V3N	Duplicated	c23540_f1p0_959	277.1	186
EOG09360V3N	Duplicated	c28895_f1p0_1148	258.6	178
EOG09360VCN	Missing
EOG09360VIC	Duplicated	c17684_f1p0_982	125.9	62
EOG09360VIC	Duplicated	c27175_f1p0_829	126.2	62
EOG09360W85	Missing
EOG09360WA9	Missing
EOG09360WAP	Complete	c30058_f1p0_1423	118.2	147
EOG09360WJ9	Missing
EOG09360WK5	Missing
EOG09360WSA	Missing
EOG09360XE7	Complete	c24197_f1p1_1014	162.5	113
EOG09360XWE	Complete	c1872_f4p0_855	89.5	59
EOG09360XXS	Missing
EOG09360XZ1	Missing
EOG09360Y81	Missing
EOG09360Y9G	Missing
EOG09360YQE	Complete	c13033_f2p0_797	151.4	142
EOG09360YWZ	Missing
EOG09360ZQE	Missing
EOG09360ZQL	Complete	c10317_f1p1_2011	76.4	54
EOG09360ZSS	Duplicated	c19830_f1p0_830	66.0	68
EOG09360ZSS	Duplicated	c23261_f1p0_821	66.2	68
