INFO	****************** Start a BUSCO 3.0.2 analysis, current time: 02/16/2020 23:00:38 ******************
INFO	Configuration loaded from /isg/shared/apps/busco/3.0.2b/scripts/../config/config.ini
INFO	Init tools...
INFO	Check dependencies...
INFO	Check input file...
INFO	To reproduce this run: python /isg/shared/apps/busco/3.0.2b/scripts/run_BUSCO.py -i ../PILA.1_5.peptides.fa -o Busco_PILA_annotation -l /isg/shared/databases/busco_lineages/embryophyta_odb9/ -m proteins -c 8
INFO	Mode is: proteins
INFO	The lineage dataset is: embryophyta_odb9 (eukaryota)
INFO	Temp directory is ./tmp/
INFO	Running HMMER on the proteins:
INFO	[hmmsearch]	144 of 1440 task(s) completed at 02/16/2020 23:04:41
INFO	[hmmsearch]	288 of 1440 task(s) completed at 02/16/2020 23:10:03
INFO	[hmmsearch]	432 of 1440 task(s) completed at 02/16/2020 23:13:34
INFO	[hmmsearch]	576 of 1440 task(s) completed at 02/16/2020 23:16:30
INFO	[hmmsearch]	720 of 1440 task(s) completed at 02/16/2020 23:18:24
INFO	[hmmsearch]	864 of 1440 task(s) completed at 02/16/2020 23:19:22
INFO	[hmmsearch]	1008 of 1440 task(s) completed at 02/16/2020 23:19:49
INFO	[hmmsearch]	1152 of 1440 task(s) completed at 02/16/2020 23:20:13
INFO	[hmmsearch]	1296 of 1440 task(s) completed at 02/16/2020 23:20:31
INFO	[hmmsearch]	1440 of 1440 task(s) completed at 02/16/2020 23:20:46
INFO	Results:
INFO	C:69.8%[S:61.0%,D:8.8%],F:6.3%,M:23.9%,n:1440
INFO	1005 Complete BUSCOs (C)
INFO	878 Complete and single-copy BUSCOs (S)
INFO	127 Complete and duplicated BUSCOs (D)
INFO	91 Fragmented BUSCOs (F)
INFO	344 Missing BUSCOs (M)
INFO	1440 Total BUSCO groups searched
INFO	BUSCO analysis done. Total running time: 1215.30124307 seconds
INFO	Results written in /labs/Wegrzyn/ConiferGenomes/coniferannotations/pila/annotation_process/7_Combine/4_rename/3_busco/run_Busco_PILA_annotation/

