PILA_05892
PILA_05898
PILA_11445
PILA_11444
PILA_09361
PILA_00364
PILA_10421
PILA_11246
PILA_32682
PILA_29252
PILA_08778
PILA_08774
PILA_08773
PILA_31560
PILA_37248
PILA_23447
PILA_24141
PILA_24142
PILA_13224
PILA_15971
PILA_25238
PILA_16305
PILA_10914
PILA_14215
PILA_06751
PILA_03983
PILA_07405
PILA_04669
PILA_00758
PILA_20449
PILA_05133
PILA_31341
PILA_01935
PILA_38399
PILA_07639
PILA_34432
PILA_00608
PILA_16561
PILA_16564
PILA_14582
PILA_14581
PILA_16697
PILA_25009
PILA_18144
PILA_06827
PILA_11349
PILA_11347
PILA_02852
PILA_34373
PILA_11969
PILA_07884
PILA_31938
PILA_12085
PILA_33395
PILA_33398
PILA_27266
PILA_24514
PILA_24513
PILA_32512
PILA_38057
PILA_03321
PILA_16881
PILA_34607
PILA_36601
PILA_14626
PILA_16716
PILA_24254
PILA_24256
PILA_07143
PILA_07141
PILA_35401
PILA_23757
PILA_19858
PILA_28499
PILA_21841
PILA_37821
PILA_36884
PILA_21262
PILA_01226
PILA_10042
PILA_22185
PILA_37453
PILA_14297
PILA_14295
PILA_36413
PILA_17673
PILA_00284
PILA_00130
PILA_06999
PILA_35231
PILA_28918
PILA_30319
PILA_20304
PILA_21652
PILA_24687
PILA_32209
PILA_24977
PILA_18415
PILA_18412
PILA_25089
PILA_17991
PILA_22685
PILA_22688
PILA_19406
PILA_07382
PILA_12009
PILA_05673
PILA_26674
PILA_10334
PILA_10335
PILA_32592
PILA_28895
PILA_27973
PILA_33884
PILA_22333
PILA_31764
PILA_15201
PILA_32869
PILA_26364
PILA_20407
PILA_14151
PILA_06033
PILA_21758
PILA_27106
PILA_11262
PILA_29616
PILA_03871
PILA_27692
PILA_00990
PILA_27341
PILA_12513
PILA_35924
PILA_26904
PILA_22101
PILA_34897
PILA_17364
PILA_36494
PILA_24192
PILA_24194
PILA_24446
PILA_24449
PILA_25713
PILA_06452
PILA_18036
PILA_18034
PILA_04453
PILA_04457
PILA_27923
PILA_03241
PILA_03243
PILA_06145
PILA_29358
PILA_23523
PILA_27062
PILA_28604
PILA_08907
PILA_17513
PILA_31111
PILA_01308
PILA_31648
PILA_35774
PILA_02657
PILA_17917
PILA_27432
PILA_15233
PILA_17286
PILA_17289
PILA_19952
PILA_16664
PILA_06307
PILA_19487
PILA_04235
PILA_05546
PILA_00072
PILA_00070
PILA_10627
PILA_04798
PILA_35578
PILA_12699
PILA_29140
PILA_29853
PILA_09159
PILA_36060
PILA_13428
PILA_18519
PILA_23197
PILA_24836
PILA_16276
PILA_16271
PILA_04802
PILA_37072
PILA_10867
PILA_12160
PILA_18894
PILA_12839
PILA_12830
PILA_29720
PILA_34583
PILA_10473
PILA_32165
PILA_26985
PILA_01730
PILA_03776
PILA_01883
PILA_32946
PILA_27552
PILA_27555
PILA_16459
PILA_37896
PILA_17464
PILA_17463
PILA_15177
PILA_38510
PILA_06494
PILA_28688
PILA_04655
PILA_20078
PILA_21303
PILA_21308
PILA_22624
PILA_25553
PILA_34445
PILA_34999
PILA_36591
PILA_36599
PILA_23045
PILA_20533
PILA_13008
PILA_14843
PILA_00562
PILA_04710
PILA_05041
PILA_01745
PILA_31908
PILA_12505
PILA_28524
PILA_11720
PILA_33671
PILA_21177
PILA_29346
PILA_24520
PILA_35631
PILA_02595
PILA_30657
PILA_37386
PILA_15509
PILA_16745
PILA_18818
PILA_11430
PILA_07179
PILA_17592
PILA_11293
PILA_04274
PILA_32189
PILA_35436
PILA_07951
PILA_35387
PILA_19803
PILA_27886
PILA_28771
PILA_16607
PILA_01275
PILA_22736
PILA_34827
PILA_37737
PILA_26431
PILA_20809
PILA_20804
PILA_05940
PILA_06414
PILA_12973
PILA_32758
PILA_32759
PILA_01479
PILA_30443
PILA_28924
PILA_33937
PILA_13268
PILA_22972
PILA_14021
PILA_21991
PILA_36263
PILA_24019
PILA_24017
PILA_24010
PILA_19737
PILA_17704
PILA_17708
PILA_24904
PILA_22500
PILA_25278
PILA_19476
PILA_06601
PILA_04117
PILA_00603
PILA_20736
PILA_33367
PILA_25616
PILA_25613
PILA_32548
PILA_35518
PILA_08418
PILA_15238
PILA_15239
PILA_26333
PILA_20474
PILA_13322
PILA_12743
PILA_26606
PILA_11210
PILA_03154
PILA_19881
PILA_19882
PILA_08165
PILA_21235
PILA_30752
PILA_38232
PILA_37077
PILA_16959
PILA_20883
PILA_36757
PILA_36753
PILA_18919
PILA_16173
PILA_24437
PILA_10295
PILA_17494
PILA_12469
PILA_18003
PILA_17637
PILA_06928
PILA_00183
PILA_03298
PILA_03297
PILA_23514
PILA_28634
PILA_21009
PILA_31636
PILA_32308
PILA_17965
PILA_17962
PILA_23988
PILA_34947
PILA_15614
PILA_15611
PILA_15613
PILA_12946
PILA_27427
PILA_06352
PILA_00685
PILA_01645
PILA_35097
PILA_25874
PILA_14103
PILA_21704
PILA_21709
PILA_37925
PILA_36032
PILA_13458
PILA_33008
PILA_18542
PILA_16248
PILA_16246
PILA_04839
PILA_37021
PILA_16321
PILA_05767
PILA_10442
PILA_02415
PILA_20053
PILA_34752
PILA_34753
PILA_34756
PILA_15466
PILA_26278
PILA_10124
PILA_34250
PILA_05353
PILA_03214
PILA_07249
PILA_07241
PILA_26070
PILA_27035
PILA_27036
PILA_04601
PILA_00738
PILA_20020
PILA_21083
PILA_35835
PILA_33783
PILA_33789
PILA_01957
PILA_35785
PILA_38378
PILA_08562
PILA_17188
PILA_17186
PILA_13039
PILA_13037
PILA_16636
PILA_16630
PILA_19258
PILA_19255
PILA_07009
PILA_34466
PILA_10678
PILA_10095
PILA_10096
PILA_04720
PILA_35700
PILA_07820
PILA_08367
PILA_02958
PILA_23255
PILA_26558
PILA_33080
PILA_23781
PILA_20252
PILA_11872
PILA_15557
PILA_17021
PILA_08110
PILA_32994
PILA_30081
PILA_16772
PILA_00963
PILA_00964
PILA_11465
PILA_00340
PILA_01766
PILA_01763
PILA_03722
PILA_03180
PILA_08759
PILA_30231
PILA_27506
PILA_36173
PILA_04268
PILA_28740
PILA_38462
PILA_22299
PILA_20135
PILA_26919
PILA_17616
PILA_19549
PILA_07791
PILA_18633
PILA_06776
PILA_04681
PILA_04684
PILA_30202
PILA_30200
PILA_21370
PILA_21378
PILA_32706
PILA_30415
PILA_35169
PILA_08654
PILA_23094
PILA_14078
PILA_16501
PILA_24049
PILA_33139
PILA_16081
PILA_22551
PILA_22550
PILA_04945
PILA_07326
PILA_07323
PILA_28570
PILA_08858
PILA_11008
PILA_29621
PILA_32575
PILA_30592
PILA_14153
PILA_08446
PILA_36664
PILA_14604
PILA_07124
PILA_07121
PILA_18865
PILA_18869
PILA_18245
PILA_01055
PILA_03103
PILA_29172
PILA_03100
PILA_23357
PILA_27859
PILA_29982
PILA_03810
PILA_21867
PILA_37842
PILA_34223
PILA_33545
PILA_21242
PILA_22746
PILA_02770
PILA_34780
PILA_37471
PILA_34874
PILA_15765
PILA_14413
PILA_16120
PILA_19091
PILA_00233
PILA_05402
PILA_12923
PILA_06125
PILA_30994
PILA_36230
PILA_20326
PILA_32260
PILA_31109
PILA_09555
PILA_19420
PILA_12062
PILA_23133
PILA_05618
PILA_10685
PILA_10683
PILA_10353
PILA_10350
PILA_32068
PILA_01610
PILA_03612
PILA_25849
PILA_29120
PILA_22313
PILA_31741
PILA_23736
PILA_14686
PILA_14688
PILA_27431
PILA_37977
PILA_25105
PILA_14914
PILA_16210
PILA_22452
PILA_34091
PILA_34097
PILA_34094
PILA_10110
PILA_03890
PILA_09449
PILA_32632
PILA_01794
PILA_12750
PILA_01869
PILA_28191
PILA_26706
PILA_35367
PILA_25470
PILA_03424
PILA_14978
PILA_30289
PILA_30280
PILA_16438
PILA_06241
PILA_19019
PILA_24468
PILA_35132
PILA_12431
PILA_33740
PILA_11164
PILA_06971
PILA_05305
PILA_12372
PILA_07219
PILA_20013
PILA_23974
PILA_13509
PILA_34932
PILA_06320
PILA_24343
PILA_05695
PILA_04773
PILA_33823
PILA_30035
PILA_20939
PILA_20936
PILA_28055
PILA_16689
PILA_28058
PILA_32303
PILA_01087
PILA_25181
PILA_01558
PILA_14997
PILA_31140
PILA_31141
PILA_34013
PILA_11822
PILA_17057
PILA_36325
PILA_36329
PILA_05887
PILA_06280
PILA_09375
PILA_23331
PILA_05711
PILA_30784
PILA_25960
PILA_38170
PILA_38178
PILA_08189
PILA_08182
PILA_37250
PILA_35355
PILA_36128
PILA_13238
PILA_15965
PILA_24795
PILA_24797
PILA_16316
PILA_34192
PILA_15158
PILA_10920
PILA_19510
PILA_26025
PILA_04676
PILA_00744
PILA_09653
PILA_05103
PILA_05102
PILA_26806
PILA_35288
PILA_35280
PILA_32480
PILA_13262
PILA_22008
PILA_34424
PILA_15315
PILA_15313
PILA_37192
PILA_14043
PILA_15886
PILA_15881
PILA_19282
PILA_00508
PILA_15058
PILA_03073
PILA_03072
PILA_03079
PILA_31922
PILA_26616
PILA_20758
PILA_27258
PILA_01009
PILA_27155
PILA_29366
PILA_32526
PILA_02063
PILA_28285
PILA_25676
PILA_30677
PILA_30678
PILA_00522
PILA_03331
PILA_37547
PILA_16729
PILA_18835
PILA_10336
PILA_10763
PILA_23221
PILA_30938
PILA_04546
PILA_07938
PILA_02266
PILA_26404
PILA_31985
PILA_28712
PILA_35068
PILA_36874
PILA_29443
PILA_29446
PILA_24714
PILA_02746
PILA_34114
PILA_15480
PILA_15733
PILA_20825
PILA_06432
PILA_19590
PILA_34255
PILA_07472
PILA_00120
PILA_05182
PILA_10519
PILA_17603
PILA_23931
PILA_17607
PILA_06984
PILA_06982
PILA_26887
PILA_33919
PILA_33917
PILA_09957
PILA_09954
PILA_37118
PILA_24036
PILA_23872
PILA_24692
PILA_36936
PILA_25342
PILA_16057
PILA_14155
PILA_34303
PILA_11914
PILA_10069
PILA_14368
PILA_12950
PILA_06665
PILA_06661
PILA_04289
PILA_07537
PILA_11073
PILA_05668
PILA_33308
PILA_02570
PILA_27945
PILA_26311
PILA_26315
PILA_20410
PILA_20419
PILA_26078
PILA_17532
PILA_14942
PILA_17541
PILA_20655
PILA_26489
PILA_00984
PILA_27358
PILA_27355
PILA_21219
PILA_21218
PILA_01298
PILA_35914
PILA_26975
PILA_02632
PILA_30734
PILA_25440
PILA_37425
PILA_16972
PILA_36777
PILA_17317
PILA_17314
PILA_31329
PILA_13114
PILA_24186
PILA_24456
PILA_24454
PILA_19370
PILA_12443
PILA_10598
PILA_05330
PILA_02105
PILA_28982
PILA_28984
PILA_26721
PILA_23539
PILA_07227
PILA_09041
PILA_33722
PILA_21023
PILA_24610
PILA_35890
PILA_22616
PILA_35769
PILA_17907
PILA_17904
PILA_34380
PILA_34389
PILA_34388
PILA_34967
PILA_36526
PILA_19945
PILA_19947
PILA_13638
PILA_13639
PILA_13636
PILA_18729
PILA_11568
PILA_19233
PILA_09200
PILA_00008
PILA_32033
PILA_07849
PILA_07845
PILA_35565
PILA_35567
PILA_29843
PILA_30043
PILA_20947
PILA_23767
PILA_21501
PILA_13380
PILA_32372
PILA_11812
PILA_11813
PILA_10147
PILA_10855
PILA_11748
PILA_18199
PILA_20648
PILA_20647
PILA_00909
PILA_09410
PILA_05744
PILA_33181
PILA_33597
PILA_28129
PILA_28125
PILA_04592
PILA_35335
PILA_02298
PILA_03740
PILA_29295
PILA_29292
PILA_38124
PILA_22176
PILA_31523
PILA_38147
PILA_38140
PILA_26210
PILA_37207
PILA_37206
PILA_16441
PILA_30820
PILA_18316
PILA_26236
PILA_12327
PILA_04625
PILA_20045
PILA_38262
PILA_08783
PILA_35813
PILA_26836
PILA_25561
PILA_38350
PILA_30167
PILA_08500
PILA_23074
PILA_14542
PILA_25046
PILA_10652
PILA_00556
PILA_09780
PILA_03043
PILA_06036
PILA_31972
PILA_07349
PILA_07343
PILA_09120
PILA_23270
PILA_29688
PILA_29685
PILA_30649
PILA_15539
PILA_15481
PILA_06010
PILA_11409
PILA_09325
PILA_11115
PILA_29634
PILA_35444
PILA_19810
PILA_25911
PILA_21197
PILA_27521
PILA_13267
PILA_13261
PILA_21803
PILA_10245
PILA_01265
PILA_25498
PILA_16343
PILA_38449
PILA_34140
PILA_23895
PILA_15701
PILA_20257
PILA_30588
PILA_13706
PILA_00799
PILA_27098
PILA_28370
PILA_28957
PILA_09981
PILA_09989
PILA_09988
PILA_22963
PILA_22964
PILA_36294
PILA_15876
PILA_24393
PILA_16067
PILA_22578
PILA_15006
PILA_12593
PILA_26038
PILA_00611
PILA_29604
PILA_09709
PILA_33681
PILA_02506
PILA_25603
PILA_28239
PILA_03360
PILA_36642
PILA_30964
PILA_14197
PILA_00770
PILA_07105
PILA_18223
PILA_14972
PILA_14975
PILA_11225
PILA_11228
PILA_01221
PILA_02181
PILA_23486
PILA_37867
PILA_33524
PILA_10172
PILA_24760
PILA_38229
PILA_07920
PILA_20898
PILA_17328
PILA_13833
PILA_14436
PILA_13781
PILA_09951
PILA_16495
PILA_06468
PILA_07732
PILA_05468
PILA_04412
PILA_01309
PILA_02150
PILA_36218
PILA_21697
PILA_21695
PILA_17950
PILA_13576
PILA_15089
PILA_36554
PILA_19996
PILA_37374
PILA_17177
PILA_18710
PILA_07565
PILA_05585
PILA_30110
PILA_05633
PILA_32007
PILA_01632
PILA_01631
PILA_03671
PILA_03090
PILA_32824
PILA_23713
PILA_27410
PILA_27414
PILA_19606
PILA_20604
PILA_24871
PILA_22436
PILA_22434
PILA_05777
PILA_10174
PILA_04841
PILA_27380
PILA_27386
PILA_32617
PILA_15471
PILA_37237
PILA_27609
PILA_14701
PILA_19030
PILA_25284
PILA_06959
PILA_34247
PILA_15136
PILA_08054
PILA_07274
PILA_07276
PILA_26084
PILA_23566
PILA_20039
PILA_08947
PILA_08941
PILA_24647
PILA_33774
PILA_33771
PILA_31686
PILA_03561
PILA_03562
PILA_34480
PILA_34482
PILA_14572
PILA_16594
PILA_10087
PILA_36821
PILA_02367
PILA_28850
PILA_30017
PILA_30012
PILA_20910
PILA_27493
PILA_20263
PILA_28072
PILA_28073
PILA_21139
PILA_31160
PILA_35675
PILA_02006
PILA_34070
PILA_34073
PILA_17035
PILA_12125
PILA_06261
PILA_06260
PILA_11477
PILA_09355
PILA_09356
PILA_09351
PILA_17421
PILA_12415
PILA_12534
PILA_25827
PILA_01776
PILA_35472
PILA_29226
PILA_29223
PILA_05294
PILA_08742
PILA_08745
PILA_08746
PILA_09831
PILA_23458
PILA_27517
PILA_24159
PILA_13250
PILA_37775
PILA_14265
PILA_22320
PILA_26009
PILA_07415
PILA_07416
PILA_11621
PILA_11623
PILA_27758
PILA_05125
PILA_33443
PILA_10578
PILA_35843
PILA_21347
PILA_13727
PILA_32718
PILA_01920
PILA_34672
PILA_02077
PILA_28297
PILA_23085
PILA_37177
PILA_30388
PILA_00525
PILA_00528
PILA_34363
PILA_34367
PILA_11975
PILA_15072
PILA_07892
PILA_05009
PILA_08310
PILA_12098
PILA_28562
PILA_04158
PILA_09736
PILA_32500
PILA_30614
PILA_16896
PILA_12308
PILA_13442
PILA_16705
PILA_16702
PILA_07279
PILA_11800
PILA_18850
PILA_18271
PILA_02248
PILA_03117
PILA_32986
PILA_23364
PILA_26469
PILA_27333
PILA_28739
PILA_21855
PILA_01233
PILA_31049
PILA_02769
PILA_02763
PILA_08716
PILA_22193
PILA_22194
PILA_23826
PILA_23824
PILA_34863
PILA_34861
PILA_15751
PILA_15752
PILA_36797
PILA_10982
PILA_14404
PILA_23683
PILA_19311
PILA_36307
PILA_05436
PILA_30302
PILA_36228
PILA_20312
PILA_00301
PILA_12663
PILA_17149
PILA_17143
PILA_12015
PILA_18744
PILA_18746
PILA_11095
PILA_02555
PILA_32058
PILA_30562
PILA_32589
PILA_32581
PILA_30696
PILA_27969
PILA_27968
PILA_35058
PILA_31778
PILA_22874
PILA_07992
PILA_07996
PILA_05830
PILA_05838
PILA_12229
PILA_14818
PILA_11753
PILA_32629
PILA_01889
PILA_08796
PILA_08798
PILA_27890
PILA_03413
PILA_03419
PILA_29944
PILA_36718
PILA_15423
PILA_15427
PILA_13289
PILA_16420
PILA_12424
PILA_11193
PILA_06960
PILA_10013
PILA_04444
PILA_08001
PILA_26709
PILA_21953
PILA_08910
PILA_29542
PILA_21045
PILA_24677
PILA_04243
PILA_22636
PILA_22638
PILA_17926
PILA_22090
PILA_14386
PILA_14523
PILA_04221
PILA_11543
PILA_07046
PILA_07599
PILA_05685
PILA_04760
PILA_04764
PILA_05088
PILA_05628
PILA_28809
PILA_25839
PILA_23743
PILA_28023
PILA_18500
PILA_34004
PILA_15497
PILA_07653
PILA_09381
PILA_11101
PILA_01721
PILA_27543
PILA_27544
PILA_17450
PILA_18332
PILA_17653
PILA_22253
PILA_15140
PILA_06486
PILA_19508
PILA_07286
PILA_12307
PILA_04398
PILA_08995
PILA_20060
PILA_05112
PILA_33436
PILA_31363
PILA_26812
PILA_33989
PILA_33984
PILA_29304
PILA_22900
PILA_27700
PILA_24087
PILA_24086
PILA_19745
PILA_19748
PILA_12670
PILA_25061
PILA_00573
PILA_06802
PILA_13476
PILA_28539
PILA_20294
PILA_32392
PILA_31283
PILA_25669
PILA_17572
PILA_30669
PILA_03301
PILA_23158
PILA_37390
PILA_37393
PILA_11425
PILA_07163
PILA_07169
PILA_07942
PILA_26723
PILA_02272
PILA_02896
PILA_29949
PILA_13437
PILA_36862
PILA_36864
PILA_01202
PILA_35984
PILA_34838
PILA_15726
PILA_19588
PILA_28306
PILA_18987
PILA_06401
PILA_04314
PILA_30333
PILA_09535
PILA_09536
PILA_09537
PILA_07465
PILA_05197
PILA_10528
PILA_32747
PILA_01449
PILA_03591
PILA_29047
PILA_29044
PILA_31467
PILA_22983
PILA_37108
PILA_23586
PILA_36276
PILA_21672
PILA_24000
PILA_17717
PILA_25359
PILA_18476
PILA_22514
PILA_22519
PILA_22518
PILA_02847
PILA_34318
PILA_15023
PILA_37664
PILA_34995
PILA_19462
PILA_26660
PILA_08890
PILA_29663
PILA_31209
PILA_25889
PILA_27951
PILA_22356
PILA_08401
PILA_34660
PILA_34666
PILA_22825
PILA_20460
PILA_13336
PILA_19667
PILA_18202
PILA_00431
PILA_00386
PILA_02811
PILA_05841
PILA_08175
PILA_28475
PILA_28472
PILA_28786
PILA_02486
PILA_15026
PILA_30746
PILA_03462
PILA_08230
PILA_37439
PILA_16949
PILA_13818
PILA_14452
PILA_13103
PILA_18906
PILA_05440
PILA_18016
PILA_06932
PILA_03266
PILA_09921
PILA_23508
PILA_21013
PILA_21012
PILA_21015
PILA_35714
PILA_13607
PILA_13609
PILA_07540
PILA_26662
PILA_29167
PILA_35088
PILA_35080
PILA_02301
PILA_31707
PILA_29835
PILA_26383
PILA_20977
PILA_27472
PILA_24810
PILA_18537
PILA_18281
PILA_18289
PILA_11048
PILA_09766
PILA_37584
PILA_04825
PILA_12145
PILA_04000
PILA_11493
PILA_27678
PILA_12404
PILA_33589
PILA_32185
PILA_04582
PILA_22161
PILA_08724
PILA_26261
PILA_37214
PILA_18061
PILA_15927
PILA_16129
PILA_00262
PILA_27953
PILA_26068
PILA_00706
PILA_31337
PILA_26843
PILA_33026
PILA_36057
PILA_25578
PILA_03541
PILA_03548
PILA_08572
PILA_14081
PILA_15680
PILA_13680
PILA_13029
PILA_05526
PILA_05525
PILA_18116
PILA_00542
PILA_00094
PILA_00090
PILA_00099
PILA_08371
PILA_03032
PILA_23262
PILA_21110
PILA_24546
PILA_22493
PILA_02023
PILA_11865
PILA_11869
PILA_09335
PILA_09487
PILA_32102
PILA_04505
PILA_27053
PILA_07976
PILA_35456
PILA_02224
PILA_29970
PILA_23436
PILA_30868
PILA_30864
PILA_20160
PILA_11208
PILA_25480
PILA_25481
PILA_23886
PILA_10964
PILA_10969
PILA_17679
PILA_05927
PILA_00835
PILA_00780
PILA_09695
PILA_05145
PILA_28945
PILA_09998
PILA_09999
PILA_37152
PILA_14001
PILA_36281
PILA_15845
PILA_23967
PILA_18441
PILA_18447
PILA_18193
PILA_15014
PILA_04955
PILA_27298
PILA_31278
PILA_35696
PILA_02533
PILA_25634
PILA_30589
PILA_38003
PILA_23105
PILA_36677
PILA_17093
PILA_36091
PILA_13346
PILA_21520
PILA_24227
PILA_07119
PILA_25179
PILA_10722
PILA_19864
PILA_19863
PILA_03822
PILA_00524
PILA_33556
PILA_22753
PILA_22758
PILA_30771
PILA_37468
PILA_34844
PILA_14428
PILA_16484
PILA_18933
PILA_34360
PILA_16159
PILA_19085
PILA_19087
PILA_11681
PILA_12486
PILA_12272
PILA_00161
PILA_26146
PILA_01419
PILA_01418
PILA_35244
PILA_06139
PILA_26769
PILA_09002
PILA_20080
PILA_21936
PILA_01351
PILA_16016
PILA_31613
PILA_17945
PILA_15091
PILA_07573
PILA_11529
PILA_01628
PILA_07803
PILA_27989
PILA_29110
PILA_38081
PILA_03080
PILA_31757
PILA_20982
PILA_14692
PILA_27405
PILA_27400
PILA_21760
PILA_21765
PILA_37943
PILA_36018
PILA_13479
PILA_19610
PILA_10357
PILA_14901
PILA_16224
PILA_22441
PILA_10104
PILA_04159
PILA_37003
PILA_37002
PILA_10819
PILA_10818
PILA_02844
PILA_06072
PILA_09454
PILA_33266
PILA_01874
PILA_32601
PILA_35378
PILA_38296
PILA_08264
PILA_36732
PILA_36737
PILA_36191
PILA_14711
PILA_34882
PILA_13151
PILA_12401
PILA_12406
PILA_33341
PILA_17481
PILA_25721
PILA_00250
PILA_11179
PILA_05999
PILA_03234
PILA_07263
PILA_12363
PILA_29526
PILA_29523
PILA_21060
PILA_33766
PILA_32414
PILA_02624
PILA_02627
PILA_02623
PILA_18664
PILA_25527
PILA_25529
PILA_38318
PILA_08548
PILA_34754
PILA_23031
PILA_34923
PILA_17253
PILA_07061
PILA_00595
PILA_04743
PILA_07800
PILA_02978
PILA_03006
PILA_03004
PILA_29887
PILA_09161
PILA_09168
PILA_12320
PILA_20276
PILA_28044
PILA_28046
PILA_32335
PILA_01096
PILA_14985
PILA_18573
PILA_17862
PILA_34060
