PILA_01475
PILA_36350
PILA_05899
PILA_07634
PILA_09368
PILA_03706
PILA_35486
PILA_25954
PILA_29923
PILA_27563
PILA_34186
PILA_14218
PILA_26013
PILA_03982
PILA_11631
PILA_30392
PILA_30381
PILA_28519
PILA_28511
PILA_08870
PILA_33392
PILA_21491
PILA_29392
PILA_24519
PILA_02094
PILA_19132
PILA_18849
PILA_12714
PILA_00499
PILA_05209
PILA_20107
PILA_17672
PILA_36253
PILA_33158
PILA_32206
PILA_27154
PILA_27975
PILA_22808
PILA_05824
PILA_26161
PILA_21592
PILA_08256
PILA_13121
PILA_07776
PILA_03939
PILA_36511
PILA_19489
PILA_19223
PILA_18514
PILA_17896
PILA_17078
PILA_00913
PILA_27615
PILA_27046
PILA_27558
PILA_13216
PILA_16333
PILA_16339
PILA_10278
PILA_06729
PILA_06724
PILA_20073
PILA_01966
PILA_01964
PILA_30194
PILA_14847
PILA_14844
PILA_12501
PILA_25696
PILA_01279
PILA_22738
PILA_34173
PILA_34824
PILA_15405
PILA_27712
PILA_27718
PILA_06399
PILA_33930
PILA_06609
PILA_33362
PILA_35016
PILA_24200
PILA_05870
PILA_12261
PILA_23490
PILA_05475
PILA_35263
PILA_06358
PILA_04262
PILA_33877
PILA_30063
PILA_30067
PILA_14107
PILA_20961
PILA_27463
PILA_16869
PILA_37025
PILA_02413
PILA_28149
PILA_35351
PILA_14735
PILA_34555
PILA_04600
PILA_04602
PILA_32438
PILA_35786
PILA_03559
PILA_23013
PILA_13030
PILA_16639
PILA_31959
PILA_21123
PILA_35667
PILA_36370
PILA_08116
PILA_08750
PILA_25936
PILA_29900
PILA_19548
PILA_25392
PILA_11940
PILA_05015
PILA_07696
PILA_31968
PILA_29475
PILA_16907
PILA_34879
PILA_07802
PILA_36233
PILA_20097
PILA_13529
PILA_18433
PILA_16009
PILA_36570
PILA_20446
PILA_22864
PILA_04867
PILA_02854
PILA_30895
PILA_38281
PILA_15453
PILA_30282
PILA_31639
PILA_32401
PILA_19200
PILA_01084
PILA_16833
PILA_35497
PILA_13235
PILA_15967
PILA_25224
PILA_26791
PILA_00748
PILA_03508
PILA_25265
PILA_23229
PILA_20280
PILA_11061
PILA_38042
PILA_00316
PILA_02889
PILA_31885
PILA_00129
PILA_28906
PILA_09958
PILA_25344
PILA_22520
PILA_09754
PILA_30540
PILA_02152
PILA_32856
PILA_00390
PILA_11898
PILA_26978
PILA_25445
PILA_25443
PILA_03476
PILA_16976
PILA_21029
PILA_35760
PILA_11995
PILA_05550
PILA_01662
PILA_01669
PILA_20236
PILA_14824
PILA_07679
PILA_17479
PILA_11134
PILA_22239
PILA_30948
PILA_07020
PILA_05076
PILA_27191
PILA_27196
PILA_28088
PILA_33605
PILA_02585
PILA_27290
PILA_02213
PILA_26296
PILA_23405
PILA_21808
PILA_14255
PILA_00794
PILA_09512
PILA_32724
PILA_28956
PILA_37124
PILA_21616
PILA_10037
PILA_02112
PILA_13456
PILA_06619
PILA_35689
PILA_02505
PILA_03363
PILA_15243
PILA_25360
PILA_12758
PILA_00458
PILA_16925
PILA_34859
PILA_14437
PILA_03287
PILA_20344
PILA_23992
PILA_13665
PILA_06348
PILA_09255
PILA_01633
PILA_37230
PILA_13166
PILA_05983
PILA_26085
PILA_26080
PILA_26869
PILA_37687
PILA_37689
PILA_16628
PILA_02942
PILA_01578
PILA_10784
PILA_10438
PILA_32909
PILA_27515
PILA_27457
PILA_07412
PILA_05124
PILA_14801
PILA_07331
PILA_08862
PILA_00649
PILA_22380
PILA_23164
PILA_34613
PILA_07271
PILA_02249
PILA_03116
PILA_32984
PILA_00727
PILA_36423
PILA_18424
PILA_11090
PILA_02551
PILA_02550
PILA_02559
PILA_30561
PILA_32875
PILA_27420
PILA_21588
PILA_01101
PILA_01100
PILA_25461
PILA_08240
PILA_15429
PILA_13287
PILA_25704
PILA_06963
PILA_33743
PILA_10021
PILA_02649
PILA_15384
PILA_15659
PILA_07040
PILA_07593
PILA_10873
PILA_16334
PILA_03768
PILA_37887
PILA_36133
PILA_15911
PILA_12380
PILA_35873
PILA_34453
PILA_16543
PILA_19294
PILA_15262
PILA_05051
PILA_33161
PILA_02100
PILA_32397
PILA_24535
PILA_27797
PILA_10770
PILA_33402
PILA_31072
PILA_31466
PILA_32224
PILA_34996
PILA_04909
PILA_14376
PILA_09761
PILA_21470
PILA_20463
PILA_19665
PILA_17528
PILA_27815
PILA_28788
PILA_32673
PILA_35901
PILA_01823
PILA_02732
PILA_11254
PILA_17489
PILA_35712
PILA_17972
PILA_11982
PILA_13604
PILA_30078
PILA_36049
PILA_28016
PILA_21473
PILA_29289
PILA_35000
PILA_22206
PILA_24522
PILA_06000
PILA_34059
PILA_11864
PILA_09486
PILA_12856
PILA_32108
PILA_30241
PILA_36167
PILA_13279
PILA_37717
PILA_19557
PILA_11958
PILA_30639
PILA_20456
PILA_13961
PILA_07111
PILA_26192
PILA_20692
PILA_09917
PILA_30362
PILA_17941
PILA_11086
PILA_19617
PILA_10812
PILA_04035
PILA_27392
PILA_02784
PILA_15446
PILA_13152
PILA_03238
PILA_24651
PILA_26872
PILA_13483
PILA_28220
