PILA_31561
PILA_34547
PILA_14053
PILA_29397
PILA_35409
PILA_05208
PILA_33560
PILA_24726
PILA_12254
PILA_06650
PILA_25127
PILA_27693
PILA_03240
PILA_21034
PILA_17134
PILA_16272
PILA_10865
PILA_26206
PILA_37274
PILA_27554
PILA_35117
PILA_18813
PILA_10748
PILA_29953
PILA_37139
PILA_36265
PILA_10048
PILA_27105
PILA_13485
PILA_19884
PILA_22676
PILA_04266
PILA_33870
PILA_35090
PILA_14734
PILA_19021
PILA_31326
PILA_35784
PILA_21125
PILA_15959
PILA_04680
PILA_21633
PILA_06095
PILA_04353
PILA_19328
PILA_16000
PILA_31749
PILA_33270
PILA_32400
PILA_30130
PILA_15644
PILA_11713
PILA_27578
PILA_22796
PILA_14201
PILA_17228
PILA_08104
PILA_18087
PILA_24718
PILA_06430
PILA_10515
PILA_34306
PILA_34300
PILA_04284
PILA_08882
PILA_35075
PILA_25136
PILA_05820
PILA_32374
PILA_19521
PILA_09784
PILA_23272
PILA_19170
PILA_07188
PILA_27525
PILA_38001
PILA_05867
PILA_01159
PILA_29412
PILA_36029
PILA_23347
PILA_29769
PILA_11143
PILA_06180
PILA_26089
PILA_25516
PILA_07075
PILA_27498
PILA_01571
PILA_11476
PILA_18893
PILA_30406
PILA_13047
PILA_23168
PILA_02242
PILA_27591
PILA_06214
PILA_33577
PILA_24736
PILA_38498
PILA_30175
PILA_16911
PILA_13752
PILA_14888
PILA_09475
PILA_26911
PILA_04445
PILA_11838
PILA_34830
PILA_21505
PILA_03765
PILA_33663
PILA_32396
PILA_00302
PILA_26893
PILA_33906
PILA_31464
PILA_28210
PILA_32847
PILA_01127
PILA_05840
PILA_09767
PILA_35001
PILA_32441
PILA_30170
PILA_00547
PILA_00096
PILA_31419
PILA_01048
PILA_23109
PILA_15258
PILA_03179
PILA_03821
PILA_37870
PILA_34842
PILA_16158
PILA_18682
PILA_37947
