EOG09360002
EOG0936001N
EOG0936001W
EOG09360025
EOG0936003Z
EOG0936004R
EOG0936008E
EOG0936008K
EOG093600CA
EOG093600CL
EOG093600FR
EOG093600G6
EOG093600H1
EOG093600OF
EOG093600P5
EOG093600PE
EOG093600QB
EOG093600SS
EOG093600SY
EOG093600T8
EOG093600U4
EOG093600U9
EOG093600W2
EOG093600WS
EOG093600ZL
EOG0936011P
EOG0936011V
EOG09360146
EOG09360199
EOG0936019N
EOG093601AL
EOG093601CE
EOG093601DT
EOG093601G4
EOG093601IV
EOG093601IY
EOG093601KY
EOG093601M6
EOG093601MF
EOG093601NK
EOG093601NU
EOG093601OK
EOG093601PV
EOG093601QL
EOG093601SL
EOG093601TR
EOG093601U2
EOG093601VD
EOG093601Y2
EOG09360205
EOG0936020C
EOG0936021K
EOG09360236
EOG0936023S
EOG0936024U
EOG09360259
EOG0936025H
EOG0936025L
EOG0936026P
EOG0936026Z
EOG0936028O
EOG093602A0
EOG093602EO
EOG093602F2
EOG093602I0
EOG093602IG
EOG093602KH
EOG093602KV
EOG093602LT
EOG093602MY
EOG093602OJ
EOG093602QH
EOG093602QV
EOG093602SP
EOG093602SW
EOG093602T8
EOG093602U5
EOG093602UL
EOG093602X4
EOG093602XV
EOG093602YD
EOG0936031Y
EOG0936033V
EOG09360353
EOG0936035H
EOG0936035T
EOG0936035U
EOG0936036H
EOG0936036V
EOG0936037T
EOG09360383
EOG0936038D
EOG0936038M
EOG0936038S
EOG093603DO
EOG093603EX
EOG093603GP
EOG093603HD
EOG093603IM
EOG093603J1
EOG093603J5
EOG093603JD
EOG093603KJ
EOG093603NH
EOG093603OL
EOG093603OV
EOG093603QQ
EOG093603QT
EOG093603RW
EOG093603SM
EOG093603SR
EOG093603SX
EOG093603TE
EOG093603UW
EOG093603W4
EOG093603WH
EOG093603WZ
EOG093603XJ
EOG093603XO
EOG093603YN
EOG093603Z1
EOG093603ZW
EOG0936042H
EOG0936042R
EOG09360439
EOG0936043P
EOG0936043U
EOG0936044V
EOG093604AJ
EOG093604B8
EOG093604C7
EOG093604D2
EOG093604F0
EOG093604FE
EOG093604FM
EOG093604HB
EOG093604HK
EOG093604HV
EOG093604IO
EOG093604JQ
EOG093604JS
EOG093604JV
EOG093604K0
EOG093604KN
EOG093604LD
EOG093604MP
EOG093604OT
EOG093604P1
EOG093604P6
EOG093604PU
EOG093604R6
EOG093604R7
EOG093604T4
EOG093604TP
EOG093604UF
EOG093604WH
EOG093604X5
EOG093604YC
EOG093604YO
EOG093604Z0
EOG093604ZI
EOG093604ZR
EOG0936052S
EOG09360541
EOG0936054G
EOG09360557
EOG0936055I
EOG0936055R
EOG0936056C
EOG0936056J
EOG0936057B
EOG09360595
EOG0936059L
EOG093605A0
EOG093605C3
EOG093605CQ
EOG093605DD
EOG093605DF
EOG093605E3
EOG093605E9
EOG093605FL
EOG093605GO
EOG093605I3
EOG093605IQ
EOG093605ME
EOG093605MS
EOG093605NL
EOG093605OJ
EOG093605OT
EOG093605PB
EOG093605PH
EOG093605PR
EOG093605QW
EOG093605R5
EOG093605RH
EOG093605RL
EOG093605SE
EOG093605TV
EOG093605UB
EOG093605VH
EOG093605XW
EOG093605Y2
EOG093605ZP
EOG09360604
EOG0936063C
EOG09360640
EOG0936065V
EOG0936066T
EOG09360676
EOG09360679
EOG0936067H
EOG0936068S
EOG0936069Q
EOG093606AC
EOG093606C9
EOG093606CH
EOG093606D1
EOG093606G1
EOG093606G2
EOG093606KR
EOG093606L8
EOG093606LZ
EOG093606N3
EOG093606NL
EOG093606O6
EOG093606OC
EOG093606RP
EOG093606S1
EOG093606SW
EOG093606T7
EOG093606UT
EOG093606VV
EOG093606ZH
EOG093606ZK
EOG0936070D
EOG0936070W
EOG0936071Y
EOG09360720
EOG09360725
EOG09360748
EOG0936075Y
EOG0936076T
EOG09360784
EOG0936079P
EOG093607BZ
EOG093607D0
EOG093607E0
EOG093607E9
EOG093607EE
EOG093607GQ
EOG093607HY
EOG093607I7
EOG093607J8
EOG093607LD
EOG093607OT
EOG093607OZ
EOG093607PL
EOG093607RL
EOG093607TG
EOG093607UA
EOG093607YB
EOG093607ZG
EOG093607ZP
EOG093607ZT
EOG0936082I
EOG0936082J
EOG0936082Y
EOG0936083D
EOG09360843
EOG0936084P
EOG0936084R
EOG0936085U
EOG0936086W
EOG09360877
EOG093608A7
EOG093608AS
EOG093608AU
EOG093608AX
EOG093608FN
EOG093608GA
EOG093608I9
EOG093608JW
EOG093608R5
EOG093608YK
EOG093608ZW
EOG09360916
EOG0936091G
EOG0936096A
EOG0936096C
EOG0936099K
EOG0936099O
EOG093609D4
EOG093609G8
EOG093609GK
EOG093609HF
EOG093609NZ
EOG093609PH
EOG093609PW
EOG093609R4
EOG093609UI
EOG093609UJ
EOG093609VP
EOG093609X6
EOG093609XY
EOG09360A0R
EOG09360A2C
EOG09360A5W
EOG09360A77
EOG09360A7W
EOG09360A7X
EOG09360A8J
EOG09360A9V
EOG09360AA1
EOG09360AAM
EOG09360AC9
EOG09360ADB
EOG09360ADD
EOG09360AEU
EOG09360AH1
EOG09360AJ0
EOG09360AKC
EOG09360ALA
EOG09360ALP
EOG09360ANA
EOG09360AQ0
EOG09360ARD
EOG09360ATC
EOG09360AWI
EOG09360AWY
EOG09360AX2
EOG09360AXR
EOG09360B27
EOG09360B3R
EOG09360B41
EOG09360B47
EOG09360B4L
EOG09360B4S
EOG09360BA6
EOG09360BDG
EOG09360BEL
EOG09360BEM
EOG09360BFF
EOG09360BG3
EOG09360BI5
EOG09360BIG
EOG09360BJO
EOG09360BN6
EOG09360BOH
EOG09360BPW
EOG09360BQM
EOG09360BR4
EOG09360BRK
EOG09360BRS
EOG09360BSY
EOG09360BVG
EOG09360BY2
EOG09360C0Z
EOG09360C61
EOG09360C6T
EOG09360C7N
EOG09360CDH
EOG09360CEB
EOG09360CFL
EOG09360CG1
EOG09360CG3
EOG09360CGS
EOG09360CH3
EOG09360CHA
EOG09360CNG
EOG09360CNL
EOG09360CTZ
EOG09360CVM
EOG09360CW3
EOG09360CWE
EOG09360CX9
EOG09360CYS
EOG09360D08
EOG09360D2X
EOG09360D36
EOG09360D41
EOG09360D4T
EOG09360D63
EOG09360D6K
EOG09360D7K
EOG09360D8B
EOG09360D8C
EOG09360DBC
EOG09360DCC
EOG09360DCI
EOG09360DD0
EOG09360DE6
EOG09360DJM
EOG09360DKW
EOG09360DMR
EOG09360DNG
EOG09360DP5
EOG09360DQK
EOG09360DR9
EOG09360DRR
EOG09360DV4
EOG09360DV8
EOG09360DV9
EOG09360DVB
EOG09360DX3
EOG09360DZZ
EOG09360E3A
EOG09360E5A
EOG09360E9S
EOG09360EE5
EOG09360EKU
EOG09360EL1
EOG09360ELM
EOG09360EMI
EOG09360EMJ
EOG09360EPY
EOG09360ETX
EOG09360EUN
EOG09360EV2
EOG09360EWV
EOG09360EX7
EOG09360F0Y
EOG09360F1B
EOG09360F40
EOG09360F53
EOG09360F71
EOG09360F8I
EOG09360FB7
EOG09360FCX
EOG09360FE1
EOG09360FJP
EOG09360FJQ
EOG09360FJY
EOG09360FKR
EOG09360FLC
EOG09360FM4
EOG09360FML
EOG09360FOF
EOG09360FQU
EOG09360FR1
EOG09360FU3
EOG09360FUV
EOG09360FVA
EOG09360FVB
EOG09360FVD
EOG09360FVP
EOG09360G0X
EOG09360G1W
EOG09360G5B
EOG09360G91
EOG09360GB9
EOG09360GC2
EOG09360GEM
EOG09360GFV
EOG09360GKN
EOG09360GMF
EOG09360GMQ
EOG09360GN9
EOG09360GOA
EOG09360GOP
EOG09360GQJ
EOG09360GQN
EOG09360GU0
EOG09360GU6
EOG09360GUO
EOG09360GXL
EOG09360GYO
EOG09360GZA
EOG09360GZB
EOG09360GZJ
EOG09360H49
EOG09360H4M
EOG09360H7R
EOG09360HAG
EOG09360HC5
EOG09360HCK
EOG09360HD9
EOG09360HE3
EOG09360HGT
EOG09360HI2
EOG09360HIJ
EOG09360HK0
EOG09360HKF
EOG09360HKW
EOG09360HMJ
EOG09360HN7
EOG09360HO3
EOG09360HPQ
EOG09360HQF
EOG09360HR1
EOG09360HR3
EOG09360HRI
EOG09360HSL
EOG09360HTY
EOG09360HUX
EOG09360HX1
EOG09360I13
EOG09360I4M
EOG09360I5A
EOG09360I5J
EOG09360I5Z
EOG09360IBU
EOG09360IEH
EOG09360IEI
EOG09360IHY
EOG09360IKP
EOG09360IML
EOG09360INV
EOG09360IPD
EOG09360IPS
EOG09360IPZ
EOG09360IQM
EOG09360IRW
EOG09360IS4
EOG09360ISB
EOG09360IT9
EOG09360IWC
EOG09360IZH
EOG09360J00
EOG09360J0A
EOG09360J11
EOG09360J1Z
EOG09360J3N
EOG09360J46
EOG09360J5A
EOG09360J79
EOG09360J7M
EOG09360J7T
EOG09360JHI
EOG09360JI8
EOG09360JL5
EOG09360JLQ
EOG09360JMJ
EOG09360JO0
EOG09360JO1
EOG09360JOE
EOG09360JSH
EOG09360JVX
EOG09360JWQ
EOG09360JWS
EOG09360JWT
EOG09360JWZ
EOG09360K0E
EOG09360K1H
EOG09360K1I
EOG09360K2H
EOG09360K2J
EOG09360K47
EOG09360K4S
EOG09360K5X
EOG09360K6Z
EOG09360K7R
EOG09360K8B
EOG09360K8L
EOG09360K9G
EOG09360KAB
EOG09360KBS
EOG09360KCW
EOG09360KFU
EOG09360KGN
EOG09360KJA
EOG09360KKY
EOG09360KLG
EOG09360KMC
EOG09360KOT
EOG09360KQ2
EOG09360KRQ
EOG09360KUC
EOG09360KV4
EOG09360KZ9
EOG09360L09
EOG09360L1R
EOG09360L3E
EOG09360L6S
EOG09360LA3
EOG09360LAA
EOG09360LDJ
EOG09360LF5
EOG09360LF7
EOG09360LFN
EOG09360LG2
EOG09360LG4
EOG09360LHZ
EOG09360LIN
EOG09360LJZ
EOG09360LL8
EOG09360LLC
EOG09360LO8
EOG09360LPQ
EOG09360LU3
EOG09360LUG
EOG09360LVI
EOG09360LYU
EOG09360M1L
EOG09360M2U
EOG09360M3L
EOG09360M5K
EOG09360MCN
EOG09360MCT
EOG09360MDX
EOG09360MF2
EOG09360MF6
EOG09360MKH
EOG09360MNW
EOG09360MO9
EOG09360MQ0
EOG09360MRP
EOG09360MUD
EOG09360MWT
EOG09360N12
EOG09360N4L
EOG09360N7D
EOG09360N7F
EOG09360NB8
EOG09360NBT
EOG09360NF5
EOG09360NGB
EOG09360NKM
EOG09360NKX
EOG09360NM4
EOG09360NN2
EOG09360NP8
EOG09360NQL
EOG09360NR1
EOG09360NSW
EOG09360NTO
EOG09360NTY
EOG09360O2N
EOG09360O4B
EOG09360OBH
EOG09360OBR
EOG09360OC8
EOG09360OGZ
EOG09360OHU
EOG09360ONA
EOG09360OQ1
EOG09360OS0
EOG09360OW8
EOG09360P3V
EOG09360P6I
EOG09360PA0
EOG09360PFL
EOG09360PKV
EOG09360PLN
EOG09360PQE
EOG09360Q2G
EOG09360QMO
EOG09360QNQ
EOG09360RFB
EOG09360RRZ
EOG09360S1W
EOG09360S90
EOG09360S9S
EOG09360SAC
EOG09360SCW
EOG09360SLX
EOG09360SN1
EOG09360SVQ
EOG09360TA9
EOG09360TEN
EOG09360TJO
EOG09360TMO
EOG09360TWW
EOG09360TXX
EOG09360U1R
EOG09360UCM
EOG09360UH0
EOG09360UKB
EOG09360UZA
EOG09360V3N
EOG09360VCN
EOG09360XE7
EOG09360ZQE
