All statistics are based on contigs of size >= 500 bp, unless otherwise noted (e.g., "# contigs (>= 0 bp)" and "Total length (>= 0 bp)" include all contigs).

Assembly                    sutie2.genome
# contigs (>= 0 bp)         5310         
# contigs (>= 1000 bp)      5310         
# contigs (>= 5000 bp)      5310         
# contigs (>= 10000 bp)     5310         
# contigs (>= 25000 bp)     5310         
# contigs (>= 50000 bp)     5216         
Total length (>= 0 bp)      10764188900  
Total length (>= 1000 bp)   10764188900  
Total length (>= 5000 bp)   10764188900  
Total length (>= 10000 bp)  10764188900  
Total length (>= 25000 bp)  10764188900  
Total length (>= 50000 bp)  10759983417  
# contigs                   5310         
Largest contig              69926807     
Total length                10764188900  
GC (%)                      36.02        
N50                         12673008     
N75                         5595242      
L50                         249          
L75                         559          
# N's per 100 kbp           0.00         
