# BUSCO version is: 3.0.2 
# The lineage dataset is: embryophyta_odb9 (Creation date: 2016-02-13, number of species: 30, number of BUSCOs: 1440)
# To reproduce this run: python /isg/shared/apps/busco/3.0.2b/scripts/run_BUSCO.py -i ./Pita.IU.TranscriptomeMainsV1_450bp.fasta -o Busco_PITA_illumina -l /isg/shared/databases/busco_lineages/embryophyta_odb9/ -m transcriptome -c 8
#
# Busco id	Status	Sequence	Score	Length
EOG09360002	Complete	5A_all_VO_L_2_T_371727_409051	5877.5	3904
EOG0936000A	Missing
EOG0936001N	Fragmented	2A_I2_VO_L_1_T_34456_104199	252.2	807
EOG0936001W	Complete	1A_all_VO_L_197894_T_12_12	1813.1	1726
EOG09360025	Complete	6A_I27_VO_L_47292_T_5_18	2547.4	1666
EOG0936003Z	Missing
EOG0936004R	Complete	2A_all_VO_L_9603_T_55_55	956.2	807
EOG0936004W	Missing
EOG0936008E	Duplicated	5A_I15_VO_L_40847_T_1_24	569.1	546
EOG0936008E	Duplicated	5A_all_VO_L_2_T_104178_409051	628.8	550
EOG0936008K	Complete	2A_I10_VO_L_2_T_40801_51732	2344.9	1144
EOG09360091	Missing
EOG0936009W	Missing
EOG093600CA	Complete	3A_I19_VO_L_1_T_177901_241978	2083.5	1097
EOG093600CH	Missing
EOG093600CL	Complete	2A_I4_VO_L_72091_T_18_20	2023.8	1417
EOG093600DF	Missing
EOG093600DJ	Missing
EOG093600DL	Missing
EOG093600EH	Missing
EOG093600FR	Complete	2A_I4_VO_L_1_T_38064_124638	1286.0	1019
EOG093600G6	Complete	6A_I23_VO_L_3605_T_8_14	1610.1	1607
EOG093600GM	Missing
EOG093600H1	Missing
EOG093600IQ	Complete	6A_I21_VO_L_1_T_204620_217332	1831.1	1117
EOG093600K5	Complete	2A_I4_VO_L_89863_T_4_9	1593.9	987
EOG093600LV	Missing
EOG093600N9	Complete	6A_I22_VO_L_699_T_71_221	1062.8	830
EOG093600NS	Complete	3A_I19_NT_comp52559_c0_seq2	1177.0	827
EOG093600O6	Missing
EOG093600OF	Complete	2A_all_VO_L_1_T_39897_181832	1247.4	897
EOG093600ON	Complete	5A_I13_NT_comp23083_c0_seq5	1207.5	750
EOG093600OU	Complete	6A_I23_VO_L_1_T_74138_165398	1336.4	942
EOG093600P5	Complete	5A_I16_VO_L_4_T_41420_214906	766.0	799
EOG093600PE	Duplicated	5A_all_VO_L_2_T_327748_409051	1412.3	1126
EOG093600PE	Duplicated	6A_I25_VO_L_5_T_72361_111482	1467.6	1125
EOG093600QB	Duplicated	2A_I4_VO_L_1_T_47267_124638	775.8	588
EOG093600QB	Duplicated	5A_I14_VO_L_1037_T_16_31	749.0	516
EOG093600R5	Missing
EOG093600SL	Missing
EOG093600SS	Fragmented	2A_all_VO_L_1136_T_58_75	1003.5	701
EOG093600SY	Complete	3A_I20_VO_L_2276_T_3_7	1431.0	928
EOG093600T6	Missing
EOG093600T8	Complete	5A_all_VO_L_6527_T_49_49	705.9	828
EOG093600TY	Missing
EOG093600TZ	Complete	2A_I15_NT_comp31940_c0_seq1	1386.7	864
EOG093600U4	Missing
EOG093600U9	Complete	6A_I25_VO_L_5_T_42371_111482	1474.1	1038
EOG093600UX	Missing
EOG093600W2	Complete	5A_I16_NT_comp45871_c0_seq4	1026.8	967
EOG093600WS	Duplicated	2A_all_VO_L_1_T_80786_181832	842.9	906
EOG093600WS	Duplicated	3A_all_VO_L_10561_T_35_38	784.6	883
EOG093600X9	Missing
EOG093600XL	Missing
EOG093600YH	Duplicated	1A_all_NT_comp112291_c0_seq12	1113.5	1229
EOG093600YH	Duplicated	3A_all_VO_L_4_T_8269_60622	1034.2	1138
EOG093600ZL	Missing
EOG0936011P	Duplicated	3A_all_VO_L_69481_T_5_9	889.6	704
EOG0936011P	Duplicated	6A_I23_NT_comp35788_c0_seq1	994.6	693
EOG0936011U	Complete	5A_all_NT_comp68201_c0_seq1	961.7	783
EOG0936011V	Complete	2A_all_VO_L_71_T_298_392	1402.0	891
EOG09360146	Complete	2A_all_VO_L_79946_T_4_8	1260.6	830
EOG09360155	Complete	5A_all_VO_L_128464_T_20_26	1049.3	648
EOG0936015N	Complete	2A_all_NT_comp99456_c0_seq3	1091.1	1792
EOG0936017C	Missing
EOG0936017K	Complete	1A_all_VO_L_105527_T_25_37	792.5	552
EOG09360199	Duplicated	1A_I5_VO_L_19718_T_2_5	1007.1	626
EOG09360199	Duplicated	2A_all_VO_L_83129_T_1_1	980.5	769
EOG0936019N	Duplicated	1A_all_VO_L_8538_T_9_83	1214.1	783
EOG0936019N	Duplicated	2A_I15_NT_comp42006_c0_seq57	1049.3	770
EOG0936019N	Duplicated	2A_all_VO_L_6019_T_146_300	1051.7	770
EOG0936019X	Missing
EOG093601AL	Complete	3A_I16_VO_L_87863_T_1_1	1668.7	921
EOG093601AN	Complete	2A_all_VO_L_14089_T_1_1	789.9	636
EOG093601CE	Complete	5A_all_VO_L_67695_T_12_46	1248.8	874
EOG093601CM	Missing
EOG093601CX	Complete	3A_all_NT_comp95692_c0_seq20	1081.6	855
EOG093601DT	Complete	1A_I11_VO_L_1_T_96098_226447	637.3	729
EOG093601FF	Complete	2A_I2_VO_L_2221_T_6_30	1627.9	789
EOG093601FH	Missing
EOG093601G4	Missing
EOG093601IB	Complete	1A_all_VO_L_14357_T_14_15	1045.3	803
EOG093601IL	Complete	1A_all_OT_comp113711_c0_seq28	1306.2	949
EOG093601IV	Duplicated	1A_I3_VO_L_1988_T_12_34	221.7	423
EOG093601IV	Duplicated	1A_all_VO_L_12990_T_26_39	225.0	379
EOG093601IY	Complete	2A_I2_VO_L_1_T_63092_104199	750.6	766
EOG093601KV	Missing
EOG093601KY	Missing
EOG093601LZ	Missing
EOG093601M6	Missing
EOG093601MF	Missing
EOG093601MT	Complete	2A_I10_VO_L_925_T_19_91	619.7	801
EOG093601NK	Missing
EOG093601NU	Complete	2A_all_VO_L_76026_T_5_33	1136.3	909
EOG093601OK	Missing
EOG093601PF	Missing
EOG093601PJ	Missing
EOG093601PV	Complete	5A_I15_OT_comp27356_c0_seq3	1383.2	949
EOG093601Q7	Missing
EOG093601QL	Complete	5A_all_VO_L_5291_T_8_15	257.3	507
EOG093601SL	Complete	5A_I16_NT_comp47267_c0_seq1	1300.6	1194
EOG093601SQ	Complete	1A_I11_VO_L_32358_T_13_18	1189.3	719
EOG093601T9	Complete	6A_I21_VO_L_1_T_58840_217332	884.0	592
EOG093601TO	Missing
EOG093601TR	Duplicated	1A_all_VO_L_2_T_32806_51331	918.4	903
EOG093601TR	Duplicated	2A_all_VO_L_1_T_33537_181832	830.1	854
EOG093601U2	Complete	5A_all_VO_L_2_T_94779_409051	699.3	741
EOG093601UA	Complete	2A_all_VO_L_11577_T_5_10	979.5	674
EOG093601UC	Missing
EOG093601V0	Missing
EOG093601VD	Duplicated	2A_I13_VO_L_1_T_34249_181601	1099.5	960
EOG093601VD	Duplicated	2A_all_VO_L_1_T_13758_181832	950.9	894
EOG093601WC	Missing
EOG093601XR	Complete	3A_I19_VO_L_1_T_118203_241978	698.6	502
EOG093601Y2	Complete	2A_I4_VO_L_1434_T_5_9	1242.1	842
EOG093601Y6	Missing
EOG09360205	Duplicated	1A_all_VO_L_2_T_47737_51331	847.8	803
EOG09360205	Duplicated	3A_all_VO_L_1003_T_152_572	876.2	794
EOG09360205	Duplicated	3A_all_VO_L_1003_T_197_572	868.2	732
EOG0936020C	Complete	3A_all_VO_L_9232_T_32_39	800.8	655
EOG0936020T	Complete	5A_all_VO_L_68297_T_13_25	1557.3	800
EOG0936021K	Duplicated	3A_all_VO_L_10286_T_6_117	861.9	790
EOG0936021K	Duplicated	3A_all_VO_L_8794_T_103_104	890.7	864
EOG09360236	Complete	3A_I19_NT_comp52149_c0_seq8	754.6	636
EOG0936023S	Complete	3A_all_VO_L_8119_T_22_32	1193.1	881
EOG0936024P	Complete	5A_all_VO_L_69016_T_5_9	1167.9	729
EOG0936024U	Missing
EOG09360254	Missing
EOG09360259	Complete	3A_all_VO_L_4_T_25721_60622	949.7	779
EOG0936025H	Complete	5A_all_VO_L_9622_T_22_24	895.4	708
EOG0936025L	Complete	1A_I3_NT_comp46513_c0_seq2	1066.0	727
EOG0936026P	Complete	2A_all_VO_L_1_T_35368_181832	723.8	856
EOG0936026R	Missing
EOG0936026Z	Complete	3A_all_VO_L_12401_T_11_14	829.1	644
EOG0936027I	Missing
EOG0936028K	Complete	1A_all_VO_L_1422_T_89_260	855.9	667
EOG0936028O	Missing
EOG0936028V	Complete	5A_all_VO_L_5159_T_18_21	656.9	697
EOG09360296	Complete	3A_I18_VO_L_2_T_30418_136250	1572.2	817
EOG093602A0	Missing
EOG093602C3	Missing
EOG093602CL	Missing
EOG093602E8	Complete	5A_I7_NT_comp31504_c0_seq2	1214.1	674
EOG093602EO	Complete	6A_I21_VO_L_1_T_118162_217332	1347.4	743
EOG093602EU	Missing
EOG093602F2	Complete	1A_I11_OT_comp47305_c0_seq1	966.8	545
EOG093602FO	Complete	2A_all_VO_L_1_T_36995_181832	761.2	852
EOG093602GP	Complete	1A_I3_VO_L_32419_T_1_13	1132.8	600
EOG093602H1	Complete	1A_all_VO_L_43151_T_14_15	1303.1	658
EOG093602HL	Missing
EOG093602I0	Missing
EOG093602IG	Complete	6A_I20_VO_L_57818_T_4_5	1187.7	881
EOG093602K0	Complete	6A_all_VO_L_7946_T_11_19	894.4	652
EOG093602KH	Missing
EOG093602KV	Complete	6A_I21_VO_L_1_T_115166_217332	816.0	611
EOG093602LT	Complete	1A_all_VO_L_13462_T_42_48	168.9	727
EOG093602MY	Complete	1A_I11_VO_L_2459_T_10_14	1154.3	644
EOG093602N6	Missing
EOG093602O1	Missing
EOG093602OJ	Missing
EOG093602PW	Missing
EOG093602QH	Duplicated	1A_I3_VO_L_2964_T_70_92	909.5	604
EOG093602QH	Duplicated	5A_all_VO_L_8253_T_41_50	934.1	604
EOG093602QH	Duplicated	6A_all_VO_L_14650_T_17_51	917.9	624
EOG093602QV	Complete	5A_all_VO_L_2_T_22821_409051	1289.5	691
EOG093602RY	Missing
EOG093602S0	Missing
EOG093602SP	Fragmented	6A_all_VO_L_4161_T_48_122	157.4	270
EOG093602SW	Complete	2A_all_VO_L_1096_T_59_81	716.3	739
EOG093602T8	Complete	2A_all_VO_L_1_T_33581_181832	962.2	931
EOG093602TY	Complete	1A_I9_VO_L_1_T_70932_116761	890.9	648
EOG093602U5	Duplicated	3A_all_NT_comp93346_c0_seq3	787.1	663
EOG093602U5	Duplicated	3A_all_VO_L_8190_T_14_18	773.5	663
EOG093602U5	Duplicated	3A_all_VO_L_8190_T_15_18	781.8	663
EOG093602UL	Missing
EOG093602V4	Duplicated	1A_I5_VO_L_1474_T_244_268	1012.5	732
EOG093602V4	Duplicated	2A_I2_VO_L_1_T_85037_104199	1014.2	731
EOG093602V4	Duplicated	6A_I25_NT_comp35991_c0_seq5	1012.3	732
EOG093602VC	Missing
EOG093602VE	Missing
EOG093602VI	Missing
EOG093602WA	Missing
EOG093602X4	Complete	6A_all_NT_comp98463_c0_seq5	448.4	598
EOG093602XV	Complete	1A_all_NT_comp89284_c0_seq1	740.8	632
EOG093602XZ	Duplicated	1A_I5_VO_L_3191_T_20_48	749.8	623
EOG093602XZ	Duplicated	3A_I16_VO_L_185_T_153_290	747.2	624
EOG093602XZ	Duplicated	3A_I18_VO_L_2360_T_15_36	734.6	648
EOG093602Y5	Complete	5A_I13_OT_comp17036_c0_seq1	1002.0	626
EOG093602Y9	Missing
EOG093602YD	Complete	6A_I27_VO_L_2195_T_172_257	940.6	612
EOG093602Z8	Missing
EOG093602ZN	Missing
EOG09360300	Missing
EOG09360317	Missing
EOG0936031D	Missing
EOG0936031Y	Duplicated	2A_all_NT_comp115410_c0_seq8	884.6	809
EOG0936031Y	Duplicated	5A_I16_NT_comp45946_c0_seq4	884.1	813
EOG0936031Y	Duplicated	5A_I16_VO_L_4_T_181653_214906	863.3	809
EOG0936032C	Missing
EOG0936032P	Complete	6A_all_VO_L_8496_T_31_42	946.6	1066
EOG0936033H	Complete	6A_all_VO_L_8496_T_31_42	793.4	739
EOG0936033V	Complete	3A_all_VO_L_7377_T_14_27	995.2	667
EOG09360353	Complete	3A_all_VO_L_70513_T_5_16	905.2	781
EOG09360358	Complete	6A_I27_VO_L_129400_T_3_9	924.9	597
EOG0936035H	Missing
EOG0936035T	Missing
EOG0936035U	Duplicated	5A_I13_VO_L_1185_T_9_16	719.2	544
EOG0936035U	Duplicated	5A_I14_VO_L_128_T_157_209	738.1	511
EOG0936035U	Duplicated	6A_I20_VO_L_1_T_15710_133533	737.3	513
EOG0936036G	Missing
EOG0936036H	Complete	3A_I19_NT_comp52952_c0_seq4	1159.2	1042
EOG0936036V	Missing
EOG0936037E	Missing
EOG0936037T	Complete	6A_all_VO_L_47756_T_14_15	682.0	825
EOG0936037Y	Missing
EOG09360383	Missing
EOG0936038D	Complete	5A_I16_VO_L_197_T_71_169	1408.8	692
EOG0936038M	Complete	6A_I22_VO_L_23_T_25_66	677.7	606
EOG0936038S	Complete	5A_all_VO_L_38510_T_37_48	847.3	620
EOG0936038Z	Missing
EOG09360391	Missing
EOG09360394	Missing
EOG093603DJ	Complete	3A_all_VO_L_1642_T_138_339	921.2	572
EOG093603DO	Complete	2A_all_VO_L_1_T_113939_181832	910.7	774
EOG093603EX	Missing
EOG093603F5	Missing
EOG093603FC	Complete	2A_all_VO_L_5409_T_70_75	1022.1	656
EOG093603FG	Missing
EOG093603FS	Complete	6A_all_VO_L_7394_T_20_35	649.3	633
EOG093603GP	Missing
EOG093603H7	Missing
EOG093603HD	Missing
EOG093603I2	Duplicated	2A_all_VO_L_1_T_107074_181832	357.6	726
EOG093603I2	Duplicated	2A_all_VO_L_1_T_107078_181832	348.6	746
EOG093603IB	Missing
EOG093603IM	Duplicated	2A_all_VO_L_1_T_96894_181832	570.9	677
EOG093603IM	Duplicated	3A_all_VO_L_4_T_17393_60622	602.4	679
EOG093603J1	Missing
EOG093603J5	Missing
EOG093603JD	Duplicated	1A_I3_VO_L_1645_T_49_75	613.6	639
EOG093603JD	Duplicated	3A_I16_VO_L_2_T_58022_60890	615.7	639
EOG093603JD	Duplicated	5A_all_VO_L_2_T_125611_409051	615.2	641
EOG093603K3	Missing
EOG093603K7	Missing
EOG093603K9	Complete	1A_all_NT_comp96999_c0_seq1	950.9	769
EOG093603KJ	Missing
EOG093603LQ	Missing
EOG093603M5	Missing
EOG093603MT	Missing
EOG093603NH	Missing
EOG093603OJ	Missing
EOG093603OL	Missing
EOG093603OR	Missing
EOG093603OV	Duplicated	2A_I27_VO_L_1_T_1716_20372	733.0	628
EOG093603OV	Duplicated	2A_I2_VO_L_2294_T_4_19	683.7	632
EOG093603PK	Complete	3A_I19_VO_L_1_T_113514_241978	83.7	253
EOG093603PO	Missing
EOG093603PW	Missing
EOG093603QH	Missing
EOG093603QQ	Complete	1A_I9_VO_L_2862_T_11_11	1027.9	605
EOG093603QT	Duplicated	2A_all_VO_L_1_T_99528_181832	821.2	654
EOG093603QT	Duplicated	2A_all_VO_L_8464_T_19_35	754.3	695
EOG093603RD	Missing
EOG093603RW	Complete	5A_I14_VO_L_47270_T_1_4	887.5	720
EOG093603SM	Missing
EOG093603SR	Complete	2A_I13_VO_L_1368_T_16_23	865.4	487
EOG093603SX	Missing
EOG093603T3	Missing
EOG093603TE	Complete	6A_I20_VO_L_806_T_75_191	963.9	870
EOG093603UO	Missing
EOG093603UU	Missing
EOG093603UW	Complete	1A_all_VO_L_16097_T_5_12	332.1	696
EOG093603VH	Complete	2A_all_VO_L_87_T_106_127	353.1	808
EOG093603VX	Missing
EOG093603VZ	Missing
EOG093603W4	Fragmented	1A_I11_VO_L_1_T_57692_226447	477.9	296
EOG093603W7	Missing
EOG093603WH	Complete	1A_all_VO_L_11096_T_13_15	743.9	746
EOG093603WZ	Complete	2A_I4_VO_L_1_T_85146_124638	905.2	498
EOG093603XJ	Missing
EOG093603XO	Duplicated	1A_all_NT_comp109998_c0_seq3	473.5	527
EOG093603XO	Duplicated	1A_all_NT_comp109998_c0_seq4	483.0	524
EOG093603XO	Duplicated	1A_all_VO_L_13001_T_9_16	458.6	527
EOG093603YN	Complete	5A_I7_VO_L_1209_T_14_49	793.9	671
EOG093603Z1	Missing
EOG093603ZW	Missing
EOG0936040G	Missing
EOG0936041E	Missing
EOG0936041M	Duplicated	1A_all_NT_comp103203_c0_seq1	342.1	405
EOG0936041M	Duplicated	5A_I16_NT_comp40759_c0_seq1	372.3	544
EOG0936041Q	Complete	6A_I27_VO_L_1_T_27961_52656	840.5	763
EOG0936041Y	Complete	3A_all_VO_L_68899_T_24_26	1186.8	588
EOG09360424	Missing
EOG0936042H	Missing
EOG0936042R	Missing
EOG09360439	Complete	3A_I20_VO_L_3784_T_2_3	888.1	561
EOG0936043P	Missing
EOG0936043U	Complete	6A_all_VO_L_989_T_162_437	1139.7	528
EOG0936044V	Complete	2A_all_VO_L_29543_T_34_59	902.5	816
EOG0936045K	Missing
EOG0936046G	Missing
EOG0936047E	Complete	6A_I22_OT_comp11866_c0_seq1	732.3	522
EOG0936048K	Complete	2A_I2_NT_comp27977_c0_seq5	851.5	520
EOG09360490	Missing
EOG0936049L	Missing
EOG093604AJ	Missing
EOG093604B8	Complete	5A_I16_VO_L_4_T_103314_214906	847.8	455
EOG093604BC	Complete	3A_I16_VO_L_903_T_13_16	1124.8	545
EOG093604C7	Complete	6A_I21_VO_L_1_T_174912_217332	750.7	532
EOG093604CE	Missing
EOG093604D2	Missing
EOG093604D4	Complete	5A_I7_VO_L_552_T_24_110	1026.5	536
EOG093604D9	Complete	1A_I11_VO_L_62256_T_8_14	1090.3	625
EOG093604DG	Complete	2A_all_VO_L_7287_T_239_399	643.8	563
EOG093604DM	Complete	2A_all_VO_L_136_T_25_167	399.1	551
EOG093604F0	Complete	1A_I3_VO_L_1_T_89783_136734	768.6	492
EOG093604F6	Complete	2A_I4_VO_L_1_T_122570_124638	729.5	529
EOG093604FE	Missing
EOG093604FM	Complete	2A_I10_NT_comp26726_c0_seq1	495.0	594
EOG093604HB	Complete	1A_I9_NT_comp37481_c0_seq3	1048.7	617
EOG093604HD	Complete	5A_all_VO_L_2_T_202385_409051	808.0	933
EOG093604HI	Missing
EOG093604HK	Duplicated	2A_all_VO_L_1_T_96934_181832	669.5	736
EOG093604HK	Duplicated	2A_all_VO_L_76607_T_1_6	653.3	516
EOG093604HV	Complete	3A_all_VO_L_3509_T_329_540	806.4	828
EOG093604IO	Missing
EOG093604JQ	Duplicated	3A_all_VO_L_4_T_58475_60622	981.8	861
EOG093604JQ	Duplicated	5A_all_VO_L_2_T_207607_409051	1043.3	942
EOG093604JS	Complete	3A_I18_OT_comp31738_c0_seq1	1065.3	574
EOG093604JV	Missing
EOG093604K0	Missing
EOG093604KN	Complete	2A_I2_NT_comp7811_c0_seq1	486.5	295
EOG093604LD	Missing
EOG093604LM	Complete	2A_all_VO_L_1040_T_5_11	945.5	721
EOG093604MP	Duplicated	1A_I9_VO_L_1_T_18477_116761	196.1	414
EOG093604MP	Duplicated	1A_all_VO_L_12576_T_54_77	194.5	407
EOG093604MP	Duplicated	6A_I22_VO_L_1_T_30545_44538	188.2	391
EOG093604MW	Complete	1A_all_VO_L_197578_T_2_5	942.9	504
EOG093604MY	Missing
EOG093604NO	Missing
EOG093604OT	Missing
EOG093604P1	Complete	6A_I20_NT_comp34685_c0_seq1	754.9	521
EOG093604P6	Complete	2A_I2_VO_L_855_T_18_26	911.3	528
EOG093604PT	Complete	5A_I15_VO_L_46783_T_3_7	689.5	490
EOG093604PU	Complete	3A_I18_VO_L_24821_T_2_19	856.8	407
EOG093604QJ	Complete	6A_I20_VO_L_591_T_96_191	972.7	599
EOG093604R2	Complete	5A_I16_VO_L_4_T_126098_214906	1127.5	742
EOG093604R6	Duplicated	2A_I13_VO_L_1_T_51008_181601	618.7	722
EOG093604R6	Duplicated	2A_all_VO_L_16889_T_68_120	634.0	650
EOG093604R7	Missing
EOG093604RL	Missing
EOG093604SP	Complete	2A_all_VO_L_1_T_62228_181832	207.2	451
EOG093604T4	Complete	2A_I2_VO_L_1431_T_31_84	981.4	514
EOG093604TP	Missing
EOG093604TS	Missing
EOG093604U7	Complete	5A_I12_VO_L_562_T_10_12	662.9	496
EOG093604UF	Missing
EOG093604V6	Missing
EOG093604VR	Missing
EOG093604W6	Missing
EOG093604WD	Fragmented	2A_I15_VO_L_1_T_6350_133144	738.2	443
EOG093604WH	Duplicated	2A_all_VO_L_1_T_173481_181832	835.8	757
EOG093604WH	Duplicated	2A_all_VO_L_1_T_48736_181832	982.1	886
EOG093604WU	Complete	6A_all_NT_comp90729_c0_seq1	343.9	355
EOG093604X5	Complete	1A_I9_VO_L_1_T_90652_116761	317.2	414
EOG093604XX	Complete	6A_I20_VO_L_1_T_93817_133533	467.9	336
EOG093604Y6	Missing
EOG093604YC	Complete	3A_I20_VO_L_30668_T_3_6	756.2	483
EOG093604YI	Complete	2A_I15_VO_L_3743_T_1_2	704.6	525
EOG093604YO	Complete	1A_I5_VO_L_1_T_8020_64687	835.8	526
EOG093604Z0	Missing
EOG093604ZI	Complete	5A_all_VO_L_101474_T_18_19	561.5	599
EOG093604ZR	Complete	1A_I8_VO_L_317_T_30_50	697.5	619
EOG0936051T	Complete	1A_I11_VO_L_1_T_99937_226447	610.1	354
EOG09360525	Complete	2A_all_VO_L_964_T_47_67	1041.8	491
EOG0936052S	Complete	6A_all_VO_L_14170_T_2_9	228.7	495
EOG0936053E	Missing
EOG0936053F	Complete	3A_I16_NT_comp16939_c0_seq1	853.3	544
EOG09360541	Complete	5A_all_VO_L_69704_T_12_18	634.0	613
EOG09360548	Complete	2A_I10_VO_L_2_T_13643_51732	511.2	323
EOG0936054G	Missing
EOG09360557	Complete	2A_I15_VO_L_2611_T_10_12	1004.1	533
EOG09360558	Complete	2A_I4_VO_L_1_T_113157_124638	125.0	456
EOG0936055I	Complete	2A_I27_VO_L_42077_T_12_17	712.1	626
EOG0936055R	Missing
EOG0936056C	Complete	2A_all_VO_L_1_T_101176_181832	799.5	440
EOG0936056J	Complete	5A_I16_VO_L_4_T_197564_214906	623.3	661
EOG0936057B	Complete	6A_all_VO_L_17302_T_18_24	290.2	362
EOG09360595	Missing
EOG0936059C	Missing
EOG0936059L	Complete	6A_I20_VO_L_3678_T_2_2	749.2	518
EOG093605A0	Duplicated	1A_I3_VO_L_1696_T_11_30	538.3	627
EOG093605A0	Duplicated	2A_all_VO_L_76607_T_1_6	572.2	636
EOG093605AK	Complete	2A_all_VO_L_8513_T_10_23	1044.1	573
EOG093605BP	Missing
EOG093605BU	Missing
EOG093605C3	Duplicated	1A_all_VO_L_46333_T_14_24	1016.5	747
EOG093605C3	Duplicated	3A_all_VO_L_1003_T_121_572	869.2	798
EOG093605C3	Duplicated	5A_all_VO_L_10390_T_49_55	912.2	615
EOG093605CQ	Missing
EOG093605DD	Complete	2A_all_NT_comp107950_c0_seq3	604.7	401
EOG093605DE	Missing
EOG093605DF	Complete	6A_I23_VO_L_1_T_98348_165398	457.1	649
EOG093605DG	Missing
EOG093605E3	Complete	2A_all_VO_L_1_T_32961_181832	706.1	616
EOG093605E8	Fragmented	6A_I21_VO_L_1_T_54444_217332	583.0	309
EOG093605E9	Missing
EOG093605FL	Missing
EOG093605GO	Missing
EOG093605I3	Duplicated	2A_all_VO_L_1_T_35368_181832	1008.1	1001
EOG093605I3	Duplicated	2A_all_VO_L_1_T_39693_181832	923.9	837
EOG093605IQ	Missing
EOG093605IT	Complete	2A_all_NT_comp107646_c0_seq1	872.1	928
EOG093605J6	Fragmented	2A_I4_VO_L_849_T_16_56	824.1	443
EOG093605K4	Complete	1A_all_VO_L_78369_T_1_1	358.7	429
EOG093605M5	Missing
EOG093605ME	Missing
EOG093605MM	Missing
EOG093605MS	Missing
EOG093605MY	Missing
EOG093605NL	Complete	3A_I19_NT_comp51859_c0_seq3	568.1	395
EOG093605OJ	Complete	2A_all_VO_L_14553_T_1_7	536.2	544
EOG093605OT	Complete	1A_I9_VO_L_1_T_14638_116761	820.0	491
EOG093605PB	Missing
EOG093605PH	Complete	6A_I25_VO_L_5_T_76534_111482	428.3	431
EOG093605PR	Complete	1A_I11_VO_L_1_T_152526_226447	344.4	528
EOG093605PS	Complete	5A_I15_NT_comp29513_c0_seq5	891.3	490
EOG093605QW	Complete	6A_all_VO_L_52990_T_4_18	777.0	437
EOG093605R5	Complete	5A_all_VO_L_10390_T_49_55	673.3	583
EOG093605RH	Duplicated	2A_I15_VO_L_1_T_97217_133144	605.4	591
EOG093605RH	Duplicated	2A_all_VO_L_1_T_154158_181832	635.6	562
EOG093605RL	Complete	6A_I25_VO_L_501_T_10_57	704.3	351
EOG093605SE	Complete	6A_I25_NT_comp33606_c0_seq3	101.0	353
EOG093605T0	Complete	3A_I20_VO_L_1765_T_3_13	758.0	506
EOG093605TB	Complete	3A_all_VO_L_95852_T_13_15	539.8	496
EOG093605TG	Complete	3A_I20_VO_L_1_T_45474_85822	872.5	468
EOG093605TN	Missing
EOG093605TV	Duplicated	3A_I20_VO_L_871_T_172_341	483.5	410
EOG093605TV	Duplicated	6A_I23_VO_L_34959_T_11_13	498.1	410
EOG093605UA	Missing
EOG093605UB	Complete	2A_I2_VO_L_3129_T_6_11	394.8	418
EOG093605UZ	Missing
EOG093605VA	Missing
EOG093605VH	Complete	5A_I16_VO_L_56849_T_20_22	978.9	581
EOG093605XN	Complete	3A_all_VO_L_8722_T_18_44	930.3	483
EOG093605XW	Complete	2A_I27_VO_L_1927_T_18_19	598.3	492
EOG093605Y2	Complete	3A_I20_NT_comp28513_c0_seq2	582.0	519
EOG093605YJ	Complete	5A_I12_VO_L_2099_T_3_6	886.3	557
EOG093605YX	Missing
EOG093605ZP	Complete	6A_I25_NT_comp34964_c0_seq10	929.6	470
EOG09360604	Missing
EOG09360607	Missing
EOG0936060Z	Missing
EOG0936061C	Missing
EOG0936063C	Complete	5A_I7_VO_L_1_T_29723_95833	666.6	606
EOG09360640	Complete	6A_I27_VO_L_1_T_42622_52656	887.1	505
EOG0936064Q	Missing
EOG0936065V	Complete	2A_I4_VO_L_2431_T_14_34	459.6	431
EOG0936066R	Complete	2A_I10_NT_comp26659_c0_seq1	835.9	503
EOG0936066T	Complete	2A_I15_VO_L_1_T_121489_133144	1006.8	594
EOG0936066Y	Complete	3A_all_VO_L_3258_T_5_17	1016.4	481
EOG09360676	Complete	3A_I16_VO_L_2_T_45950_60890	822.4	470
EOG09360677	Missing
EOG09360679	Missing
EOG0936067H	Missing
EOG0936068L	Complete	1A_I11_VO_L_1_T_105277_226447	917.9	469
EOG0936068S	Duplicated	1A_I11_VO_L_1_T_121088_226447	201.6	329
EOG0936068S	Duplicated	2A_all_VO_L_13512_T_55_57	199.4	344
EOG0936068S	Duplicated	5A_all_NT_comp96422_c0_seq7	210.7	349
EOG0936069Q	Duplicated	2A_all_VO_L_4280_T_34_127	525.7	428
EOG0936069Q	Duplicated	2A_all_VO_L_4280_T_35_127	519.1	429
EOG0936069S	Missing
EOG0936069X	Missing
EOG093606A7	Missing
EOG093606AC	Missing
EOG093606C9	Complete	1A_all_VO_L_4312_T_32_156	859.2	686
EOG093606CH	Duplicated	1A_I9_VO_L_1_T_106224_116761	748.1	427
EOG093606CH	Duplicated	5A_I7_VO_L_67_T_17_60	750.0	427
EOG093606CI	Missing
EOG093606CK	Complete	6A_I21_OT_comp37991_c0_seq4	390.5	434
EOG093606D1	Complete	1A_I3_VO_L_59635_T_16_16	1029.1	659
EOG093606G1	Complete	6A_I20_VO_L_1327_T_40_57	808.6	424
EOG093606G2	Complete	1A_I3_VO_L_4085_T_11_15	678.0	480
EOG093606GA	Missing
EOG093606K5	Missing
EOG093606KG	Complete	5A_I16_VO_L_44971_T_2_2	494.5	381
EOG093606KR	Complete	2A_all_VO_L_1_T_99498_181832	1276.3	1396
EOG093606L0	Missing
EOG093606L8	Complete	1A_all_NT_comp78811_c0_seq2	364.8	451
EOG093606LZ	Complete	5A_I16_VO_L_6339_T_2_7	752.0	534
EOG093606MV	Complete	2A_I13_NT_comp8900_c0_seq1	558.2	399
EOG093606MY	Complete	2A_I4_NT_comp40094_c0_seq5	1002.4	614
EOG093606N3	Duplicated	1A_I5_VO_L_1_T_52567_64687	553.7	400
EOG093606N3	Duplicated	5A_all_NT_comp93637_c0_seq1	569.2	392
EOG093606NA	Complete	6A_I22_VO_L_3377_T_7_11	823.4	448
EOG093606ND	Complete	5A_all_OT_comp75607_c0_seq1	400.9	351
EOG093606NL	Duplicated	2A_all_VO_L_13119_T_32_33	717.3	636
EOG093606NL	Duplicated	2A_all_VO_L_1_T_171343_181832	662.1	590
EOG093606O6	Missing
EOG093606O8	Missing
EOG093606O9	Complete	2A_I4_VO_L_1_T_25795_124638	874.5	471
EOG093606OC	Missing
EOG093606Q8	Complete	2A_I13_VO_L_4754_T_1_6	652.6	412
EOG093606QR	Missing
EOG093606RM	Complete	2A_I13_VO_L_199_T_59_252	894.5	468
EOG093606RP	Complete	1A_all_NT_comp101223_c0_seq1	336.4	196
EOG093606S1	Complete	2A_I2_VO_L_3084_T_2_2	787.6	509
EOG093606ST	Complete	1A_I11_OT_comp42778_c0_seq1	708.8	473
EOG093606SW	Missing
EOG093606T7	Missing
EOG093606UJ	Missing
EOG093606UT	Complete	1A_I11_VO_L_15574_T_40_49	671.9	413
EOG093606VV	Missing
EOG093606VY	Missing
EOG093606W4	Missing
EOG093606YS	Missing
EOG093606ZH	Complete	2A_I13_NT_comp31760_c0_seq1	567.2	399
EOG093606ZK	Complete	2A_all_VO_L_55948_T_9_15	661.0	620
EOG0936070D	Complete	1A_all_NT_comp85969_c0_seq1	783.6	465
EOG0936070W	Duplicated	2A_I2_VO_L_1148_T_22_34	746.8	473
EOG0936070W	Duplicated	5A_I16_VO_L_4_T_65259_214906	783.9	488
EOG0936070W	Duplicated	5A_I16_VO_L_4_T_65287_214906	749.6	473
EOG0936071Y	Complete	5A_all_NT_comp52824_c0_seq1	792.6	453
EOG09360720	Complete	5A_all_VO_L_68201_T_5_37	861.5	436
EOG09360725	Complete	1A_I11_VO_L_3394_T_2_4	447.1	482
EOG0936072X	Complete	2A_I4_VO_L_56472_T_2_9	712.5	385
EOG0936072Y	Missing
EOG0936073E	Missing
EOG09360748	Complete	6A_I20_OT_comp27079_c0_seq2	563.0	365
EOG0936075Y	Complete	3A_I18_VO_L_85170_T_1_2	732.1	419
EOG0936076E	Fragmented	1A_all_OT_comp110683_c0_seq16	614.3	392
EOG0936076T	Missing
EOG0936077B	Complete	1A_I5_VO_L_3897_T_17_32	451.1	378
EOG0936077I	Complete	5A_all_VO_L_2_T_126390_409051	621.7	435
EOG09360784	Missing
EOG0936079H	Missing
EOG0936079P	Complete	3A_I18_VO_L_102_T_22_388	345.2	490
EOG093607BZ	Missing
EOG093607D0	Missing
EOG093607E0	Missing
EOG093607E9	Complete	2A_all_VO_L_1614_T_32_60	699.4	433
EOG093607EA	Missing
EOG093607EB	Complete	3A_I16_VO_L_515_T_83_87	917.3	443
EOG093607EE	Complete	5A_all_NT_comp89638_c0_seq3	510.6	466
EOG093607FC	Missing
EOG093607FH	Missing
EOG093607FL	Missing
EOG093607GQ	Complete	5A_all_VO_L_2867_T_8_12	784.6	573
EOG093607HU	Missing
EOG093607HY	Complete	1A_I8_VO_L_1206_T_45_77	262.9	449
EOG093607I5	Missing
EOG093607I7	Complete	6A_I22_VO_L_419_T_4_10	803.1	465
EOG093607J8	Missing
EOG093607KK	Missing
EOG093607LD	Missing
EOG093607NG	Missing
EOG093607NQ	Complete	6A_I21_VO_L_3113_T_14_15	388.2	552
EOG093607OL	Missing
EOG093607OO	Missing
EOG093607OT	Duplicated	2A_all_VO_L_1_T_163856_181832	620.4	599
EOG093607OT	Duplicated	2A_all_VO_L_1_T_36814_181832	567.7	537
EOG093607OT	Duplicated	5A_all_VO_L_2_T_198194_409051	643.4	615
EOG093607OZ	Complete	6A_I21_NT_comp32708_c0_seq1	431.3	514
EOG093607PL	Complete	2A_all_VO_L_1_T_99380_181832	1024.0	1018
EOG093607PO	Missing
EOG093607QO	Missing
EOG093607RL	Complete	5A_I13_VO_L_797_T_58_62	380.5	447
EOG093607RN	Missing
EOG093607RU	Complete	2A_I13_NT_comp25604_c0_seq1	658.8	417
EOG093607TC	Missing
EOG093607TG	Duplicated	5A_I12_VO_L_2_T_38862_53062	766.6	453
EOG093607TG	Duplicated	5A_all_VO_L_10909_T_2_78	767.9	449
EOG093607TH	Complete	2A_all_VO_L_7440_T_25_29	697.9	420
EOG093607U8	Complete	1A_all_VO_L_8027_T_35_80	455.8	935
EOG093607UA	Duplicated	2A_I15_VO_L_768_T_133_147	843.8	436
EOG093607UA	Duplicated	6A_I22_VO_L_1559_T_4_39	843.2	436
EOG093607UE	Missing
EOG093607UJ	Missing
EOG093607UO	Complete	1A_all_NT_comp96097_c0_seq3	613.8	444
EOG093607WA	Complete	2A_all_VO_L_7909_T_5_11	492.2	375
EOG093607WN	Complete	1A_all_NT_comp105480_c0_seq1	507.3	482
EOG093607XJ	Complete	2A_I2_VO_L_19818_T_3_3	539.1	416
EOG093607YA	Missing
EOG093607YB	Complete	5A_I16_VO_L_1549_T_5_36	735.0	411
EOG093607ZG	Complete	3A_I20_VO_L_30735_T_24_39	574.4	324
EOG093607ZP	Missing
EOG093607ZT	Complete	1A_I8_VO_L_3_T_34016_67407	628.7	517
EOG09360803	Missing
EOG09360806	Missing
EOG0936081F	Complete	2A_all_VO_L_14553_T_1_7	686.8	766
EOG09360829	Missing
EOG0936082I	Complete	2A_I13_NT_comp25433_c0_seq1	129.3	296
EOG0936082J	Missing
EOG0936082K	Missing
EOG0936082Y	Complete	5A_I12_NT_comp26090_c0_seq1	656.1	411
EOG0936083D	Complete	3A_all_VO_L_4_T_17393_60622	736.3	787
EOG0936083O	Missing
EOG09360843	Fragmented	1A_I9_VO_L_2186_T_57_64	304.6	187
EOG0936084P	Complete	1A_all_VO_L_11533_T_13_93	480.4	384
EOG0936084R	Missing
EOG0936085E	Missing
EOG0936085U	Complete	1A_I8_NT_comp7895_c0_seq1	378.8	363
EOG0936086V	Missing
EOG0936086W	Complete	5A_all_VO_L_2_T_202455_409051	697.2	702
EOG09360877	Missing
EOG0936087S	Missing
EOG0936088K	Missing
EOG0936088P	Missing
EOG093608A7	Missing
EOG093608AK	Duplicated	1A_all_VO_L_10755_T_8_20	641.2	654
EOG093608AK	Duplicated	2A_all_VO_L_17220_T_21_21	683.1	727
EOG093608AS	Missing
EOG093608AU	Complete	2A_all_VO_L_1_T_96894_181832	738.8	833
EOG093608AX	Complete	6A_I22_VO_L_3926_T_3_7	656.4	409
EOG093608B1	Missing
EOG093608BO	Complete	2A_I13_VO_L_1_T_146109_181601	617.3	543
EOG093608CS	Complete	2A_I4_NT_comp34364_c0_seq1	607.6	367
EOG093608FN	Complete	1A_I5_VO_L_2190_T_19_28	540.5	381
EOG093608GA	Missing
EOG093608GF	Missing
EOG093608GT	Complete	3A_I18_NT_comp34216_c0_seq2	325.1	316
EOG093608I9	Missing
EOG093608IL	Complete	2A_all_VO_L_10578_T_4_7	710.6	411
EOG093608JW	Complete	2A_I2_VO_L_17895_T_7_13	839.6	398
EOG093608K2	Fragmented	3A_I18_VO_L_1914_T_36_40	619.2	371
EOG093608KQ	Missing
EOG093608LD	Missing
EOG093608NO	Missing
EOG093608OZ	Missing
EOG093608P1	Missing
EOG093608PC	Complete	2A_all_VO_L_7731_T_3_14	492.7	395
EOG093608PU	Complete	1A_all_OT_comp95013_c0_seq1	492.7	397
EOG093608R5	Complete	5A_I12_VO_L_66385_T_1_8	485.4	365
EOG093608SZ	Complete	3A_I16_VO_L_2918_T_17_34	450.7	386
EOG093608T4	Missing
EOG093608V7	Missing
EOG093608VJ	Missing
EOG093608WC	Missing
EOG093608XE	Complete	1A_I3_VO_L_2_T_18_114	719.1	419
EOG093608XY	Missing
EOG093608YK	Missing
EOG093608ZW	Duplicated	2A_I27_VO_L_719_T_2_5	666.8	368
EOG093608ZW	Duplicated	6A_all_NT_comp100952_c0_seq3	666.2	368
EOG093608ZW	Duplicated	6A_all_NT_comp100952_c0_seq6	649.1	368
EOG0936090G	Complete	5A_I7_VO_L_31260_T_20_31	467.1	373
EOG09360916	Complete	2A_I10_NT_comp28790_c0_seq5	481.7	281
EOG0936091G	Duplicated	2A_all_VO_L_9446_T_8_36	664.8	390
EOG0936091G	Duplicated	5A_I12_VO_L_1636_T_19_22	661.4	390
EOG0936091G	Duplicated	5A_I7_VO_L_1344_T_60_79	654.7	391
EOG0936091T	Complete	5A_I14_VO_L_6280_T_6_7	766.6	530
EOG0936092Y	Complete	2A_I27_VO_L_1_T_4927_20372	718.2	371
EOG09360945	Missing
EOG0936096A	Complete	3A_all_NT_comp81683_c0_seq1	99.6	368
EOG0936096C	Duplicated	2A_I10_VO_L_1450_T_18_28	442.6	384
EOG0936096C	Duplicated	3A_I20_VO_L_2289_T_36_45	439.4	390
EOG0936096C	Duplicated	5A_I15_VO_L_1036_T_5_31	444.2	390
EOG0936097H	Missing
EOG0936098C	Missing
EOG0936098U	Missing
EOG0936099K	Missing
EOG0936099O	Complete	2A_I10_VO_L_2_T_33975_51732	636.7	380
EOG093609BK	Missing
EOG093609C8	Missing
EOG093609D4	Complete	2A_I10_VO_L_2_T_35708_51732	662.5	383
EOG093609DP	Complete	3A_I20_VO_L_46248_T_5_10	539.8	370
EOG093609EF	Duplicated	2A_I15_VO_L_795_T_24_167	620.4	391
EOG093609EF	Duplicated	3A_all_VO_L_7822_T_10_31	571.9	391
EOG093609G8	Complete	6A_I25_VO_L_2324_T_1_4	435.9	336
EOG093609GK	Complete	1A_all_NT_comp108600_c1_seq1	641.8	338
EOG093609GV	Complete	6A_I21_VO_L_1_T_140239_217332	763.0	362
EOG093609HF	Complete	1A_I9_VO_L_4187_T_10_18	527.2	699
EOG093609HT	Missing
EOG093609I6	Complete	1A_I3_VO_L_2523_T_19_46	726.6	430
EOG093609I7	Missing
EOG093609JA	Complete	2A_I15_NT_comp41668_c0_seq5	841.7	428
EOG093609KC	Missing
EOG093609LK	Missing
EOG093609MH	Missing
EOG093609NR	Missing
EOG093609NZ	Complete	5A_I7_NT_comp27544_c0_seq3	636.5	363
EOG093609O4	Missing
EOG093609PH	Duplicated	3A_I20_VO_L_1300_T_370_394	352.1	428
EOG093609PH	Duplicated	3A_all_VO_L_522_T_58_81	405.6	385
EOG093609PI	Complete	6A_all_VO_L_193080_T_12_17	435.9	709
EOG093609PW	Complete	1A_I11_NT_comp45669_c0_seq3	802.6	543
EOG093609Q8	Complete	2A_all_VO_L_7287_T_239_399	447.2	548
EOG093609QX	Complete	5A_all_VO_L_2839_T_31_70	381.9	464
EOG093609R4	Complete	3A_I20_VO_L_1093_T_12_13	763.3	495
EOG093609SJ	Missing
EOG093609SU	Duplicated	2A_I2_VO_L_2142_T_38_50	724.1	404
EOG093609SU	Duplicated	5A_I14_NT_comp25418_c0_seq2	717.7	406
EOG093609TC	Complete	3A_I19_VO_L_2683_T_15_22	498.3	333
EOG093609TH	Complete	3A_all_NT_comp82058_c0_seq1	479.1	360
EOG093609UI	Complete	2A_I13_NT_comp35642_c0_seq3	150.7	313
EOG093609UJ	Complete	3A_I18_VO_L_990_T_16_31	723.6	402
EOG093609VP	Duplicated	2A_I10_VO_L_1395_T_95_108	861.3	427
EOG093609VP	Duplicated	5A_I14_VO_L_864_T_18_23	861.8	427
EOG093609VP	Duplicated	6A_I27_VO_L_3732_T_5_25	858.9	427
EOG093609VT	Missing
EOG093609VZ	Missing
EOG093609WJ	Complete	5A_I12_VO_L_2_T_23172_53062	634.1	355
EOG093609X6	Complete	3A_I19_VO_L_5553_T_3_4	866.0	479
EOG093609XY	Complete	3A_all_VO_L_4_T_13219_60622	550.8	514
EOG093609YB	Complete	3A_I19_NT_comp43292_c0_seq1	558.4	398
EOG093609YH	Missing
EOG093609YQ	Missing
EOG093609ZU	Complete	3A_I18_VO_L_2285_T_5_6	808.8	413
EOG09360A0R	Complete	6A_I27_VO_L_108998_T_11_17	528.6	339
EOG09360A16	Complete	5A_all_VO_L_6067_T_18_46	673.3	383
EOG09360A2C	Complete	1A_all_NT_comp109322_c0_seq6	754.2	402
EOG09360A2I	Complete	2A_all_VO_L_112437_T_4_9	627.0	394
EOG09360A3A	Missing
EOG09360A5W	Complete	2A_I2_VO_L_3554_T_9_20	437.9	320
EOG09360A63	Complete	3A_all_VO_L_180908_T_6_10	550.6	442
EOG09360A69	Complete	1A_all_NT_comp67552_c0_seq1	663.7	438
EOG09360A72	Complete	2A_I2_VO_L_54612_T_1_2	699.7	434
EOG09360A77	Complete	3A_all_OT_comp94983_c0_seq2	330.1	291
EOG09360A7J	Missing
EOG09360A7L	Missing
EOG09360A7W	Complete	5A_all_VO_L_5965_T_1_16	541.9	389
EOG09360A7X	Duplicated	2A_I4_VO_L_1_T_2592_124638	165.2	325
EOG09360A7X	Duplicated	5A_I13_VO_L_24313_T_5_31	163.3	323
EOG09360A8D	Duplicated	1A_I5_VO_L_919_T_19_42	649.6	360
EOG09360A8D	Duplicated	1A_I5_VO_L_919_T_33_42	665.4	361
EOG09360A8D	Duplicated	2A_I27_VO_L_1198_T_3_26	650.3	361
EOG09360A8J	Complete	2A_all_VO_L_12073_T_3_12	519.0	453
EOG09360A9V	Complete	2A_I15_OT_comp32028_c0_seq1	623.5	409
EOG09360AA1	Complete	5A_all_VO_L_2_T_71502_409051	577.2	354
EOG09360AAI	Missing
EOG09360AAM	Missing
EOG09360AC9	Missing
EOG09360ADB	Complete	2A_I10_NT_comp14921_c0_seq2	526.7	503
EOG09360ADD	Duplicated	2A_I4_VO_L_2160_T_11_32	622.3	347
EOG09360ADD	Duplicated	2A_I4_VO_L_2160_T_6_32	594.5	339
EOG09360AE6	Complete	3A_all_VO_L_5424_T_10_14	503.7	336
EOG09360AEU	Complete	2A_I13_VO_L_3095_T_11_22	240.6	326
EOG09360AH1	Missing
EOG09360AI2	Complete	2A_I2_VO_L_1_T_50809_104199	535.9	314
EOG09360AJ0	Missing
EOG09360AKC	Complete	2A_I2_VO_L_1_T_95422_104199	311.9	369
EOG09360AKZ	Complete	6A_I21_VO_L_53041_T_3_8	701.0	379
EOG09360ALA	Complete	2A_I27_VO_L_14199_T_18_28	613.3	360
EOG09360ALP	Complete	1A_all_VO_L_103402_T_14_31	673.6	387
EOG09360ALT	Complete	2A_I13_VO_L_1_T_72034_181601	703.0	357
EOG09360AMJ	Complete	6A_I21_VO_L_83488_T_12_15	662.5	395
EOG09360AN8	Missing
EOG09360ANA	Complete	5A_I16_VO_L_3741_T_5_14	319.5	302
EOG09360ANO	Complete	1A_I3_NT_comp49937_c0_seq1	333.4	384
EOG09360AQ0	Complete	3A_I18_NT_comp32131_c0_seq1	415.4	301
EOG09360AQO	Complete	6A_I23_OT_comp39246_c0_seq1	474.5	305
EOG09360ARD	Duplicated	2A_all_VO_L_10238_T_20_36	389.6	323
EOG09360ARD	Duplicated	3A_I18_VO_L_1666_T_52_71	386.7	326
EOG09360ARK	Missing
EOG09360ASH	Complete	1A_I3_NT_comp47949_c0_seq2	432.9	268
EOG09360ATC	Missing
EOG09360AW4	Complete	1A_all_VO_L_99545_T_5_12	724.7	341
EOG09360AW9	Missing
EOG09360AWB	Complete	5A_I14_VO_L_22746_T_4_9	730.8	408
EOG09360AWI	Complete	2A_all_VO_L_1_T_135366_181832	649.1	358
EOG09360AWP	Complete	5A_all_VO_L_2_T_37545_409051	368.4	401
EOG09360AWY	Duplicated	5A_I14_VO_L_1032_T_5_5	505.6	290
EOG09360AWY	Duplicated	5A_all_VO_L_68909_T_11_31	469.8	308
EOG09360AX2	Duplicated	1A_all_NT_comp108266_c0_seq1	528.4	336
EOG09360AX2	Duplicated	2A_I15_NT_comp38923_c0_seq3	472.6	328
EOG09360AX2	Duplicated	6A_I23_VO_L_3786_T_4_5	518.1	337
EOG09360AXR	Complete	6A_I25_VO_L_5_T_81550_111482	120.6	258
EOG09360AYE	Complete	2A_I4_OT_comp30717_c0_seq2	194.3	319
EOG09360B27	Complete	5A_I16_VO_L_18044_T_19_20	480.3	411
EOG09360B3J	Complete	2A_all_VO_L_7987_T_5_17	682.3	377
EOG09360B3R	Complete	5A_all_VO_L_6585_T_21_43	408.7	296
EOG09360B40	Missing
EOG09360B41	Complete	5A_all_VO_L_70036_T_3_10	343.7	324
EOG09360B47	Complete	6A_I25_VO_L_5_T_97495_111482	650.3	305
EOG09360B4E	Missing
EOG09360B4I	Missing
EOG09360B4L	Complete	2A_I15_VO_L_8233_T_1_2	616.8	363
EOG09360B4S	Duplicated	5A_I12_VO_L_39842_T_13_43	379.8	299
EOG09360B4S	Duplicated	5A_I14_VO_L_21475_T_18_36	386.2	287
EOG09360B4Z	Missing
EOG09360B5K	Missing
EOG09360B5S	Fragmented	1A_all_NT_comp100761_c0_seq2	326.6	283
EOG09360B6P	Missing
EOG09360B71	Complete	5A_I16_VO_L_1823_T_11_14	446.5	284
EOG09360B8J	Missing
EOG09360B9U	Missing
EOG09360BA6	Complete	6A_I27_NT_comp31267_c0_seq3	718.6	354
EOG09360BAH	Missing
EOG09360BAZ	Missing
EOG09360BDG	Complete	2A_I4_VO_L_1_T_68878_124638	562.5	362
EOG09360BEF	Missing
EOG09360BEL	Complete	6A_I23_VO_L_50848_T_2_9	708.1	340
EOG09360BEM	Missing
EOG09360BFF	Complete	5A_I15_NT_comp19934_c0_seq1	697.7	394
EOG09360BG3	Missing
EOG09360BGE	Missing
EOG09360BGG	Complete	1A_I5_VO_L_495_T_2_16	376.0	276
EOG09360BGW	Complete	3A_all_VO_L_3962_T_51_64	274.2	214
EOG09360BI5	Missing
EOG09360BID	Missing
EOG09360BIG	Complete	1A_I9_VO_L_32191_T_14_14	525.3	321
EOG09360BJ2	Missing
EOG09360BJO	Complete	5A_I15_VO_L_43641_T_2_5	607.7	431
EOG09360BKS	Complete	2A_I10_OT_comp7825_c0_seq1	400.0	306
EOG09360BLH	Complete	2A_I2_VO_L_18215_T_14_25	402.4	257
EOG09360BM8	Missing
EOG09360BN6	Complete	2A_I13_VO_L_25139_T_2_7	660.7	399
EOG09360BNI	Complete	2A_I13_VO_L_2662_T_11_14	496.2	341
EOG09360BOH	Complete	6A_I20_VO_L_2014_T_1_6	720.2	410
EOG09360BPW	Complete	5A_I12_VO_L_1367_T_45_47	373.0	262
EOG09360BQM	Complete	2A_I27_NT_comp13628_c0_seq1	406.7	273
EOG09360BQU	Complete	3A_all_VO_L_6566_T_24_31	278.0	375
EOG09360BR4	Complete	5A_I7_NT_comp30301_c0_seq9	347.0	326
EOG09360BRK	Missing
EOG09360BRS	Complete	2A_all_VO_L_200503_T_5_8	208.9	315
EOG09360BSY	Complete	3A_I18_NT_comp8861_c0_seq1	467.3	298
EOG09360BT4	Missing
EOG09360BTH	Complete	3A_all_VO_L_69608_T_14_23	431.8	356
EOG09360BVG	Missing
EOG09360BWZ	Fragmented	5A_all_VO_L_31433_T_21_40	409.6	376
EOG09360BY2	Duplicated	2A_I15_VO_L_1_T_114609_133144	342.7	293
EOG09360BY2	Duplicated	5A_all_VO_L_91009_T_23_76	335.2	293
EOG09360BY3	Missing
EOG09360BYN	Complete	3A_all_VO_L_4096_T_37_47	228.4	267
EOG09360BYY	Complete	1A_all_NT_comp107437_c0_seq1	479.6	317
EOG09360BZ0	Complete	2A_I27_VO_L_31118_T_2_3	598.4	329
EOG09360C0Z	Complete	1A_I3_NT_comp44929_c0_seq1	612.9	471
EOG09360C3E	Complete	5A_I12_VO_L_631_T_142_216	424.6	307
EOG09360C3K	Missing
EOG09360C5R	Complete	6A_I23_VO_L_1_T_98136_165398	534.8	509
EOG09360C5Z	Complete	5A_I14_VO_L_22725_T_1_4	584.2	335
EOG09360C61	Duplicated	1A_all_VO_L_2_T_24799_51331	255.7	339
EOG09360C61	Duplicated	5A_all_VO_L_6784_T_43_44	281.7	261
EOG09360C6T	Missing
EOG09360C7E	Complete	6A_I22_VO_L_647_T_13_15	535.4	300
EOG09360C7N	Complete	2A_I13_VO_L_44824_T_1_3	145.1	331
EOG09360C8Y	Complete	5A_I16_VO_L_4_T_18740_214906	372.9	403
EOG09360CCO	Missing
EOG09360CCQ	Missing
EOG09360CDH	Complete	3A_I18_VO_L_2_T_114534_136250	599.5	312
EOG09360CEB	Complete	2A_I15_VO_L_2095_T_35_165	438.5	286
EOG09360CEF	Complete	2A_I2_VO_L_4968_T_2_4	569.1	319
EOG09360CFL	Duplicated	1A_I5_VO_L_1_T_10883_64687	742.7	399
EOG09360CFL	Duplicated	1A_I5_VO_L_1_T_10884_64687	747.9	399
EOG09360CFL	Duplicated	2A_I10_VO_L_2_T_1291_51732	746.2	399
EOG09360CG1	Complete	2A_I27_VO_L_1663_T_9_12	587.6	390
EOG09360CG3	Duplicated	2A_I13_VO_L_1_T_140102_181601	313.0	247
EOG09360CG3	Duplicated	3A_I20_VO_L_30619_T_8_10	290.5	243
EOG09360CG3	Duplicated	6A_I27_VO_L_1_T_44644_52656	317.3	243
EOG09360CGS	Missing
EOG09360CH3	Missing
EOG09360CHA	Missing
EOG09360CI2	Complete	2A_I13_VO_L_6238_T_1_5	544.8	360
EOG09360CK0	Missing
EOG09360CMF	Missing
EOG09360CMK	Complete	6A_I22_VO_L_5090_T_1_10	473.0	322
EOG09360CMV	Missing
EOG09360CNG	Missing
EOG09360CNL	Missing
EOG09360CP3	Missing
EOG09360CPN	Fragmented	3A_I19_VO_L_1_T_241877_241978	328.6	212
EOG09360CRR	Missing
EOG09360CTZ	Complete	1A_I5_VO_L_19402_T_17_21	387.2	522
EOG09360CVE	Complete	3A_I18_VO_L_62154_T_3_4	170.7	220
EOG09360CVM	Complete	5A_I15_VO_L_40858_T_1_1	375.8	375
EOG09360CW3	Complete	3A_all_NT_comp91497_c0_seq2	432.0	325
EOG09360CWE	Complete	5A_I7_VO_L_67_T_38_60	569.8	444
EOG09360CX9	Complete	6A_I25_VO_L_5_T_111319_111482	566.1	408
EOG09360CXD	Complete	1A_I9_NT_comp32687_c0_seq5	393.1	321
EOG09360CXH	Missing
EOG09360CXL	Complete	1A_I3_VO_L_1_T_56398_136734	498.7	297
EOG09360CYM	Complete	6A_all_VO_L_7_T_8240_72082	674.1	351
EOG09360CYS	Missing
EOG09360D01	Fragmented	3A_I16_VO_L_765_T_3_199	442.5	291
EOG09360D08	Duplicated	5A_I7_NT_comp36508_c1_seq1	428.7	301
EOG09360D08	Duplicated	6A_I27_NT_comp36117_c0_seq24	427.3	321
EOG09360D08	Duplicated	6A_all_NT_comp102353_c0_seq9	419.6	313
EOG09360D0R	Missing
EOG09360D2F	Complete	3A_I19_VO_L_117911_T_2_8	442.9	279
EOG09360D2X	Missing
EOG09360D36	Complete	2A_I15_VO_L_1_T_124205_133144	565.8	309
EOG09360D3T	Missing
EOG09360D41	Complete	2A_I15_VO_L_42338_T_3_4	287.7	291
EOG09360D4T	Complete	1A_I11_VO_L_1_T_117890_226447	541.9	326
EOG09360D4X	Complete	3A_all_VO_L_6989_T_21_57	580.3	348
EOG09360D63	Complete	2A_all_VO_L_78834_T_13_13	236.0	200
EOG09360D64	Missing
EOG09360D6G	Missing
EOG09360D6K	Complete	5A_all_VO_L_16766_T_3_3	423.1	334
EOG09360D7I	Complete	1A_I5_OT_comp28106_c0_seq1	429.7	335
EOG09360D7K	Duplicated	1A_I3_VO_L_2635_T_48_103	470.7	349
EOG09360D7K	Duplicated	1A_I5_VO_L_1609_T_32_55	482.3	349
EOG09360D7K	Duplicated	3A_all_VO_L_7447_T_10_46	478.7	349
EOG09360D8B	Missing
EOG09360D8C	Complete	2A_I10_VO_L_313_T_35_176	682.1	355
EOG09360D9L	Missing
EOG09360D9T	Missing
EOG09360DBC	Complete	3A_I19_VO_L_1_T_121123_241978	415.8	272
EOG09360DBO	Complete	1A_I11_NT_comp41147_c0_seq3	473.2	314
EOG09360DBZ	Complete	2A_I4_VO_L_4352_T_2_7	462.9	312
EOG09360DCC	Complete	3A_I19_VO_L_1_T_233708_241978	48.4	141
EOG09360DCI	Missing
EOG09360DCR	Missing
EOG09360DD0	Missing
EOG09360DDG	Missing
EOG09360DE6	Missing
EOG09360DFB	Missing
EOG09360DFK	Missing
EOG09360DFS	Complete	1A_I5_VO_L_417_T_103_112	636.9	317
EOG09360DFZ	Complete	6A_I21_VO_L_1_T_46783_217332	456.2	293
EOG09360DG2	Missing
EOG09360DH0	Complete	3A_I19_NT_comp47261_c0_seq1	748.4	386
EOG09360DHF	Complete	2A_all_NT_comp107116_c0_seq1	492.1	323
EOG09360DI3	Complete	6A_all_VO_L_7_T_29742_72082	442.5	304
EOG09360DI6	Missing
EOG09360DII	Missing
EOG09360DJL	Complete	2A_all_VO_L_198896_T_1_1	448.0	297
EOG09360DJM	Missing
EOG09360DJS	Missing
EOG09360DKG	Complete	6A_all_NT_comp96414_c0_seq1	549.7	323
EOG09360DKW	Complete	6A_I25_VO_L_5_T_52854_111482	257.1	311
EOG09360DLF	Complete	5A_I15_NT_comp25097_c0_seq1	457.7	316
EOG09360DLX	Missing
EOG09360DM6	Missing
EOG09360DMR	Complete	5A_all_VO_L_69006_T_5_31	431.5	275
EOG09360DNG	Complete	1A_I11_NT_comp47202_c0_seq1	533.4	292
EOG09360DP5	Missing
EOG09360DQD	Missing
EOG09360DQK	Missing
EOG09360DR9	Missing
EOG09360DRR	Duplicated	1A_I5_VO_L_9705_T_12_26	404.5	287
EOG09360DRR	Duplicated	3A_all_VO_L_224_T_753_1212	401.6	287
EOG09360DRR	Duplicated	5A_I14_VO_L_21655_T_13_24	397.3	287
EOG09360DTF	Missing
EOG09360DUR	Complete	5A_I12_VO_L_41184_T_8_8	361.9	304
EOG09360DV4	Missing
EOG09360DV6	Complete	2A_I10_NT_comp6074_c0_seq1	361.9	272
EOG09360DV8	Missing
EOG09360DV9	Complete	2A_I27_VO_L_18666_T_6_9	226.5	255
EOG09360DVA	Complete	6A_I21_NT_comp41454_c0_seq12	158.5	262
EOG09360DVB	Complete	1A_I3_VO_L_3201_T_11_43	536.7	353
EOG09360DVY	Missing
EOG09360DW4	Missing
EOG09360DWB	Complete	1A_all_OT_comp106574_c0_seq2	515.1	306
EOG09360DWT	Missing
EOG09360DX3	Complete	2A_I15_VO_L_193_T_11_16	647.1	310
EOG09360DZZ	Complete	6A_all_VO_L_9424_T_19_73	652.1	306
EOG09360E00	Complete	2A_I2_VO_L_1_T_31932_104199	433.1	268
EOG09360E12	Missing
EOG09360E3A	Missing
EOG09360E4D	Complete	5A_I14_OT_comp22250_c0_seq2	515.5	300
EOG09360E5A	Duplicated	2A_I13_VO_L_1101_T_85_110	366.4	300
EOG09360E5A	Duplicated	5A_I15_VO_L_1_T_25102_41278	349.4	275
EOG09360E5A	Duplicated	6A_I22_VO_L_1_T_33661_44538	347.4	279
EOG09360E7L	Fragmented	3A_I18_VO_L_2_T_5425_136250	433.3	243
EOG09360E9S	Complete	5A_I14_NT_comp19146_c0_seq1	184.5	152
EOG09360EB9	Missing
EOG09360EBH	Missing
EOG09360EE5	Duplicated	5A_all_VO_L_103073_T_12_21	457.5	288
EOG09360EE5	Duplicated	6A_I25_VO_L_5_T_84195_111482	493.9	276
EOG09360EEW	Duplicated	2A_I13_VO_L_1_T_66950_181601	673.6	330
EOG09360EEW	Duplicated	2A_I13_VO_L_1_T_66953_181601	656.5	330
EOG09360EFD	Complete	1A_I3_NT_comp43205_c0_seq1	510.9	279
EOG09360EFH	Complete	3A_I16_NT_comp34011_c0_seq1	488.8	300
EOG09360EG7	Missing
EOG09360EIH	Missing
EOG09360EKU	Complete	5A_I12_VO_L_40485_T_2_2	369.9	289
EOG09360EL1	Missing
EOG09360ELM	Complete	2A_all_VO_L_113956_T_3_3	408.3	276
EOG09360EM9	Missing
EOG09360EMI	Complete	5A_I14_VO_L_169_T_388_608	655.2	308
EOG09360EMJ	Missing
EOG09360EMK	Missing
EOG09360EP0	Complete	2A_I15_VO_L_4375_T_3_3	294.8	314
EOG09360EPY	Complete	1A_all_VO_L_81496_T_1_1	314.7	295
EOG09360ES7	Complete	2A_all_VO_L_10483_T_3_9	199.7	212
EOG09360ESZ	Missing
EOG09360ETX	Missing
EOG09360EUJ	Fragmented	3A_I16_VO_L_2436_T_3_19	394.2	203
EOG09360EUK	Complete	2A_I15_VO_L_669_T_8_57	563.0	349
EOG09360EUN	Missing
EOG09360EV2	Complete	2A_all_VO_L_1_T_62441_181832	559.6	409
EOG09360EW1	Fragmented	5A_I16_VO_L_43932_T_15_26	137.3	131
EOG09360EWV	Missing
EOG09360EX7	Complete	2A_I27_VO_L_431_T_17_24	581.9	312
EOG09360EYE	Complete	1A_I8_VO_L_29896_T_1_1	465.1	262
EOG09360EYO	Fragmented	6A_I23_VO_L_2147_T_50_65	338.0	172
EOG09360F0Y	Complete	6A_I21_VO_L_2061_T_5_30	551.5	273
EOG09360F1B	Complete	1A_I3_NT_comp47763_c0_seq2	541.2	334
EOG09360F1R	Complete	6A_all_VO_L_58436_T_2_7	287.2	251
EOG09360F40	Complete	2A_I10_VO_L_59057_T_4_16	504.8	274
EOG09360F4O	Complete	1A_all_NT_comp110300_c0_seq3	408.1	287
EOG09360F53	Complete	2A_I13_VO_L_1_T_67142_181601	531.6	324
EOG09360F56	Missing
EOG09360F69	Missing
EOG09360F6U	Complete	6A_I20_VO_L_178_T_261_440	586.8	330
EOG09360F71	Complete	3A_I18_NT_comp15553_c0_seq1	397.4	237
EOG09360F83	Missing
EOG09360F8D	Missing
EOG09360F8I	Complete	2A_I2_VO_L_2025_T_29_105	459.1	289
EOG09360F8Q	Missing
EOG09360FB1	Complete	3A_I18_VO_L_2_T_66785_136250	457.4	317
EOG09360FB7	Missing
EOG09360FBI	Complete	1A_all_NT_comp91083_c0_seq1	445.6	322
EOG09360FCX	Missing
EOG09360FDV	Missing
EOG09360FE1	Complete	6A_I27_VO_L_47224_T_5_8	426.0	261
EOG09360FIH	Missing
EOG09360FIO	Complete	3A_I18_NT_comp8667_c0_seq1	658.5	314
EOG09360FJP	Duplicated	1A_I11_VO_L_1_T_167923_226447	411.3	405
EOG09360FJP	Duplicated	1A_I11_VO_L_1_T_167925_226447	409.4	405
EOG09360FJP	Duplicated	2A_I4_VO_L_370_T_59_102	415.9	414
EOG09360FJQ	Complete	1A_I3_VO_L_3087_T_6_17	554.2	295
EOG09360FJY	Complete	3A_I20_VO_L_1_T_5426_85822	456.2	259
EOG09360FKR	Complete	1A_I3_VO_L_2695_T_37_47	404.9	296
EOG09360FLC	Complete	3A_I20_VO_L_41198_T_12_17	464.1	280
EOG09360FM4	Complete	1A_I5_VO_L_21310_T_2_4	326.9	337
EOG09360FML	Missing
EOG09360FN1	Missing
EOG09360FOF	Duplicated	5A_all_VO_L_68968_T_12_20	183.0	601
EOG09360FOF	Duplicated	6A_I23_VO_L_1_T_138792_165398	202.3	466
EOG09360FQU	Complete	1A_I8_VO_L_43554_T_1_4	336.0	319
EOG09360FR1	Complete	1A_I5_NT_comp24160_c0_seq1	309.5	206
EOG09360FRJ	Missing
EOG09360FU3	Missing
EOG09360FUF	Complete	6A_I23_VO_L_1993_T_7_23	361.5	376
EOG09360FUV	Missing
EOG09360FVA	Missing
EOG09360FVB	Missing
EOG09360FVD	Missing
EOG09360FVP	Duplicated	3A_I16_VO_L_2_T_4725_60890	442.5	271
EOG09360FVP	Duplicated	5A_I15_VO_L_1_T_36773_41278	418.7	270
EOG09360FVP	Duplicated	5A_I15_VO_L_1_T_9737_41278	404.4	270
EOG09360FWB	Missing
EOG09360FWE	Complete	6A_I23_VO_L_1_T_42837_165398	487.1	257
EOG09360G0D	Missing
EOG09360G0I	Missing
EOG09360G0X	Complete	3A_I16_VO_L_2_T_10689_60890	292.6	267
EOG09360G1W	Complete	2A_I15_VO_L_27210_T_3_6	475.4	263
EOG09360G2E	Complete	1A_I3_VO_L_34032_T_2_3	355.0	261
EOG09360G30	Missing
EOG09360G3S	Missing
EOG09360G42	Complete	1A_I5_VO_L_894_T_7_41	483.1	265
EOG09360G43	Complete	2A_I27_VO_L_4418_T_1_1	382.2	240
EOG09360G4Y	Missing
EOG09360G5B	Complete	3A_I16_VO_L_2_T_5560_60890	493.2	279
EOG09360G5I	Complete	6A_I25_OT_comp28128_c0_seq3	267.1	288
EOG09360G65	Missing
EOG09360G6G	Complete	2A_I15_OT_comp32416_c0_seq2	450.7	277
EOG09360G7Q	Complete	1A_I11_OT_comp41804_c0_seq6	353.9	243
EOG09360G91	Complete	1A_all_NT_comp109489_c1_seq13	311.1	876
EOG09360G99	Missing
EOG09360GA9	Missing
EOG09360GB9	Complete	1A_I11_VO_L_44826_T_19_22	195.4	291
EOG09360GBZ	Complete	3A_all_VO_L_4_T_40279_60622	353.6	255
EOG09360GC2	Missing
EOG09360GC7	Missing
EOG09360GCH	Missing
EOG09360GEM	Missing
EOG09360GF5	Complete	1A_I11_NT_comp48213_c0_seq1	330.4	247
EOG09360GFD	Missing
EOG09360GFV	Missing
EOG09360GHT	Complete	5A_I15_VO_L_7436_T_2_4	349.1	202
EOG09360GK5	Complete	1A_I5_VO_L_2253_T_32_116	449.3	275
EOG09360GKN	Complete	6A_I21_VO_L_1_T_91423_217332	127.2	199
EOG09360GKU	Missing
EOG09360GMF	Missing
EOG09360GMQ	Complete	5A_all_VO_L_23894_T_10_10	367.1	246
EOG09360GMU	Missing
EOG09360GN9	Complete	2A_all_NT_comp103255_c0_seq7	367.8	239
EOG09360GOA	Complete	1A_I5_VO_L_683_T_175_218	402.4	293
EOG09360GOP	Missing
EOG09360GQJ	Complete	6A_I21_VO_L_34825_T_3_4	285.8	316
EOG09360GQN	Complete	6A_I20_OT_comp16872_c0_seq2	469.9	318
EOG09360GQQ	Complete	3A_I20_OT_comp22816_c0_seq2	327.3	303
EOG09360GRH	Complete	1A_I11_VO_L_1_T_20644_226447	673.6	339
EOG09360GS5	Complete	3A_I19_VO_L_535_T_57_126	493.1	258
EOG09360GTG	Fragmented	6A_I23_NT_comp35372_c0_seq1	527.2	271
EOG09360GU0	Complete	6A_I20_NT_comp15270_c0_seq1	480.7	312
EOG09360GU6	Complete	1A_I8_VO_L_1960_T_17_29	256.3	225
EOG09360GUO	Missing
EOG09360GUZ	Missing
EOG09360GVP	Missing
EOG09360GVY	Complete	5A_I13_VO_L_30222_T_2_6	505.7	297
EOG09360GWA	Complete	2A_I2_VO_L_41493_T_1_5	426.5	244
EOG09360GXC	Missing
EOG09360GXD	Complete	5A_I12_VO_L_2_T_26253_53062	480.3	288
EOG09360GXJ	Missing
EOG09360GXL	Complete	1A_I5_VO_L_1_T_43961_64687	386.4	255
EOG09360GXV	Complete	3A_I16_VO_L_55347_T_3_5	516.5	276
EOG09360GYO	Missing
EOG09360GZ2	Complete	2A_I2_VO_L_1_T_4354_104199	473.7	293
EOG09360GZA	Missing
EOG09360GZB	Missing
EOG09360GZJ	Complete	2A_I2_VO_L_1_T_95613_104199	505.1	312
EOG09360H0G	Missing
EOG09360H49	Complete	5A_I15_OT_comp20937_c0_seq1	410.8	257
EOG09360H4K	Missing
EOG09360H4M	Complete	3A_I19_VO_L_1_T_35883_241978	265.8	190
EOG09360H4R	Missing
EOG09360H66	Complete	5A_I13_VO_L_250_T_4_5	426.6	304
EOG09360H7R	Missing
EOG09360H7T	Missing
EOG09360H9R	Complete	2A_I13_NT_comp40201_c1_seq1	318.5	233
EOG09360HAG	Complete	3A_I20_VO_L_19099_T_1_15	400.8	258
EOG09360HAP	Missing
EOG09360HBC	Missing
EOG09360HC5	Complete	5A_all_VO_L_5632_T_18_22	272.2	243
EOG09360HCK	Complete	2A_all_VO_L_85747_T_1_1	352.0	268
EOG09360HD9	Complete	1A_I11_NT_comp34274_c0_seq1	397.8	223
EOG09360HE3	Complete	5A_all_VO_L_2_T_125633_409051	326.4	201
EOG09360HGB	Missing
EOG09360HGJ	Complete	3A_I20_VO_L_41964_T_3_5	505.2	284
EOG09360HGT	Complete	3A_I16_VO_L_62608_T_1_2	404.6	269
EOG09360HGV	Complete	2A_I15_VO_L_131_T_751_935	237.9	327
EOG09360HI2	Complete	5A_I16_VO_L_66031_T_12_13	207.1	290
EOG09360HIJ	Complete	6A_I22_VO_L_2896_T_2_3	443.7	266
EOG09360HK0	Missing
EOG09360HKF	Duplicated	1A_I3_VO_L_5413_T_5_15	495.4	288
EOG09360HKF	Duplicated	2A_I15_VO_L_4891_T_8_13	499.8	288
EOG09360HKF	Duplicated	5A_I13_VO_L_7547_T_8_9	503.5	288
EOG09360HKW	Missing
EOG09360HLN	Missing
EOG09360HMJ	Missing
EOG09360HN7	Complete	6A_I21_OT_comp35294_c0_seq1	394.6	247
EOG09360HO3	Missing
EOG09360HOF	Complete	6A_all_VO_L_111580_T_3_5	403.1	270
EOG09360HOV	Complete	1A_I5_VO_L_252_T_501_507	375.6	237
EOG09360HPN	Complete	2A_all_VO_L_7689_T_12_292	343.3	244
EOG09360HPQ	Missing
EOG09360HQF	Complete	1A_I3_VO_L_33591_T_1_4	434.7	242
EOG09360HQO	Missing
EOG09360HQQ	Complete	5A_I7_VO_L_1_T_79261_95833	201.1	222
EOG09360HR1	Missing
EOG09360HR3	Duplicated	1A_I3_VO_L_3142_T_84_115	378.9	324
EOG09360HR3	Duplicated	5A_all_VO_L_2_T_277407_409051	379.3	333
EOG09360HR3	Duplicated	5A_all_VO_L_2_T_277410_409051	373.0	337
EOG09360HRI	Complete	5A_I7_NT_comp30717_c0_seq1	544.2	272
EOG09360HSL	Complete	5A_all_VO_L_5348_T_22_40	322.6	277
EOG09360HTY	Complete	3A_I16_NT_comp23958_c0_seq1	172.8	163
EOG09360HUX	Missing
EOG09360HX1	Complete	2A_I4_VO_L_81826_T_10_13	95.9	151
EOG09360HY3	Complete	1A_I5_VO_L_40869_T_5_9	281.8	209
EOG09360HZF	Missing
EOG09360I07	Missing
EOG09360I0L	Missing
EOG09360I0P	Missing
EOG09360I13	Complete	1A_I3_NT_comp40814_c0_seq1	67.5	200
EOG09360I30	Missing
EOG09360I49	Missing
EOG09360I4I	Missing
EOG09360I4M	Missing
EOG09360I5A	Missing
EOG09360I5J	Duplicated	3A_I18_VO_L_58403_T_1_6	352.4	249
EOG09360I5J	Duplicated	5A_I7_VO_L_46832_T_1_1	357.4	249
EOG09360I5U	Missing
EOG09360I5Z	Complete	2A_I10_VO_L_2_T_7950_51732	451.2	284
EOG09360I8Y	Missing
EOG09360IAQ	Fragmented	5A_I16_VO_L_1134_T_74_81	312.4	151
EOG09360IBH	Complete	1A_I3_VO_L_880_T_9_17	326.7	204
EOG09360IBU	Missing
EOG09360IC1	Missing
EOG09360ICO	Complete	1A_I9_NT_comp24472_c0_seq1	401.3	242
EOG09360ID9	Complete	5A_I15_VO_L_11477_T_41_41	206.5	200
EOG09360IE8	Complete	2A_I2_VO_L_1_T_63624_104199	297.5	208
EOG09360IEH	Complete	3A_I16_NT_comp34110_c0_seq2	257.6	203
EOG09360IEI	Missing
EOG09360IFT	Missing
EOG09360IGG	Missing
EOG09360IGN	Missing
EOG09360IHY	Duplicated	3A_I18_VO_L_1864_T_14_18	518.4	294
EOG09360IHY	Duplicated	5A_I7_VO_L_4912_T_13_16	505.4	294
EOG09360IIY	Missing
EOG09360IJG	Complete	2A_I15_VO_L_82481_T_2_5	369.9	252
EOG09360IKP	Duplicated	1A_I3_NT_comp50454_c0_seq2	280.9	274
EOG09360IKP	Duplicated	5A_I14_VO_L_3_T_3146_18503	282.6	270
EOG09360IKP	Duplicated	6A_I21_NT_comp39509_c0_seq3	279.0	268
EOG09360ILO	Missing
EOG09360IML	Complete	1A_I11_VO_L_1_T_99613_226447	259.0	172
EOG09360ING	Complete	5A_I16_VO_L_998_T_21_22	577.2	343
EOG09360INV	Complete	2A_all_VO_L_10599_T_6_16	328.2	203
EOG09360IP2	Complete	1A_I5_VO_L_19814_T_6_19	237.7	213
EOG09360IPD	Complete	3A_I20_OT_comp17467_c0_seq2	519.5	336
EOG09360IPS	Complete	1A_all_VO_L_5178_T_144_158	356.9	276
EOG09360IPZ	Complete	6A_all_NT_comp100995_c0_seq25	314.8	234
EOG09360IQC	Fragmented	3A_I19_VO_L_1_T_109325_241978	331.8	202
EOG09360IQI	Missing
EOG09360IQM	Complete	5A_all_VO_L_13839_T_3_3	351.4	244
EOG09360IRW	Missing
EOG09360IS4	Complete	3A_I18_VO_L_2_T_118531_136250	346.2	213
EOG09360ISB	Complete	5A_I7_VO_L_478_T_33_48	349.8	228
EOG09360ISN	Missing
EOG09360IT9	Missing
EOG09360ITN	Complete	3A_I18_VO_L_2_T_107429_136250	346.0	239
EOG09360IUA	Complete	2A_all_VO_L_1971_T_104_130	369.3	221
EOG09360IUB	Missing
EOG09360IV8	Missing
EOG09360IW8	Missing
EOG09360IWC	Missing
EOG09360IZ9	Missing
EOG09360IZH	Missing
EOG09360J00	Complete	6A_I27_VO_L_1_T_34999_52656	277.5	260
EOG09360J0A	Complete	6A_I27_VO_L_11902_T_4_21	426.7	233
EOG09360J11	Missing
EOG09360J1D	Complete	2A_all_NT_comp83365_c0_seq1	388.4	191
EOG09360J1Z	Complete	1A_I3_VO_L_1_T_94789_136734	290.0	174
EOG09360J2V	Missing
EOG09360J39	Missing
EOG09360J3N	Complete	2A_I15_VO_L_27962_T_6_20	264.1	189
EOG09360J46	Complete	1A_all_VO_L_12591_T_22_23	567.5	311
EOG09360J5A	Missing
EOG09360J5K	Missing
EOG09360J79	Complete	2A_I13_VO_L_4488_T_3_12	179.6	189
EOG09360J7A	Complete	1A_I11_NT_comp25687_c0_seq1	482.1	280
EOG09360J7M	Complete	3A_I16_VO_L_32144_T_1_3	221.3	263
EOG09360J7T	Complete	3A_all_VO_L_10068_T_7_17	288.7	176
EOG09360J9G	Missing
EOG09360JAG	Complete	2A_I13_VO_L_25492_T_5_11	147.3	151
EOG09360JE0	Complete	1A_I9_VO_L_1644_T_6_32	266.0	161
EOG09360JFE	Fragmented	2A_I10_NT_comp19922_c0_seq2	458.2	229
EOG09360JFI	Complete	6A_I20_OT_comp25896_c0_seq2	267.0	277
EOG09360JFS	Missing
EOG09360JGG	Missing
EOG09360JHI	Duplicated	1A_all_VO_L_54393_T_3_5	250.7	198
EOG09360JHI	Duplicated	5A_I12_NT_comp28335_c0_seq1	242.1	198
EOG09360JHI	Duplicated	5A_all_VO_L_2_T_135328_409051	250.4	198
EOG09360JI8	Fragmented	3A_I16_VO_L_2436_T_3_19	291.5	203
EOG09360JIY	Missing
EOG09360JL5	Complete	5A_I16_NT_comp40345_c0_seq1	326.5	335
EOG09360JLO	Missing
EOG09360JLQ	Duplicated	2A_all_VO_L_10234_T_18_23	248.2	302
EOG09360JLQ	Duplicated	2A_all_VO_L_8248_T_16_32	233.7	303
EOG09360JLQ	Duplicated	5A_I15_VO_L_1228_T_15_16	232.1	299
EOG09360JMJ	Complete	6A_all_VO_L_8303_T_59_395	314.1	277
EOG09360JO0	Complete	1A_I8_VO_L_53029_T_5_5	408.7	327
EOG09360JO1	Complete	3A_all_OT_comp77883_c0_seq1	307.8	316
EOG09360JOE	Complete	1A_all_VO_L_9929_T_6_10	350.7	232
EOG09360JRA	Missing
EOG09360JSH	Complete	2A_I13_VO_L_1362_T_12_15	464.5	360
EOG09360JU9	Fragmented	2A_I4_VO_L_1_T_32733_124638	363.2	213
EOG09360JUS	Missing
EOG09360JVS	Missing
EOG09360JVX	Missing
EOG09360JWQ	Complete	1A_I3_VO_L_2529_T_1_7	388.4	226
EOG09360JWS	Missing
EOG09360JWT	Complete	5A_all_VO_L_24341_T_1_9	91.2	187
EOG09360JWZ	Missing
EOG09360JXC	Missing
EOG09360K0E	Complete	5A_I15_VO_L_4258_T_7_45	403.1	275
EOG09360K1H	Missing
EOG09360K1I	Complete	1A_all_NT_comp98914_c0_seq1	299.6	274
EOG09360K2H	Complete	1A_I5_VO_L_20611_T_4_11	354.8	219
EOG09360K2J	Complete	6A_I23_VO_L_2305_T_22_29	285.6	220
EOG09360K2Q	Fragmented	1A_all_VO_L_124_T_35_134	289.7	236
EOG09360K2V	Missing
EOG09360K47	Missing
EOG09360K4S	Fragmented	1A_all_VO_L_78591_T_10_28	194.7	120
EOG09360K5X	Complete	2A_I10_VO_L_1079_T_177_209	467.9	228
EOG09360K5Y	Complete	3A_I18_VO_L_2_T_4037_136250	421.1	257
EOG09360K6Z	Missing
EOG09360K7R	Complete	6A_I20_VO_L_3235_T_1_2	320.9	203
EOG09360K87	Complete	6A_all_VO_L_194265_T_10_13	337.0	237
EOG09360K8B	Missing
EOG09360K8L	Missing
EOG09360K9G	Duplicated	2A_I13_VO_L_5276_T_5_9	229.6	289
EOG09360K9G	Duplicated	5A_I16_VO_L_12833_T_4_5	255.7	213
EOG09360KAB	Fragmented	3A_I20_VO_L_45943_T_10_14	197.2	131
EOG09360KB8	Complete	2A_I15_NT_comp39519_c0_seq9	311.5	224
EOG09360KBD	Missing
EOG09360KBS	Duplicated	2A_I2_VO_L_1_T_55073_104199	251.5	197
EOG09360KBS	Duplicated	2A_I2_VO_L_1_T_55074_104199	251.5	197
EOG09360KBS	Duplicated	2A_I2_VO_L_1_T_58258_104199	251.5	197
EOG09360KCW	Fragmented	2A_I15_VO_L_1_T_96081_133144	329.4	209
EOG09360KEM	Missing
EOG09360KES	Missing
EOG09360KF8	Missing
EOG09360KFU	Complete	1A_all_NT_comp105640_c0_seq1	254.6	273
EOG09360KG8	Missing
EOG09360KGN	Complete	3A_I16_VO_L_69652_T_1_4	471.4	256
EOG09360KH1	Missing
EOG09360KHE	Missing
EOG09360KJA	Missing
EOG09360KKY	Complete	1A_I11_VO_L_1_T_221921_226447	295.9	228
EOG09360KLG	Complete	3A_I18_VO_L_39029_T_9_16	276.0	186
EOG09360KLO	Complete	2A_I10_VO_L_4449_T_34_36	364.5	213
EOG09360KMC	Complete	3A_I16_VO_L_1838_T_3_4	451.0	272
EOG09360KOT	Missing
EOG09360KOU	Missing
EOG09360KOY	Missing
EOG09360KPV	Missing
EOG09360KQ2	Missing
EOG09360KRQ	Complete	5A_I7_VO_L_1_T_54306_95833	313.3	227
EOG09360KTE	Complete	6A_I23_VO_L_1_T_71290_165398	320.2	206
EOG09360KUC	Missing
EOG09360KV4	Complete	6A_I25_VO_L_5_T_12564_111482	276.4	168
EOG09360KVM	Complete	5A_I14_VO_L_369_T_8_10	374.2	225
EOG09360KZ4	Missing
EOG09360KZ9	Complete	6A_all_OT_comp78028_c0_seq1	354.8	186
EOG09360L09	Missing
EOG09360L1R	Complete	2A_I13_NT_comp31872_c0_seq1	338.7	226
EOG09360L3B	Missing
EOG09360L3E	Complete	2A_I27_VO_L_42068_T_2_5	149.9	111
EOG09360L3V	Missing
EOG09360L5N	Complete	5A_all_VO_L_68303_T_27_35	213.8	209
EOG09360L5O	Missing
EOG09360L6F	Complete	5A_I16_VO_L_4_T_71021_214906	387.1	242
EOG09360L6S	Missing
EOG09360L7I	Complete	6A_I20_VO_L_1_T_31999_133533	295.1	210
EOG09360L9K	Complete	2A_I13_VO_L_1_T_162327_181601	282.9	216
EOG09360LA3	Complete	1A_all_VO_L_13872_T_3_4	309.0	237
EOG09360LAA	Missing
EOG09360LCF	Complete	2A_I13_VO_L_1953_T_10_57	300.9	177
EOG09360LCK	Missing
EOG09360LDJ	Missing
EOG09360LE4	Missing
EOG09360LF5	Complete	6A_I25_VO_L_1047_T_10_20	229.6	197
EOG09360LF7	Missing
EOG09360LFN	Complete	5A_all_VO_L_2_T_25451_409051	308.3	201
EOG09360LFY	Missing
EOG09360LG0	Complete	5A_all_VO_L_67564_T_10_10	395.2	215
EOG09360LG2	Missing
EOG09360LG4	Duplicated	3A_all_NT_comp75933_c0_seq1	191.0	215
EOG09360LG4	Duplicated	6A_I20_VO_L_1_T_72155_133533	214.8	205
EOG09360LHO	Complete	1A_all_VO_L_10703_T_28_41	295.3	187
EOG09360LHQ	Missing
EOG09360LHZ	Complete	1A_I8_VO_L_4649_T_2_3	215.3	173
EOG09360LIN	Complete	1A_I3_NT_comp8623_c0_seq1	307.3	211
EOG09360LJ0	Complete	2A_all_VO_L_1_T_56636_181832	248.7	178
EOG09360LJF	Missing
EOG09360LJJ	Missing
EOG09360LJZ	Complete	1A_I9_NT_comp24295_c0_seq1	320.5	192
EOG09360LK3	Missing
EOG09360LK7	Missing
EOG09360LL8	Complete	1A_all_VO_L_49994_T_16_17	364.6	226
EOG09360LLC	Complete	2A_I10_VO_L_5701_T_3_11	253.4	214
EOG09360LMM	Complete	5A_all_VO_L_70398_T_1_1	287.4	183
EOG09360LN2	Complete	2A_all_VO_L_7804_T_26_41	292.3	198
EOG09360LO8	Complete	6A_I23_NT_comp40055_c0_seq1	184.4	187
EOG09360LPP	Complete	2A_I13_VO_L_55202_T_1_1	331.4	199
EOG09360LPQ	Complete	5A_I15_OT_comp25457_c0_seq1	246.1	163
EOG09360LR9	Missing
EOG09360LU3	Complete	2A_I15_NT_comp31823_c0_seq1	293.1	167
EOG09360LUG	Complete	5A_all_VO_L_8119_T_1_1	106.8	172
EOG09360LVI	Complete	6A_all_VO_L_9346_T_23_34	278.7	171
EOG09360LVN	Missing
EOG09360LWY	Fragmented	3A_I20_VO_L_1_T_243_85822	161.0	130
EOG09360LX9	Complete	3A_all_VO_L_6142_T_12_13	296.8	156
EOG09360LYU	Complete	5A_I12_NT_comp29844_c0_seq1	305.1	201
EOG09360M1I	Complete	3A_I16_VO_L_2054_T_6_12	332.6	192
EOG09360M1L	Complete	5A_I7_NT_comp35242_c0_seq1	282.2	263
EOG09360M1M	Missing
EOG09360M2U	Missing
EOG09360M37	Missing
EOG09360M3L	Complete	2A_I15_NT_comp38687_c0_seq1	204.1	177
EOG09360M5K	Duplicated	1A_I5_VO_L_1_T_52319_64687	285.1	195
EOG09360M5K	Duplicated	1A_all_VO_L_12201_T_14_25	286.6	209
EOG09360M5K	Duplicated	3A_all_VO_L_35_T_562_714	288.3	192
EOG09360MCN	Complete	6A_I27_VO_L_48594_T_1_2	133.1	264
EOG09360MCO	Missing
EOG09360MCR	Complete	1A_I5_VO_L_1_T_23517_64687	127.8	167
EOG09360MCT	Complete	2A_I15_VO_L_1_T_64644_133144	275.1	178
EOG09360MDQ	Missing
EOG09360MDX	Complete	1A_I11_NT_comp35854_c0_seq1	434.5	340
EOG09360MF2	Complete	1A_all_VO_L_3817_T_14_32	208.7	189
EOG09360MF6	Complete	1A_I3_VO_L_5269_T_1_5	277.3	193
EOG09360MGG	Missing
EOG09360MIR	Complete	6A_I21_NT_comp31604_c0_seq2	277.1	195
EOG09360MJR	Missing
EOG09360MKH	Complete	3A_all_NT_comp42002_c0_seq1	304.0	180
EOG09360MNW	Missing
EOG09360MO9	Complete	5A_I16_VO_L_4_T_161111_214906	230.9	140
EOG09360MQ0	Missing
EOG09360MQN	Complete	6A_I20_VO_L_25657_T_2_3	234.7	172
EOG09360MRP	Duplicated	2A_I2_VO_L_1241_T_11_33	263.2	171
EOG09360MRP	Duplicated	2A_I2_VO_L_1241_T_14_33	263.3	162
EOG09360MRP	Duplicated	5A_all_VO_L_6099_T_71_75	263.0	162
EOG09360MUD	Complete	5A_I16_OT_comp40018_c0_seq1	68.4	193
EOG09360MWT	Complete	1A_all_VO_L_80076_T_4_10	220.7	299
EOG09360MYG	Missing
EOG09360MZ8	Complete	2A_I13_NT_comp21074_c0_seq1	215.1	135
EOG09360N0I	Complete	3A_I16_VO_L_397_T_26_57	175.0	138
EOG09360N12	Complete	5A_I12_NT_comp21110_c0_seq2	335.7	164
EOG09360N2Y	Missing
EOG09360N4L	Complete	1A_I8_OT_comp22677_c0_seq1	344.4	248
EOG09360N4U	Missing
EOG09360N69	Complete	2A_all_VO_L_7728_T_23_62	288.7	141
EOG09360N7D	Complete	5A_all_VO_L_101329_T_26_45	266.9	189
EOG09360N7F	Complete	3A_I19_VO_L_1_T_109325_241978	392.1	243
EOG09360NB8	Complete	2A_I10_VO_L_42173_T_5_11	333.3	162
EOG09360NBT	Complete	6A_all_VO_L_7_T_29674_72082	417.2	204
EOG09360NC2	Missing
EOG09360NEY	Fragmented	3A_I18_OT_comp33845_c0_seq1	230.0	141
EOG09360NF5	Complete	3A_I20_VO_L_20178_T_7_7	271.9	156
EOG09360NFA	Complete	5A_all_VO_L_2_T_388504_409051	231.7	162
EOG09360NGB	Complete	2A_I10_VO_L_2_T_29393_51732	345.3	205
EOG09360NK5	Complete	2A_I13_VO_L_1_T_154652_181601	202.3	126
EOG09360NKM	Fragmented	3A_I18_VO_L_2_T_125964_136250	266.7	128
EOG09360NKX	Missing
EOG09360NM4	Duplicated	5A_I14_VO_L_6043_T_1_3	193.8	176
EOG09360NM4	Duplicated	5A_all_NT_comp73608_c0_seq2	167.2	172
EOG09360NN2	Missing
EOG09360NNQ	Complete	3A_I20_VO_L_1349_T_4_16	411.0	233
EOG09360NP8	Missing
EOG09360NQL	Missing
EOG09360NR1	Missing
EOG09360NSW	Complete	3A_I19_VO_L_2514_T_1_7	290.7	159
EOG09360NTO	Complete	2A_I13_VO_L_1_T_94388_181601	255.6	150
EOG09360NTY	Missing
EOG09360NUJ	Missing
EOG09360NY1	Missing
EOG09360NZY	Missing
EOG09360O09	Complete	2A_I4_NT_comp34693_c0_seq1	218.1	190
EOG09360O0R	Missing
EOG09360O2N	Complete	1A_I11_VO_L_1_T_74003_226447	148.8	66
EOG09360O4B	Duplicated	6A_I20_OT_comp25896_c0_seq2	238.8	235
EOG09360O4B	Duplicated	6A_I20_VO_L_28208_T_2_5	243.6	211
EOG09360O6Q	Missing
EOG09360O8P	Complete	2A_I2_VO_L_1_T_7410_104199	225.5	168
EOG09360O92	Missing
EOG09360OA3	Missing
EOG09360OBH	Complete	6A_I22_NT_comp21018_c0_seq1	240.8	141
EOG09360OBR	Missing
EOG09360OC8	Missing
EOG09360OD6	Complete	2A_I10_VO_L_939_T_15_76	230.3	191
EOG09360OGZ	Duplicated	1A_all_VO_L_6440_T_147_205	192.7	143
EOG09360OGZ	Duplicated	3A_I16_VO_L_1435_T_1_8	195.7	134
EOG09360OGZ	Duplicated	3A_I16_VO_L_1435_T_8_8	199.4	144
EOG09360OHU	Complete	3A_all_NT_comp262396_c0_seq1	136.4	152
EOG09360OIY	Missing
EOG09360OJ7	Missing
EOG09360OLE	Missing
EOG09360ONA	Complete	5A_I12_VO_L_1435_T_31_40	319.8	152
EOG09360OQ1	Complete	2A_I4_NT_comp40984_c0_seq3	213.7	161
EOG09360OQ4	Missing
EOG09360OS0	Missing
EOG09360OS5	Missing
EOG09360OT3	Missing
EOG09360OTB	Complete	5A_I7_VO_L_30899_T_48_57	252.7	143
EOG09360OW8	Complete	2A_I13_VO_L_38950_T_1_13	237.7	170
EOG09360OWV	Complete	6A_I21_VO_L_1_T_77531_217332	185.3	115
EOG09360P08	Missing
EOG09360P0D	Missing
EOG09360P3V	Missing
EOG09360P5M	Complete	3A_I20_VO_L_1_T_11500_85822	309.8	176
EOG09360P6I	Missing
EOG09360P82	Missing
EOG09360PA0	Complete	2A_I13_NT_comp34894_c0_seq1	206.0	135
EOG09360PFL	Missing
EOG09360PG1	Missing
EOG09360PGO	Complete	5A_I7_VO_L_1_T_58848_95833	115.3	107
EOG09360PHQ	Missing
EOG09360PKV	Missing
EOG09360PLI	Complete	2A_I13_VO_L_1_T_123969_181601	257.0	143
EOG09360PLN	Complete	3A_I19_VO_L_2200_T_4_7	168.3	88
EOG09360PMV	Complete	1A_I11_VO_L_4419_T_3_5	178.3	147
EOG09360POQ	Missing
EOG09360PQE	Complete	2A_I15_VO_L_1916_T_5_9	186.5	154
EOG09360PQR	Complete	1A_I11_VO_L_4020_T_10_14	308.5	212
EOG09360PRE	Complete	1A_all_VO_L_13185_T_10_33	132.1	160
EOG09360PV7	Complete	3A_all_NT_comp94587_c0_seq3	301.6	337
EOG09360PWB	Complete	2A_I4_OT_comp24687_c0_seq1	379.8	259
EOG09360PZZ	Complete	3A_I19_VO_L_1_T_90613_241978	304.2	167
EOG09360Q05	Missing
EOG09360Q0V	Missing
EOG09360Q2G	Complete	6A_I21_VO_L_1_T_51578_217332	161.6	143
EOG09360Q7Y	Missing
EOG09360QB9	Complete	1A_I11_OT_comp39834_c0_seq1	319.0	185
EOG09360QE3	Complete	6A_I20_VO_L_27016_T_1_2	102.5	112
EOG09360QEX	Complete	6A_I23_VO_L_2254_T_3_11	241.3	141
EOG09360QFC	Missing
EOG09360QGD	Missing
EOG09360QHJ	Missing
EOG09360QIM	Complete	1A_I11_VO_L_1_T_79703_226447	181.5	137
EOG09360QMN	Duplicated	3A_I18_VO_L_2_T_62785_136250	171.3	95
EOG09360QMN	Duplicated	3A_I20_VO_L_477_T_7_199	171.1	95
EOG09360QMO	Complete	6A_I27_NT_comp32191_c0_seq1	360.2	251
EOG09360QNQ	Missing
EOG09360QPR	Complete	5A_I16_VO_L_4_T_146552_214906	283.6	163
EOG09360QQP	Missing
EOG09360QS9	Missing
EOG09360QVA	Complete	1A_I8_OT_comp25959_c0_seq2	230.2	117
EOG09360QWS	Missing
EOG09360QXX	Missing
EOG09360R2K	Missing
EOG09360R4F	Complete	2A_I2_VO_L_918_T_74_120	284.3	222
EOG09360R4Q	Complete	2A_I2_VO_L_786_T_48_173	207.0	144
EOG09360R4S	Missing
EOG09360R5H	Missing
EOG09360R94	Missing
EOG09360RCD	Missing
EOG09360RFB	Complete	2A_I27_VO_L_33223_T_3_5	296.5	172
EOG09360RFQ	Missing
EOG09360RHO	Missing
EOG09360RLS	Missing
EOG09360ROA	Missing
EOG09360ROY	Complete	2A_I15_VO_L_1029_T_30_82	110.0	96
EOG09360RQP	Missing
EOG09360RRZ	Missing
EOG09360RS5	Missing
EOG09360RTI	Complete	2A_I15_NT_comp26818_c0_seq2	158.0	90
EOG09360S1U	Fragmented	5A_I16_VO_L_3805_T_16_17	182.6	110
EOG09360S1W	Complete	3A_I18_NT_comp27214_c0_seq2	137.7	96
EOG09360S6Z	Missing
EOG09360S81	Complete	3A_I18_VO_L_693_T_15_206	199.3	114
EOG09360S90	Missing
EOG09360S9M	Missing
EOG09360S9S	Missing
EOG09360SAC	Missing
EOG09360SCW	Missing
EOG09360SHF	Missing
EOG09360SKX	Missing
EOG09360SL9	Missing
EOG09360SLX	Duplicated	2A_I27_VO_L_29543_T_6_7	265.1	190
EOG09360SLX	Duplicated	2A_I27_VO_L_29543_T_7_7	280.2	190
EOG09360SLX	Duplicated	5A_all_NT_comp98199_c0_seq3	279.9	192
EOG09360SMB	Missing
EOG09360SN1	Missing
EOG09360SS7	Missing
EOG09360SUH	Missing
EOG09360SVQ	Missing
EOG09360T01	Complete	1A_I3_VO_L_59590_T_2_10	122.2	87
EOG09360T1O	Missing
EOG09360T3L	Complete	6A_I21_VO_L_1_T_45011_217332	231.1	161
EOG09360T7J	Missing
EOG09360TA9	Missing
EOG09360TCV	Complete	2A_I13_VO_L_107_T_14_22	186.0	113
EOG09360TDR	Missing
EOG09360TEN	Complete	2A_I2_NT_comp31836_c0_seq2	128.3	152
EOG09360TJE	Missing
EOG09360TJO	Missing
EOG09360TLB	Missing
EOG09360TLR	Missing
EOG09360TMO	Duplicated	1A_I3_VO_L_32609_T_1_14	105.3	120
EOG09360TMO	Duplicated	2A_I13_VO_L_22678_T_24_25	108.7	120
EOG09360TUC	Missing
EOG09360TV2	Missing
EOG09360TWW	Complete	1A_all_VO_L_9984_T_29_34	184.9	437
EOG09360TXX	Missing
EOG09360TYW	Missing
EOG09360TZB	Missing
EOG09360U1R	Missing
EOG09360U3T	Missing
EOG09360UCM	Complete	2A_I4_VO_L_39082_T_1_2	144.9	112
EOG09360UCN	Missing
EOG09360UGG	Complete	2A_all_VO_L_10341_T_22_81	174.5	111
EOG09360UH0	Complete	3A_all_VO_L_98342_T_3_24	113.8	76
EOG09360UKB	Missing
EOG09360ULO	Complete	3A_all_VO_L_10030_T_1_20	164.1	127
EOG09360UMZ	Missing
EOG09360UX0	Missing
EOG09360UZA	Complete	1A_all_VO_L_13194_T_2_4	174.7	93
EOG09360V3N	Complete	2A_all_VO_L_6149_T_21_24	278.5	186
EOG09360VCN	Missing
EOG09360VIC	Missing
EOG09360W85	Missing
EOG09360WA9	Missing
EOG09360WAP	Complete	1A_I9_NT_comp37363_c0_seq2	119.6	146
EOG09360WJ9	Missing
EOG09360WK5	Missing
EOG09360WSA	Missing
EOG09360XE7	Complete	1A_all_VO_L_3214_T_33_36	163.1	128
EOG09360XWE	Missing
EOG09360XXS	Missing
EOG09360XZ1	Missing
EOG09360Y81	Missing
EOG09360Y9G	Missing
EOG09360YQE	Missing
EOG09360YWZ	Missing
EOG09360ZQE	Missing
EOG09360ZQL	Missing
EOG09360ZSS	Missing
