scaffold69917	205373	209397	ustus_masked-jcf7180063088377-processed-gene-0.1-mRNA-1-transcript-offset:0-AED:0.15-eAED:0.20-QI:0|0|0|0.66|1|1|3|0|354	.	+	1	scaffold69917	204213	206462	g269227;COMP	.	+	4024	2249	0.484215206759
super677	7200	46825	er-jcf7180062986564-snap-gene-0.13-mRNA-1-transcript-offset:0-AED:0.03-eAED:0.03-QI:0|0.33|0.25|0.75|0.33|0|4|0|374	.	+	1	super677	43632	250612	g119122;COMP	.	+	39625	206980	0.0154266112668
scaffold188884	338760	348162	er-jcf7180063088498-snap-gene-0.5-mRNA-1-transcript-offset:6-AED:0.04-eAED:0.04-QI:6|0|0|1|0|0.5|2|0|374	.	+	2	scaffold188884	338681	339085	all_VO_L_6812_T_36/43	.	+	9402	404	0.804455445545
scaffold168274	25345	27077	er-jcf7180063136377-snap-gene-0.3-mRNA-1-transcript-offset:0-AED:0.14-eAED:0.14-QI:0|0.33|0|0.75|0|0|4|0|393	.	-	1	scaffold168274	25489	28277	g714386;COMP	.	-	1732	2788	0.569583931133
scaffold218841	426	1279	er-jcf7180063133356-snap-gene-0.3-mRNA-1-transcript-offset:0-AED:0.11-eAED:0.16-QI:0|0|0|1|0|0|4|0|240	.	-	1	scaffold218841	648	17765	g706163;COMP	.	-	853	17117	0.0368639364375
scaffold61068	154847	155362	er-jcf7180063183508-snap-gene-0.2-mRNA-1-transcript-offset:0-AED:0.10-eAED:0.11-QI:0|0|0|1|0|0|2|0|156	.	-	1	scaffold61068	152717	155188	g312172;COMP	.	-	515	2471	0.138000809389
C4509921	11818	14367	er-jcf7180063050848-snap-gene-0.1-mRNA-1-transcript-offset:0-AED:0.19-eAED:0.37-QI:0|0|0|1|0|0|5|0|215	.	+	1	C4509921	10300	13844	g779208;COMP	.	+	2549	3544	0.571670428894
C4634327	1267	2964	er-jcf7180063028485-augustus-gene-0.5-mRNA-1-transcript-offset:0-AED:0.19-eAED:0.19-QI:0|0|0|1|1|1|2|0|439	.	+	1	C4634327	865	1977	g743151;COMP	.	+	1697	1112	0.638489208633
scaffold117400	280612	283585	er-jcf7180062627330-augustus-gene-0.3-mRNA-1-transcript-offset:0-AED:0.08-eAED:0.08-QI:0|0|0|0.5|1|1|2|0|879	.	+	1	scaffold117400	280769	296537	g383209;COMP	.	+	2973	15768	0.178589548453
scaffold230075	72273	91873	er-jcf7180062957752-augustus-gene-0.2-mRNA-1-transcript-offset:0-AED:0.15-eAED:0.16-QI:0|0|0|0.5|1|1|2|0|415	.	+	1	scaffold230075	90800	92589	g818628;COMP	.	+	19600	1789	0.599776411403
scaffold102924	31499	32773	er-jcf7180063171734-snap-gene-0.8-mRNA-1-transcript-offset:0-AED:0.08-eAED:0.15-QI:0|0|0|1|0|0.33|3|0|355	.	-	1	scaffold102924	31654	33041	g326992;COMP	.	-	1274	1387	0.806777217015
scaffold213141	25417	38388	er-jcf7180062970736-snap-gene-0.4-mRNA-1-transcript-offset:0-AED:0.12-eAED:0.14-QI:0|0|0|0.66|0|0|3|0|260	.	+	1	scaffold213141	36196	41199	g764379;COMP	.	+	12971	5003	0.438137117729
scaffold153869	49235	51969	er-jcf7180062531259-snap-gene-0.3-mRNA-1-transcript-offset:0-AED:0.11-eAED:0.13-QI:0|0.2|0|1|0.4|0.33|6|0|319	.	-	1	scaffold153869	47611	50378	g534764;COMP	.	-	2734	2767	0.413082761113
scaffold46478	2648	21038	er-jcf7180063079978-snap-gene-0.3-mRNA-1-transcript-offset:0-AED:0.10-eAED:0.10-QI:0|0|0|0.75|0.33|0.75|4|0|103	.	+	1	scaffold46478	4014	33536	g162088;COMP	.	+	18390	29522	0.576654698191
scaffold174447	41391	42739	er-jcf7180058855988-snap-gene-0.4-mRNA-1-transcript-offset:0-AED:0.02-eAED:0.02-QI:0|0|0|1|1|1|2|0|424	.	+	1	scaffold174447	41741	43356	g515694;COMP	.	+	1348	1615	0.617956656347
scaffold16769	236302	237952	er-jcf7180063209380-snap-gene-0.2-mRNA-1-transcript-offset:0-AED:0.13-eAED:0.22-QI:0|0|0|1|0.33|0.25|4|0|221	.	+	1	scaffold16769	215462	237765	g314187;COMP	.	+	1650	22303	0.0655965565171
C4939101	17572	19177	p_masked-jcf7180059741519-processed-gene-0.1-mRNA-1-transcript-offset:0-AED:0.17-eAED:0.17-QI:0|0|0|1|1|1|2|0|351	.	-	1	C4939101	18926	25083	g738010;COMP	.	-	1605	6157	0.0407666071139
C4637429	731	7182	er-jcf7180063183387-snap-gene-0.5-mRNA-1-transcript-offset:0-AED:0.09-eAED:0.09-QI:0|0|0|1|0.5|0.8|5|0|469	.	+	1	C4637429	797	9823	g646080;COMP	.	+	6451	9026	0.707400842012
super477	586874	592173	er-jcf7180059890045-snap-gene-0.3-mRNA-1-transcript-offset:0-AED:0.16-eAED:0.28-QI:0|0|0|0.4|0.75|0.8|5|0|147	.	+	1	super477	507385	589192	g157219;COMP	.	+	5299	81807	0.0283349835589
scaffold53517	128341	149515	er-jcf7180063202186-snap-gene-0.6-mRNA-1-transcript-offset:0-AED:0.13-eAED:0.13-QI:0|0.25|0.2|0.8|0.75|0.6|5|0|427	.	+	2	scaffold53517	148742	228520	I5_VO_L_1_T_14913/64687	.	+	21174	79778	0.00968938805184
scaffold53517	128341	149515	er-jcf7180063202186-snap-gene-0.6-mRNA-1-transcript-offset:0-AED:0.13-eAED:0.13-QI:0|0.25|0.2|0.8|0.75|0.6|5|0|427	.	+	2	scaffold53517	128805	228740	I5_VO_L_1_T_57036/64687	.	+	21174	99935	0.207234702557
scaffold53517	128341	149515	er-jcf7180063202186-snap-gene-0.6-mRNA-1-transcript-offset:0-AED:0.13-eAED:0.13-QI:0|0.25|0.2|0.8|0.75|0.6|5|0|427	.	+	2	scaffold53517	128805	228520	I5_VO_L_1_T_57030/64687	.	+	21174	99715	0.207691921978
C4814981	7643	11623	ustus_masked-jcf7180063160947-processed-gene-0.0-mRNA-1-transcript-offset:0-AED:0.19-eAED:0.19-QI:0|0|0|0.33|1|1|3|0|139	.	-	1	C4814981	11139	12552	g770183;COMP	.	-	3980	1413	0.342533616419
scaffold48415	101250	106044	er-jcf7180063200119-snap-gene-0.5-mRNA-1-transcript-offset:0-AED:0.10-eAED:0.12-QI:0|0|0|0.5|0|0.5|2|0|725	.	-	1	scaffold48415	103177	108196	g320043;COMP	.	-	4794	5019	0.571229328552
scaffold176953	18776	36954	er-jcf7180063034968-snap-gene-0.2-mRNA-1-transcript-offset:0-AED:0.17-eAED:0.32-QI:0|0|0|0.6|0|0|5|0|330	.	+	1	scaffold176953	35993	37371	g709520;COMP	.	+	18178	1378	0.697387518142
C5148575	78397	90273	er-jcf7180063065824-snap-gene-0.6-mRNA-1-transcript-offset:0-AED:0.12-eAED:0.18-QI:0|0|0|1|0.5|0.28|7|0|539	.	+	1	C5148575	89034	98155	g830914;COMP	.	+	11876	9121	0.135840368381
scaffold53597	12480	21759	ustus_masked-jcf7180062515088-processed-gene-0.0-mRNA-1-transcript-offset:0-AED:0.16-eAED:0.16-QI:0|0|0|0.5|1|1|2|0|238	.	-	1	scaffold53597	11415	13154	g832096.2;COMP	.	-	9279	1739	0.38757906843
scaffold53597	12480	21759	ustus_masked-jcf7180062515088-processed-gene-0.0-mRNA-1-transcript-offset:0-AED:0.16-eAED:0.16-QI:0|0|0|0.5|1|1|2|0|238	.	-	2	scaffold53597	11415	13154	I16_VO_L_449_T_199/303	.	-	9279	1739	0.38757906843
scaffold122780	115657	119037	er-jcf7180062893531-snap-gene-0.4-mRNA-1-transcript-offset:0-AED:0.19-eAED:0.20-QI:0|0|0|0.75|0|0|4|0|684	.	-	1	scaffold122780	117285	119469	g280595;COMP	.	-	3380	2184	0.802197802198
scaffold31351	50515	51649	er-jcf7180062834905-snap-gene-0.3-mRNA-1-transcript-offset:0-AED:0.04-eAED:0.06-QI:0|0|0|1|1|1|5|0|136	.	-	1	scaffold31351	43132	51595	g247043;COMP	.	-	1134	8463	0.127614321163
super889	116052	119632	er-jcf7180062609278-snap-gene-0.3-mRNA-1-transcript-offset:42-AED:0.14-eAED:0.14-QI:42|0.33|0.14|0.71|0.33|0.57|7|0|333	.	+	3	super889	117948	263976	480_f1p0_1162	.	+	3580	146028	0.0115320349522
super478	240500	248773	er-jcf7180062165756-snap-gene-0.3-mRNA-1-transcript-offset:0-AED:0.10-eAED:0.10-QI:0|1|0.83|1|0.6|0.83|6|0|264	.	+	1	super478	240542	282141	g390745;COMP	.	+	8273	41599	0.197865333301
scaffold115484	255144	256336	er-jcf7180063087988-snap-gene-0.8-mRNA-1-transcript-offset:9-AED:0.13-eAED:0.15-QI:9|0|0.25|1|0|0.25|4|0|281	.	-	1	scaffold115484	246347	256051	g280271;COMP	.	-	1192	9704	0.0934666117065
C5175185	56102	57586	er-jcf7180063113686-augustus-gene-0.7-mRNA-1-transcript-offset:0-AED:0.15-eAED:0.15-QI:0|0|0|0.66|0.5|0.33|3|0|197	.	+	2	C5175185	57227	58933	all_VO_L_113556_T_1/3	.	+	1484	1706	0.210433763189
scaffold81030	22934	24090	er-jcf7180063070978-augustus-gene-0.4-mRNA-1-transcript-offset:6-AED:0.13-eAED:0.15-QI:6|0|0|1|0.33|0.75|4|0|160	.	-	1	scaffold81030	22546	24084	g199768;COMP	.	-	1156	1538	0.747724317295
scaffold15498	103674	104622	er-jcf7180063190738-snap-gene-0.1-mRNA-1-transcript-offset:0-AED:0.10-eAED:0.12-QI:0|0|0|1|0|0|2|0|225	.	-	1	scaffold15498	103454	104595	g234318;COMP	.	-	948	1141	0.807186678352
scaffold160645	99671	106969	er-jcf7180063106296-snap-gene-0.3-mRNA-1-transcript-offset:0-AED:0.14-eAED:0.14-QI:0|0|0|0.66|0|0.33|3|0|359	.	-	1	scaffold160645	99455	100377	g668857;COMP	.	-	7298	922	0.765726681128
super954	230712	242820	er-jcf7180063058795-snap-gene-0.5-mRNA-1-transcript-offset:84-AED:0.09-eAED:0.10-QI:84|0.33|0.3|1|0.22|0.4|10|0|347	.	+	3	super954	9100	231110	436_f1p0_1986	.	+	12108	222010	0.00179271204
scaffold219430	83932	86306	er-jcf7180063101671-snap-gene-0.7-mRNA-1-transcript-offset:0-AED:0.04-eAED:0.04-QI:0|0|0|1|0|0|2|0|523	.	-	1	scaffold219430	80058	85335	g715856;COMP	.	-	2374	5277	0.265870759901
C5175735	184543	185821	p_masked-jcf7180063005897-processed-gene-0.1-mRNA-1-transcript-offset:0-AED:0.13-eAED:0.13-QI:0|0|0|0.25|1|1|4|0|236	.	-	1	C5175735	184830	193989	g121892;COMP	.	-	1278	9159	0.108199585108
scaffold145210	29297	30222	er-jcf7180062983517-augustus-gene-0.4-mRNA-1-transcript-offset:0-AED:0.14-eAED:0.20-QI:0|0|0|1|1|1|2|0|280	.	+	1	scaffold145210	29348	36645	g690640;COMP	.	+	925	7297	0.119775250103
scaffold26486	105764	111772	er-jcf7180063052022-augustus-gene-0.3-mRNA-1-transcript-offset:0-AED:0.13-eAED:0.13-QI:0|0|0|1|1|1|2|0|694	.	-	1	scaffold26486	110249	116590	g320782;COMP	.	-	6008	6341	0.240182936445
scaffold32069	206152	233268	er-jcf7180062955182-snap-gene-0.2-mRNA-1-transcript-offset:0-AED:0.11-eAED:0.11-QI:0|0|0|0.66|0|0.33|3|0|394	.	+	3	scaffold32069	206161	293536	903_f1p1_1969	.	+	27116	87375	0.310237482117
scaffold162271	56603	63640	er-jcf7180063227774-snap-gene-12.26-mRNA-1-transcript-offset:0-AED:0.14-eAED:0.21-QI:0|0|0|0.66|0|0|3|0|764	.	+	1	scaffold162271	50447	58981	g657191;COMP	.	+	7037	8534	0.278650105461
scaffold61280	45486	47771	ustus_masked-jcf7180063027783-processed-gene-0.0-mRNA-1-transcript-offset:0-AED:0.19-eAED:0.24-QI:0|0|0|1|1|1|2|0|721	.	-	1	scaffold61280	44492	47504	g205599;COMP	.	-	2285	3012	0.669986719788
scaffold71039	35811	38655	er-jcf7180062611942-snap-gene-0.3-mRNA-1-transcript-offset:27-AED:0.14-eAED:0.17-QI:27|0|0|0.88|0.62|0.77|9|0|368	.	+	1	scaffold71039	35838	74413	g419074;COMP	.	+	2844	38575	0.0730265716137
C5149453	33263	52075	er-jcf7180063112413-snap-gene-0.14-mRNA-1-transcript-offset:0-AED:0.15-eAED:0.16-QI:0|0|0|1|0.33|0|4|0|1657	.	-	1	C5149453	48892	54366	g229863;COMP	.	-	18812	5474	0.581476068688
scaffold88731	5885	13581	er-jcf7180062995208-snap-gene-0.2-mRNA-1-transcript-offset:0-AED:0.16-eAED:0.21-QI:0|0|0|1|0|0|3|0|319	.	+	1	scaffold88731	13069	13886	g874316;COMP	.	+	7696	817	0.626682986536
C4248391	7516	9938	er-jcf7180063172220-snap-gene-0.2-mRNA-1-transcript-offset:0-AED:0.11-eAED:0.13-QI:0|0|0|0.66|0.5|0.33|3|0|172	.	+	1	C4248391	6442	8028	g571784;COMP	.	+	2422	1586	0.322824716267
scaffold164460	7585	10417	er-jcf7180063048639-snap-gene-0.4-mRNA-1-transcript-offset:0-AED:0.18-eAED:0.18-QI:0|0|0|0.8|0.75|0.6|5|0|439	.	-	1	scaffold164460	8220	12357	g585729;COMP	.	-	2832	4137	0.531061155427
super4059	25321	30844	er-jcf7180062994214-augustus-gene-0.3-mRNA-1-transcript-offset:39-AED:0.09-eAED:0.09-QI:39|1|0.9|1|1|1|10|0|837	.	-	2	super4059	15	30805	I15_OT_comp21914_c0_seq3	.	-	5523	30790	0.178109775901
scaffold60965	208454	210745	er-jcf7180063065518-snap-gene-0.4-mRNA-1-transcript-offset:0-AED:0.16-eAED:0.19-QI:0|0|0|1|0|0.25|4|0|638	.	+	2	scaffold60965	207809	210532	all_VO_L_1_T_48713/181832	.	+	2291	2723	0.763128901946
super3179	46258	48711	ustus_masked-jcf7180063022190-processed-gene-0.1-mRNA-1-transcript-offset:0-AED:0.15-eAED:0.15-QI:0|0|0|1|1|1|2|0|682	.	+	2	super3179	45711	47547	all_VO_L_1_T_35576/181832	.	+	2453	1836	0.702069716776
super2236	802017	803325	er-jcf7180063030349-snap-gene-0.4-mRNA-1-transcript-offset:0-AED:0.19-eAED:0.19-QI:0|0|0|1|0|0.5|2|0|193	.	-	1	super2236	801438	803295	g888664;COMP	.	-	1308	1857	0.688206785137
scaffold123948	80924	81931	er-jcf7180062796742-snap-gene-0.2-mRNA-1-transcript-offset:0-AED:0.11-eAED:0.11-QI:0|0|0|0.5|1|1|2|0|249	.	-	1	scaffold123948	81239	100918	g319643;COMP	.	-	1007	19679	0.0351643884344
scaffold7850	50471	58816	er-jcf7180063051208-snap-gene-0.4-mRNA-1-transcript-offset:21-AED:0.12-eAED:0.17-QI:21|0.16|0.14|0.85|0.33|0.42|7|0|321	.	+	1	scaffold7850	46449	51907	g57734;COMP	.	+	8345	5458	0.263100036643
scaffold102848	88950	100703	er-jcf7180063206752-snap-gene-0.16-mRNA-1-transcript-offset:0-AED:0.10-eAED:0.13-QI:0|0|0|0.66|0|0.33|3|0|186	.	+	1	scaffold102848	88956	110909	g856005;COMP	.	+	11753	21953	0.535097708741
super3372	64111	119521	er-jcf7180063224125-snap-gene-0.2-mRNA-1-transcript-offset:0-AED:0.19-eAED:0.19-QI:0|0.75|0.2|1|0.5|0.2|5|0|177	.	-	1	super3372	118239	119795	g586640;COMP	.	-	55410	1556	0.823907455013
C3804689	2434	3852	er-jcf7180063087175-snap-gene-0.6-mRNA-1-transcript-offset:0-AED:0.19-eAED:0.19-QI:0|0.5|0|1|0|0|3|0|326	.	-	2	C3804689	1225	2781	all_VO_L_1_T_89163/181832	.	-	1418	1556	0.223007712082
super1562	359050	362308	ustus_masked-jcf7180063218276-processed-gene-0.0-mRNA-1-transcript-offset:0-AED:0.08-eAED:0.18-QI:0|0|0|0.5|1|1|2|0|265	.	-	2	super1562	288187	362281	I15_VO_L_43641_T_2/5	.	-	3258	74094	0.0436067697789
scaffold41476	47521	58942	er-jcf7180062962863-augustus-gene-0.2-mRNA-1-transcript-offset:0-AED:0.13-eAED:0.13-QI:0|0|0|0.8|1|1|5|0|178	.	-	1	scaffold41476	42477	49317	g886924;COMP	.	-	11421	6840	0.262573099415
scaffold140775	173789	179712	ustus_masked-jcf7180063110302-processed-gene-0.2-mRNA-1-transcript-offset:0-AED:0.11-eAED:0.11-QI:0|0|0|0.5|1|1|2|0|138	.	+	2	scaffold140775	104575	174283	I11_NT_comp46791_c0_seq2	.	+	5923	69708	0.00708670453893
scaffold50287	21909	41724	er-jcf7180063170353-snap-gene-0.3-mRNA-1-transcript-offset:0-AED:0.09-eAED:0.09-QI:0|0|0|0.33|0.5|0.33|3|0|204	.	+	1	scaffold50287	16147	39302	g158160;COMP	.	+	19815	23155	0.751155258044
scaffold190565	14035	15565	er-jcf7180063116289-snap-gene-0.5-mRNA-1-transcript-offset:69-AED:0.17-eAED:0.22-QI:69|0|0|1|0|0|2|0|385	.	-	1	scaffold190565	15344	15927	g472230;COMP	.	-	1530	583	0.379073756432
scaffold222992	56067	56928	p_masked-jcf7180063141354-processed-gene-0.1-mRNA-1-transcript-offset:0-AED:0.07-eAED:0.07-QI:0|0|0|0.5|1|1|2|0|140	.	+	2	scaffold222992	55929	56492	I5_VO_L_41014_T_1/1	.	+	861	563	0.754884547069
scaffold230604	135199	135985	er-jcf7180062607913-snap-gene-0.1-mRNA-1-transcript-offset:0-AED:0.15-eAED:0.48-QI:0|0|0|1|0|0|3|0|214	.	+	1	scaffold230604	135975	140355	g679608;COMP	.	+	786	4380	0.00228310502283
super2163	450004	490700	er-jcf7180062952230-snap-gene-0.12-mRNA-1-transcript-offset:0-AED:0.08-eAED:0.08-QI:0|0|0|1|0|0.5|4|0|185	.	+	1	super2163	450007	574260	g142739;COMP	.	+	40696	124253	0.327501146854
scaffold4877	27671	28124	er-jcf7180063179919-augustus-gene-0.2-mRNA-1-transcript-offset:0-AED:0.13-eAED:0.17-QI:0|0|0|1|1|1|2|0|110	.	-	1	scaffold4877	26767	27717	g455891;COMP	.	-	453	950	0.0484210526316
scaffold202256	132015	133812	er-jcf7180062768972-snap-gene-0.4-mRNA-1-transcript-offset:0-AED:0.05-eAED:0.07-QI:0|0|0|1|0.6|0.66|6|0|289	.	-	1	scaffold202256	109152	132833	g616854;COMP	.	-	1797	23681	0.0345424602002
scaffold83961	40422	46195	er-jcf7180063201635-snap-gene-0.3-mRNA-1-transcript-offset:0-AED:0.16-eAED:0.19-QI:0|0|0|1|0|0|5|0|702	.	+	2	scaffold83961	40776	50486	all_VO_L_1_T_71226/181832	.	+	5773	9710	0.558084449022
scaffold109246	4925	6119	er-jcf7180063228512-augustus-gene-2.9-mRNA-1-transcript-offset:0-AED:0.17-eAED:0.19-QI:0|0|0|1|1|1|3|0|276	.	-	1	scaffold109246	4472	5146	g103294;COMP	.	-	1194	674	0.327893175074
scaffold13967	110849	119427	er-jcf7180063058238-snap-gene-0.6-mRNA-1-transcript-offset:0-AED:0.02-eAED:0.02-QI:0|0|0|1|0|0|2|0|636	.	+	1	scaffold13967	118558	128695	g843624.2;COMP	.	+	8578	10137	0.0857255598303
scaffold118624	50672	52272	er-jcf7180063036608-snap-gene-0.6-mRNA-1-transcript-offset:0-AED:0.01-eAED:0.03-QI:0|0|0|1|0|0|3|0|524	.	-	1	scaffold118624	50895	54290	g247369;COMP	.	-	1600	3395	0.40559646539
scaffold188596	150438	152395	er-jcf7180063227192-snap-gene-0.9-mRNA-1-transcript-offset:0-AED:0.19-eAED:0.25-QI:0|0|0|0.83|0.2|0.5|6|0|244	.	-	1	scaffold188596	152044	154011	g702229;COMP	.	-	1957	1967	0.178444331469
C5020109	47988	50424	p_masked-jcf7180062993202-processed-gene-0.3-mRNA-1-transcript-offset:0-AED:0.19-eAED:0.24-QI:0|0|0|0.66|1|1|3|0|225	.	-	1	C5020109	49711	51902	g502588;COMP	.	-	2436	2191	0.325422181652
scaffold32342	39648	71319	ustus_masked-jcf7180063027011-processed-gene-0.0-mRNA-1-transcript-offset:0-AED:0.14-eAED:0.14-QI:0|0|0|0.33|1|1|3|0|404	.	-	1	scaffold32342	36501	40565	g339130.1;COMP	.	-	31671	4064	0.22563976378
scaffold61750	67794	69349	ustus_masked-jcf7180063190285-processed-gene-0.0-mRNA-1-transcript-offset:0-AED:0.06-eAED:0.06-QI:0|0|0|0.5|1|1|2|0|482	.	+	1	scaffold61750	67961	70306	g869132;COMP	.	+	1555	2345	0.591897654584
scaffold156640	247703	249714	er-jcf7180061488014-snap-gene-0.2-mRNA-1-transcript-offset:48-AED:0.17-eAED:0.17-QI:48|0.66|1|1|0.33|0.25|4|0|205	.	+	1	scaffold156640	243842	249709	g594788;COMP	.	+	2011	5867	0.341912391341
scaffold165990	86869	88845	ustus_masked-jcf7180062601459-processed-gene-0.1-mRNA-1-transcript-offset:0-AED:0.15-eAED:0.16-QI:0|0|0|1|1|1|2|0|567	.	+	1	scaffold165990	85876	87881	g646936;COMP	.	+	1976	2005	0.504738154613
scaffold25226	201850	203181	er-jcf7180063087016-snap-gene-0.4-mRNA-1-transcript-offset:0-AED:0.14-eAED:0.14-QI:0|0|0|1|0|0|4|0|389	.	+	1	scaffold25226	163759	202323	g123839;COMP	.	+	1331	38564	0.0122653251737
super443	166756	201351	er-jcf7180063227398-snap-gene-0.11-mRNA-1-transcript-offset:15-AED:0.02-eAED:0.02-QI:15|0|0|1|0|0.5|2|0|232	.	-	1	super443	80049	201336	g419209;COMP	.	-	34595	121287	0.285108873993
super1210	297569	300448	er-jcf7180062810702-snap-gene-0.3-mRNA-1-transcript-offset:0-AED:0.13-eAED:0.32-QI:0|0|0|0.88|0.25|0.11|9|0|318	.	-	1	super1210	297574	345169	g127575;COMP	.	-	2879	47595	0.0603844941696
scaffold59431	37973	41646	er-jcf7180062847531-snap-gene-0.7-mRNA-1-transcript-offset:0-AED:0.18-eAED:0.18-QI:0|0|0|1|0.33|0.25|4|0|940	.	+	1	scaffold59431	37446	39382	g351878;COMP	.	+	3673	1936	0.727789256198
scaffold50085	130414	139231	er-jcf7180063074760-snap-gene-0.3-mRNA-1-transcript-offset:36-AED:0.07-eAED:0.12-QI:36|0.5|0.33|0.77|0.37|0.66|9|0|283	.	-	1	scaffold50085	79542	139195	g98823;COMP	.	-	8817	59653	0.147201314268
scaffold165284	11403	12435	er-jcf7180063105201-snap-gene-0.6-mRNA-1-transcript-offset:0-AED:0.11-eAED:0.28-QI:0|0|0|0.8|0|0|5|0|234	.	-	1	scaffold165284	11835	19241	g818201;COMP	.	-	1032	7406	0.0810153929247
scaffold132884	34582	38133	er-jcf7180062987016-snap-gene-0.7-mRNA-1-transcript-offset:0-AED:0.18-eAED:0.18-QI:0|0.75|0.4|1|0.25|0.4|5|0|238	.	+	1	scaffold132884	34609	39778	g572394;COMP	.	+	3551	5169	0.68175662604
scaffold4705	11814	13019	er-jcf7180063037933-snap-gene-0.2-mRNA-1-transcript-offset:0-AED:0.03-eAED:0.04-QI:0|0|0|0.66|0|0.33|3|0|343	.	+	3	scaffold4705	11907	175048	06_f1p0_1879	.	+	1205	163141	0.00681618967641
scaffold4705	11814	13019	er-jcf7180063037933-snap-gene-0.2-mRNA-1-transcript-offset:0-AED:0.03-eAED:0.04-QI:0|0|0|0.66|0|0.33|3|0|343	.	+	3	scaffold4705	12870	175048	093_f1p0_1396	.	+	1205	162178	0.000918743602708
scaffold90301	15096	51372	er-jcf7180063059961-snap-gene-0.9-mRNA-1-transcript-offset:0-AED:0.14-eAED:0.17-QI:0|0|0|1|0|0|4|0|1028	.	+	1	scaffold90301	48123	52247	g183103;COMP	.	+	36276	4124	0.787827352085
super2331	223265	236236	er-jcf7180063017580-augustus-gene-0.4-mRNA-1-transcript-offset:0-AED:0.12-eAED:0.12-QI:0|0.5|0|0.66|0|0.33|3|0|296	.	-	1	super2331	234071	243016	g412668;COMP	.	-	12971	8945	0.242034656233
super1551	31093	31670	er-jcf7180060275095-snap-gene-0.2-mRNA-1-transcript-offset:0-AED:0.12-eAED:0.12-QI:0|0|0|1|1|0|2|0|132	.	+	2	super1551	30628	31398	all_VO_L_49555_T_40/63	.	+	577	770	0.396103896104
scaffold201861	14861	16290	er-jcf7180063065659-snap-gene-0.3-mRNA-1-transcript-offset:0-AED:0.10-eAED:0.10-QI:0|0.5|0|0.66|0.5|0.33|3|0|227	.	-	2	scaffold201861	13920	15589	I11_NT_comp43731_c1_seq1	.	-	1429	1669	0.436189334931
scaffold230131	320393	322621	er-jcf7180062973304-snap-gene-0.6-mRNA-1-transcript-offset:0-AED:0.04-eAED:0.04-QI:0|0|0|0.83|0|0|6|0|486	.	+	1	scaffold230131	319322	322076	g709254;COMP	.	+	2228	2754	0.611111111111
scaffold110696	134096	136150	er-jcf7180063113071-snap-gene-0.6-mRNA-1-transcript-offset:0-AED:0.16-eAED:0.17-QI:0|0.33|0|0.75|0|0|4|0|435	.	-	1	scaffold110696	133118	135923	g359402;COMP	.	-	2054	2805	0.651336898396
scaffold68894	72023	73681	er-jcf7180063029778-snap-gene-0.4-mRNA-1-transcript-offset:0-AED:0.12-eAED:0.35-QI:0|0|0|1|0|0.25|4|0|404	.	-	1	scaffold68894	70669	73053	g171448;COMP	.	-	1658	2384	0.432046979866
scaffold11633	116488	117619	ustus_masked-jcf7180063182620-processed-gene-0.0-mRNA-1-transcript-offset:0-AED:0.06-eAED:0.18-QI:0|0|0|1|1|1|2|0|347	.	-	2	scaffold11633	6465	117604	I3_VO_L_2903_T_58/95	.	-	1131	111139	0.0100414795886
C5171783	63420	71986	p_masked-jcf7180063007816-processed-gene-0.3-mRNA-1-transcript-offset:0-AED:0.11-eAED:0.12-QI:0|0|0|0.5|1|1|2|0|150	.	-	1	C5171783	60386	64056	g137370;COMP	.	-	8566	3670	0.173297002725
scaffold187779	75722	79354	er-jcf7180063161411-snap-gene-0.5-mRNA-1-transcript-offset:0-AED:0.18-eAED:0.18-QI:0|0|0|0.4|0.75|0.6|5|0|149	.	-	1	scaffold187779	49036	76380	g701192.2;COMP	.	-	3632	27344	0.0240637799883
super232	495190	505442	er-jcf7180063012289-snap-gene-0.7-mRNA-1-transcript-offset:0-AED:0.10-eAED:0.10-QI:0|0.28|0.12|0.75|0|0|8|0|816	.	+	1	super232	501975	617724	g859945;COMP	.	+	10252	115749	0.0299527425723
C5142261	20297	28821	er-jcf7180062553348-augustus-gene-0.3-mRNA-1-transcript-offset:0-AED:0.05-eAED:0.05-QI:0|0|0|0.5|1|1|2|0|524	.	+	1	C5142261	26860	30380	g205958;COMP	.	+	8524	3520	0.557102272727
C5144983	96515	99091	er-jcf7180062967715-snap-gene-0.4-mRNA-1-transcript-offset:0-AED:0.15-eAED:0.15-QI:0|0|0|0.5|0|0|2|0|204	.	-	1	C5144983	95933	96970	g166966;COMP	.	-	2576	1037	0.438765670203
super3721	20772	46693	er-jcf7180063205673-snap-gene-0.7-mRNA-1-transcript-offset:0-AED:0.02-eAED:0.02-QI:0|0|0|1|0|0|2|0|775	.	+	1	super3721	45818	47356	g8224;COMP	.	+	25921	1538	0.568920676203
scaffold145881	4939	47077	ustus_masked-jcf7180062938748-processed-gene-0.0-mRNA-1-transcript-offset:0-AED:0.19-eAED:0.19-QI:0|0|0|0.5|1|1|2|0|118	.	+	1	scaffold145881	46877	106123	g592588;COMP	.	+	42138	59246	0.00337575532525
scaffold32642	78772	79492	er-jcf7180063021848-snap-gene-0.1-mRNA-1-transcript-offset:0-AED:0.19-eAED:0.19-QI:0|0|0|1|0|0|2|0|176	.	-	1	scaffold32642	77472	79417	g439694;COMP	.	-	720	1945	0.331619537275
scaffold222463	32646	34557	er-jcf7180062831794-snap-gene-0.1-mRNA-1-transcript-offset:0-AED:0.19-eAED:0.19-QI:0|0|0|1|0|0|4|0|389	.	-	1	scaffold222463	30723	33539	g43810;COMP	.	-	1911	2816	0.317116477273
scaffold30583	78866	112027	er-jcf7180063112189-snap-gene-0.3-mRNA-1-transcript-offset:0-AED:0.12-eAED:0.13-QI:0|0|0|1|0|0|6|0|592	.	+	1	scaffold30583	111219	119800	g259724;COMP	.	+	33161	8581	0.0941615196364
super1576	313327	317194	er-jcf7180063203067-augustus-gene-0.2-mRNA-1-transcript-offset:0-AED:0.04-eAED:0.04-QI:0|1|0|1|1|1|2|0|1074	.	-	3	super1576	313082	313402	516_f1p0_879	.	-	3867	320	0.234375
scaffold108838	95772	96699	er-jcf7180062746113-snap-gene-0.2-mRNA-1-transcript-offset:0-AED:0.08-eAED:0.12-QI:0|0|0|0.75|0|0|4|0|277	.	+	2	scaffold108838	96026	96973	I16_VO_L_4_T_159281/214906	.	+	927	947	0.710665258712
scaffold29091	149721	155657	er-jcf7180063070568-snap-gene-0.2-mRNA-1-transcript-offset:0-AED:0.12-eAED:0.21-QI:0|0|0|1|0|0|3|0|221	.	-	1	scaffold29091	148940	149918	g427854;COMP	.	-	5936	978	0.201431492843
scaffold35708	558975	560884	er-jcf7180063051927-augustus-gene-0.3-mRNA-1-transcript-offset:0-AED:0.15-eAED:0.15-QI:0|0|0|0.5|1|1|2|0|231	.	-	1	scaffold35708	550676	559563	g392133;COMP	.	-	1909	8887	0.0661640598627
scaffold224985	34442	36039	er-jcf7180063090037-snap-gene-0.8-mRNA-1-transcript-offset:0-AED:0.05-eAED:0.05-QI:0|0|0|1|0|0|3|0|264	.	-	1	scaffold224985	34065	34660	g635485;COMP	.	-	1597	595	0.366386554622
scaffold181937	23172	26809	er-jcf7180062891450-snap-gene-0.4-mRNA-1-transcript-offset:0-AED:0.18-eAED:0.20-QI:0|0|0|0.90|0|0.36|11|0|562	.	+	1	scaffold181937	13795	26739	g625330;COMP	.	+	3637	12944	0.275571693449
scaffold23904	105234	105904	er-jcf7180063186188-augustus-gene-0.4-mRNA-1-transcript-offset:0-AED:0.12-eAED:0.12-QI:0|0|0|1|1|0.75|4|0|121	.	-	1	scaffold23904	105336	107111	g871830;COMP	.	-	670	1775	0.32
scaffold197213	38020	51192	er-jcf7180063203120-augustus-gene-0.4-mRNA-1-transcript-offset:0-AED:0.19-eAED:0.23-QI:0|0.5|0|1|1|1|3|0|901	.	+	1	scaffold197213	50071	52171	g39246;COMP	.	+	13172	2100	0.53380952381
super1067	577332	694468	er-jcf7180063219397-snap-gene-0.6-mRNA-1-transcript-offset:0-AED:0.17-eAED:0.17-QI:0|0.58|0.46|0.84|0.08|0.15|13|0|450	.	-	1	super1067	555336	691491	g141283;COMP	.	-	117136	136155	0.838448826705
super1067	577332	694468	er-jcf7180063219397-snap-gene-0.6-mRNA-1-transcript-offset:0-AED:0.17-eAED:0.17-QI:0|0.58|0.46|0.84|0.08|0.15|13|0|450	.	-	3	super1067	352047	577584	695_f1p1_960	.	-	117136	225537	0.00111733329786
super2704	497840	609039	er-jcf7180062950327-snap-gene-0.11-mRNA-1-transcript-offset:66-AED:0.13-eAED:0.13-QI:66|0.77|0.73|1|0.83|0.89|19|0|700	.	-	1	super2704	455757	608973	g290467;COMP	.	-	111199	153216	0.725335474102
super2704	497840	609039	er-jcf7180062950327-snap-gene-0.11-mRNA-1-transcript-offset:66-AED:0.13-eAED:0.13-QI:66|0.77|0.73|1|0.83|0.89|19|0|700	.	-	2	super2704	455757	608973	all_VO_L_52879_T_15/25	.	-	111199	153216	0.725335474102
scaffold58601	211934	214752	er-jcf7180062811329-augustus-gene-0.0-mRNA-1-transcript-offset:54-AED:0.09-eAED:0.14-QI:54|1|0.5|1|0|0|4|0|191	.	-	2	scaffold58601	173057	214728	all_VO_L_14200_T_2/2	.	-	2818	41671	0.0670490269012
scaffold190889	54088	56031	er-jcf7180063138343-snap-gene-0.10-mRNA-1-transcript-offset:0-AED:0.13-eAED:0.13-QI:0|0|0|1|0|0|2|0|582	.	+	2	scaffold190889	54412	56774	all_VO_L_83545_T_6/11	.	+	1943	2362	0.685436071126
scaffold211499	64846	66004	ustus_masked-jcf7180063105032-processed-gene-0.0-mRNA-1-transcript-offset:0-AED:0.15-eAED:0.15-QI:0|0|0|1|1|1|2|0|331	.	-	1	scaffold211499	58866	65601	g678752;COMP	.	-	1158	6735	0.112100965108
scaffold108250	144322	145380	er-jcf7180062818812-snap-gene-0.2-mRNA-1-transcript-offset:0-AED:0.05-eAED:0.05-QI:0|0|0|1|0|0|3|0|335	.	-	1	scaffold108250	144447	146172	g55441;COMP	.	-	1058	1725	0.540869565217
scaffold74263	198221	202352	er-jcf7180062690745-snap-gene-0.3-mRNA-1-transcript-offset:0-AED:0.07-eAED:0.07-QI:0|0.33|0|0.5|0.66|0.75|4|0|333	.	-	2	scaffold74263	121330	202334	I22_VO_L_23385_T_3/4	.	-	4131	81004	0.050775270357
scaffold5367	40370	52792	er-jcf7180063205260-snap-gene-1.23-mRNA-1-transcript-offset:0-AED:0.13-eAED:0.13-QI:0|0.57|0.37|0.75|0.42|0.37|8|0|316	.	+	2	scaffold5367	49537	166583	all_VO_L_193435_T_8/13	.	+	12422	117046	0.0278095791398
scaffold172971	33012	34232	er-jcf7180062959085-snap-gene-0.4-mRNA-1-transcript-offset:0-AED:0.19-eAED:0.19-QI:0|0|0|0.66|0.5|0.66|3|0|162	.	-	1	scaffold172971	31117	33481	g35895;COMP	.	-	1220	2364	0.198392554992
scaffold84212	57697	58929	er-jcf7180062968415-augustus-gene-0.2-mRNA-1-transcript-offset:0-AED:0.17-eAED:0.17-QI:0|0|0|0.66|1|1|3|0|190	.	+	1	scaffold84212	20355	58559	g70804;COMP	.	+	1232	38204	0.0225630823997
C4638365	17732	18506	p_masked-jcf7180063228484-processed-gene-11.23-mRNA-1-transcript-offset:0-AED:0.14-eAED:0.14-QI:0|0|0|0.5|1|1|2|0|226	.	+	1	C4638365	17943	18682	g824038;COMP	.	+	774	739	0.761840324763
scaffold68743	10192	32156	er-jcf7180062991322-augustus-gene-0.2-mRNA-1-transcript-offset:0-AED:0.10-eAED:0.10-QI:0|0.8|0.66|0.83|0.2|0.16|6|0|281	.	+	1	scaffold68743	28798	66982	g285803;COMP	.	+	21964	38184	0.0879425937565
scaffold222229	29058	40087	er-jcf7180063109288-augustus-gene-0.4-mRNA-1-transcript-offset:0-AED:0.11-eAED:0.11-QI:0|0|0|1|1|1|2|0|319	.	-	1	scaffold222229	39635	47340	g820525;COMP	.	-	11029	7705	0.0586632057106
scaffold202324	158247	158943	er-jcf7180062841905-snap-gene-0.1-mRNA-1-transcript-offset:39-AED:0.15-eAED:0.21-QI:39|0|0|1|0|0|2|0|203	.	+	1	scaffold202324	158494	159849	g502891;COMP	.	+	696	1355	0.331365313653
scaffold112294	79843	92842	er-jcf7180063023164-snap-gene-0.4-mRNA-1-transcript-offset:0-AED:0.13-eAED:0.13-QI:0|0|0|0.66|0.5|0.33|3|0|210	.	-	1	scaffold112294	91795	93500	g313817;COMP	.	-	12999	1705	0.614076246334
scaffold4654	133292	136571	er-jcf7180062980299-snap-gene-0.7-mRNA-1-transcript-offset:0-AED:0.06-eAED:0.06-QI:0|0.5|0.2|0.8|0.5|0.2|5|0|580	.	-	1	scaffold4654	131039	135890	g184089;COMP	.	-	3279	4851	0.535559678417
scaffold223793	1974	20235	er-jcf7180063178200-snap-gene-0.6-mRNA-1-transcript-offset:0-AED:0.15-eAED:0.15-QI:0|0|0|0.75|0|0|4|0|456	.	-	1	scaffold223793	1484	3724	g634677;COMP	.	-	18261	2240	0.78125
scaffold193756	159425	162109	er-jcf7180062894462-snap-gene-0.5-mRNA-1-transcript-offset:9-AED:0.14-eAED:0.14-QI:9|0|0|1|1|1|2|0|708	.	-	1	scaffold193756	157841	162067	g506989;COMP	.	-	2684	4226	0.625177472788
scaffold104356	3146	9156	er-jcf7180063012800-snap-gene-0.2-mRNA-1-transcript-offset:0-AED:0.08-eAED:0.08-QI:0|0|0|0.5|1|0.5|2|0|176	.	-	1	scaffold104356	1853	7204	g868394;COMP	.	-	6010	5351	0.758362922818
scaffold12784	302645	303959	p_masked-jcf7180063206304-processed-gene-0.3-mRNA-1-transcript-offset:0-AED:0.14-eAED:0.23-QI:0|0|0|0.5|1|1|2|0|216	.	-	3	scaffold12784	303264	304307	370_f1p1_1163	.	-	1314	1043	0.666347075743
C4531331	6023	6821	er-jcf7180063207327-augustus-gene-3.17-mRNA-1-transcript-offset:0-AED:0.18-eAED:0.35-QI:0|0|0|1|0|0.5|2|0|234	.	+	1	C4531331	3985	6664	g531665.2;COMP	.	+	798	2679	0.239268383725
scaffold103142	116660	122713	er-jcf7180063136380-snap-gene-0.4-mRNA-1-transcript-offset:6-AED:0.15-eAED:0.19-QI:6|0.14|0|0.87|0.28|0.12|8|0|613	.	-	1	scaffold103142	69410	122707	g251958;COMP	.	-	6053	53297	0.113458543633
scaffold186689	72147	114153	er-jcf7180062991311-augustus-gene-0.12-mRNA-1-transcript-offset:0-AED:0.19-eAED:0.19-QI:0|0.84|0.64|1|0.92|0.85|14|0|990	.	-	1	scaffold186689	71609	74641	g616816;COMP	.	-	42006	3032	0.822559366755
scaffold81306	66224	68887	ustus_masked-jcf7180063031317-processed-gene-0.0-mRNA-1-transcript-offset:0-AED:0.16-eAED:0.16-QI:0|0.57|0.37|1|1|1|8|0|515	.	+	1	scaffold81306	66242	76222	g143512;COMP	.	+	2663	9980	0.26503006012
scaffold161369	232468	233803	er-jcf7180062514708-augustus-gene-0.4-mRNA-1-transcript-offset:12-AED:0.03-eAED:0.03-QI:12|0|0|1|0|0|2|0|389	.	+	1	scaffold161369	232480	236567	g35333;COMP	.	+	1335	4087	0.323709322241
super385	308266	443223	er-jcf7180063199062-snap-gene-0.3-mRNA-1-transcript-offset:0-AED:0.18-eAED:0.18-QI:0|0|0|0.75|0|0.25|4|0|205	.	-	3	super385	443057	443398	104_f3p1_2165	.	-	134957	341	0.486803519062
super385	308266	443223	er-jcf7180063199062-snap-gene-0.3-mRNA-1-transcript-offset:0-AED:0.18-eAED:0.18-QI:0|0|0|0.75|0|0.25|4|0|205	.	-	1	super385	178122	309454	g114364;COMP	.	-	134957	131332	0.00904577711449
scaffold55673	24173	25525	er-jcf7180063076222-snap-gene-0.2-mRNA-1-transcript-offset:87-AED:0.07-eAED:0.07-QI:87|0.5|0|1|0.5|0.33|3|0|212	.	-	1	scaffold55673	23905	25438	g219487;COMP	.	-	1352	1533	0.825179386823
scaffold127154	70642	71548	er-jcf7180063034214-snap-gene-0.4-mRNA-1-transcript-offset:0-AED:0.05-eAED:0.23-QI:0|0|0|1|0|0|4|0|262	.	-	1	scaffold127154	70170	70770	g24151;COMP	.	-	906	600	0.213333333333
scaffold222199	16768	26681	ustus_masked-jcf7180062958268-processed-gene-0.0-mRNA-1-transcript-offset:0-AED:0.19-eAED:0.19-QI:0|0|0|0.5|1|1|2|0|155	.	-	1	scaffold222199	15682	17301	g822461;COMP	.	-	9913	1619	0.329215565164
scaffold12573	119154	121266	er-jcf7180063032057-snap-gene-0.3-mRNA-1-transcript-offset:0-AED:0.10-eAED:0.10-QI:0|0.25|0|1|0|0|5|0|409	.	+	1	scaffold12573	119896	121544	g307873;COMP	.	+	2112	1648	0.831310679612
scaffold188087	33512	35784	er-jcf7180063012559-snap-gene-0.6-mRNA-1-transcript-offset:24-AED:0.12-eAED:0.12-QI:24|0.5|0.4|1|0.75|0.6|5|0|390	.	-	1	scaffold188087	30662	35760	g684352;COMP	.	-	2272	5098	0.440957238133
scaffold103998	28661	55955	er-jcf7180060016272-augustus-gene-0.2-mRNA-1-transcript-offset:0-AED:0.16-eAED:0.16-QI:0|0|0|1|0|0|2|0|175	.	+	1	scaffold103998	55791	57407	g874052;COMP	.	+	27294	1616	0.101485148515
scaffold103998	28661	55955	er-jcf7180060016272-augustus-gene-0.2-mRNA-1-transcript-offset:0-AED:0.16-eAED:0.16-QI:0|0|0|1|0|0|2|0|175	.	+	2	scaffold103998	55791	57407	I16_VO_L_2_T_16883/60890	.	+	27294	1616	0.101485148515
scaffold153891	47409	48076	er-jcf7180063039716-snap-gene-0.4-mRNA-1-transcript-offset:0-AED:0.13-eAED:0.27-QI:0|0|0|1|0|0|2|0|186	.	-	1	scaffold153891	46150	47639	g498053;COMP	.	-	667	1489	0.154466084621
scaffold60797	15994	40093	er-jcf7180063000860-snap-gene-0.3-mRNA-1-transcript-offset:0-AED:0.05-eAED:0.05-QI:0|0|0|0.5|1|1|2|0|254	.	-	1	scaffold60797	39347	42610	g290628;COMP	.	-	24099	3263	0.228623965676
C4805851	26113	27751	er-jcf7180062593530-snap-gene-0.3-mRNA-1-transcript-offset:0-AED:0.09-eAED:0.09-QI:0|0|0|1|0|0|3|0|380	.	-	1	C4805851	27122	29028	g519782;COMP	.	-	1638	1906	0.330010493179
super2212	94352	95625	er-jcf7180063149690-snap-gene-0.5-mRNA-1-transcript-offset:0-AED:0.02-eAED:0.02-QI:0|0.5|0|1|0.5|0.33|3|0|231	.	-	3	super2212	24084	95622	972_f1p1_1212	.	-	1273	71538	0.0177528027063
super2212	94352	95625	er-jcf7180063149690-snap-gene-0.5-mRNA-1-transcript-offset:0-AED:0.02-eAED:0.02-QI:0|0.5|0|1|0.5|0.33|3|0|231	.	-	3	super2212	24084	94807	23_f1p0_1065	.	-	1273	70723	0.00643355061295
scaffold211506	63703	66057	er-jcf7180063003144-snap-gene-0.6-mRNA-1-transcript-offset:0-AED:0.16-eAED:0.16-QI:0|0.25|0|0.6|0.75|0.6|5|0|606	.	+	1	scaffold211506	64059	66954	g639744;COMP	.	+	2354	2895	0.690155440415
scaffold84568	130047	131063	er-jcf7180063199678-snap-gene-0.9-mRNA-1-transcript-offset:0-AED:0.18-eAED:0.18-QI:0|0|0|1|0.66|0.5|4|0|257	.	-	1	scaffold84568	130851	131362	g856350;COMP	.	-	1016	511	0.414872798434
scaffold8471	14151	15860	ustus_masked-jcf7180063187330-processed-gene-0.0-mRNA-1-transcript-offset:0-AED:0.19-eAED:0.19-QI:0|0|0|1|1|1|3|0|402	.	-	1	scaffold8471	6797	15126	g303243;COMP	.	-	1709	8329	0.117060871653
scaffold8471	14151	15860	ustus_masked-jcf7180063187330-processed-gene-0.0-mRNA-1-transcript-offset:0-AED:0.19-eAED:0.19-QI:0|0|0|1|1|1|3|0|402	.	-	1	scaffold8471	15268	16118	g303244;COMP	.	-	1709	850	0.696470588235
super2350	52214	53724	er-jcf7180062878947-augustus-gene-0.4-mRNA-1-transcript-offset:42-AED:0.02-eAED:0.02-QI:42|1|0.75|1|1|1|4|0|331	.	+	1	super2350	52256	236376	g360577;COMP	.	+	1510	184120	0.00797306104714
scaffold27363	98197	137889	er-jcf7180063198400-augustus-gene-0.9-mRNA-1-transcript-offset:57-AED:0.19-eAED:0.19-QI:57|0.83|0.85|1|0.5|0.71|7|0|296	.	+	1	scaffold27363	98254	253349	g243098;COMP	.	+	39692	155095	0.255553048132
super2065	383753	387090	er-jcf7180062962796-snap-gene-0.3-mRNA-1-transcript-offset:3-AED:0.15-eAED:0.15-QI:3|0.33|0.14|0.85|0.5|0.42|7|0|336	.	-	3	super2065	344745	384972	22_f1p1_1103	.	-	3337	40227	0.030303030303
super273	144371	177473	er-jcf7180062991101-snap-gene-0.5-mRNA-1-transcript-offset:0-AED:0.06-eAED:0.09-QI:0|0.25|0|0.8|0.25|0.4|5|0|925	.	-	1	super273	50634	176205	g895723;COMP	.	-	33102	125571	0.253513948284
scaffold131922	22386	23013	er-jcf7180063008685-snap-gene-0.3-mRNA-1-transcript-offset:45-AED:0.12-eAED:0.22-QI:45|0|0|1|0|0.66|3|0|128	.	+	1	scaffold131922	14572	22670	g523694;COMP	.	+	627	8098	0.0350703877501
scaffold68937	74677	84529	er-jcf7180062968661-snap-gene-0.11-mRNA-1-transcript-offset:15-AED:0.08-eAED:0.08-QI:15|0.5|0.4|0.6|0.75|0.8|5|0|225	.	+	1	scaffold68937	74692	130151	g442600;COMP	.	+	9852	55459	0.177374276493
super513	13448	26540	er-jcf7180063198679-augustus-gene-0.3-mRNA-1-transcript-offset:0-AED:0.10-eAED:0.10-QI:0|1|0.6|1|1|1|5|0|317	.	+	3	super513	26430	175437	411_f1p0_1211	.	+	13092	149007	0.000738220352064
super3117	12961	16928	er-jcf7180063030791-snap-gene-0.6-mRNA-1-transcript-offset:0-AED:0.09-eAED:0.09-QI:0|0|0|0.66|0|0.66|3|0|279	.	+	1	super3117	13347	23996	g499716;COMP	.	+	3967	10649	0.336275706639
scaffold9586	40372	42945	er-jcf7180063022327-snap-gene-0.5-mRNA-1-transcript-offset:9-AED:0.14-eAED:0.14-QI:9|0.75|0.4|0.8|0.5|0.6|5|0|298	.	+	1	scaffold9586	40453	48162	g168206;COMP	.	+	2573	7709	0.323258528992
scaffold28211	37820	40756	er-jcf7180059712239-snap-gene-0.3-mRNA-1-transcript-offset:0-AED:0.18-eAED:0.19-QI:0|0|0|0.85|0.5|0.71|7|0|373	.	+	1	scaffold28211	12622	39516	g155873;COMP	.	+	2936	26894	0.0630623930988
scaffold123687	4818	21251	ustus_masked-jcf7180063194689-processed-gene-0.1-mRNA-1-transcript-offset:0-AED:0.11-eAED:0.12-QI:0|0|0|0.5|1|1|2|0|175	.	-	2	scaffold123687	20790	21353	I12_VO_L_45382_T_1/2	.	-	16433	563	0.818827708703
scaffold50189	426289	492075	er-jcf7180062973848-snap-gene-0.8-mRNA-1-transcript-offset:0-AED:0.15-eAED:0.15-QI:0|0|0|1|0|0.33|3|0|332	.	+	1	scaffold50189	476571	558440	g177108;COMP	.	+	65786	81869	0.189375709976
scaffold186	92520	92997	er-jcf7180062778982-snap-gene-0.3-mRNA-1-transcript-offset:0-AED:0.14-eAED:0.14-QI:0|0|0|1|0|0|2|0|152	.	+	1	scaffold186	83529	92777	g620695;COMP	.	+	477	9248	0.0277897923875
super1191	30186	207803	er-jcf7180063205007-snap-gene-0.6-mRNA-1-transcript-offset:0-AED:0.13-eAED:0.13-QI:0|0|0|1|0.14|0.25|8|0|668	.	+	1	super1191	196513	267695	g430053;COMP	.	+	177617	71182	0.158607513135
scaffold38441	320165	388644	er-jcf7180063182949-snap-gene-0.8-mRNA-1-transcript-offset:0-AED:0.07-eAED:0.07-QI:0|0.6|0.33|0.83|0.2|0.33|6|0|240	.	+	2	scaffold38441	320225	539021	I11_VO_L_3515_T_19/27	.	+	68479	218796	0.312706813653
C4540527	8563	11039	ustus_masked-jcf7180062897899-processed-gene-0.0-mRNA-1-transcript-offset:54-AED:0.08-eAED:0.11-QI:54|0|0|0.5|1|1|2|0|696	.	+	1	C4540527	164	10827	g478465;COMP	.	+	2476	10663	0.212322986026
super1644	8535	14962	er-jcf7180063071127-snap-gene-0.1-mRNA-1-transcript-offset:9-AED:0.19-eAED:0.21-QI:9|0|0|0.66|0|0.33|3|0|123	.	-	1	super1644	14215	158530	g315883;COMP	.	-	6427	144315	0.00517617711257
super63	92278	230407	er-jcf7180063200383-snap-gene-0.14-mRNA-1-transcript-offset:0-AED:0.19-eAED:0.19-QI:0|0.81|0.76|0.97|0.54|0.55|34|0|1443	.	+	1	super63	39624	230254	g443214.1;COMP	.	+	138129	190630	0.723789539946
C4926785	28207	29348	er-jcf7180063177940-snap-gene-0.2-mRNA-1-transcript-offset:6-AED:0.12-eAED:0.12-QI:6|0|0|1|0|0|2|0|194	.	+	1	C4926785	24424	28905	g600159;COMP	.	+	1141	4481	0.155768801607
scaffold64557	192588	193338	er-jcf7180062873545-snap-gene-0.3-mRNA-1-transcript-offset:0-AED:0.15-eAED:0.15-QI:0|0|0|1|0|0|3|0|112	.	+	1	scaffold64557	192273	193204	g340445;COMP	.	+	750	931	0.661654135338
scaffold70001	9179	12973	er-jcf7180059890873-snap-gene-0.4-mRNA-1-transcript-offset:0-AED:0.17-eAED:0.17-QI:0|0|0|0.42|0.83|0.85|7|0|843	.	-	1	scaffold70001	7802	11739	g309854;COMP	.	-	3794	3937	0.650241300483
C4715433	13513	14785	er-jcf7180063066788-snap-gene-0.3-mRNA-1-transcript-offset:0-AED:0.12-eAED:0.12-QI:0|0|0|1|0|0|2|0|350	.	+	1	C4715433	14291	16231	g663258;COMP	.	+	1272	1940	0.254639175258
super134	48463	97302	er-jcf7180063044181-snap-gene-0.2-mRNA-1-transcript-offset:0-AED:0.11-eAED:0.11-QI:0|0|0|0.8|0|0.2|5|0|180	.	+	1	super134	48466	145617	g835804;COMP	.	+	48839	97151	0.502681392883
C5071585	3136	9704	er-jcf7180062649007-snap-gene-0.1-mRNA-1-transcript-offset:24-AED:0.12-eAED:0.20-QI:24|0|0|1|0|0|3|0|276	.	+	1	C5071585	9112	35438	g379834;COMP	.	+	6568	26326	0.0224872749373
scaffold87247	76947	96616	er-jcf7180062988715-snap-gene-0.5-mRNA-1-transcript-offset:0-AED:0.03-eAED:0.03-QI:0|0|0|1|0|0|2|0|339	.	-	1	scaffold87247	95600	106712	g862246;COMP	.	-	19669	11112	0.0914326853852
scaffold216200	26076	29685	er-jcf7180062548435-snap-gene-0.4-mRNA-1-transcript-offset:0-AED:0.16-eAED:0.16-QI:0|0.5|0.2|0.6|0.5|0.4|5|0|384	.	+	1	scaffold216200	23252	29590	g504953;COMP	.	+	3609	6338	0.55443357526
scaffold58062	95095	125237	er-jcf7180063012205-snap-gene-0.8-mRNA-1-transcript-offset:0-AED:0.13-eAED:0.26-QI:0|0.28|0.12|1|0.42|0.25|8|0|543	.	-	1	scaffold58062	85632	97392	g112861;COMP	.	-	30142	11760	0.195323129252
scaffold13431	128897	194703	ustus_masked-jcf7180062947991-processed-gene-0.1-mRNA-1-transcript-offset:0-AED:0.08-eAED:0.10-QI:0|0|0|1|1|1|2|0|335	.	+	1	scaffold13431	190814	262586	g850321;COMP	.	+	65806	71772	0.0541854762303
scaffold10568	195699	218266	p_masked-jcf7180063200537-processed-gene-0.2-mRNA-1-transcript-offset:0-AED:0.14-eAED:0.14-QI:0|0.5|0.28|0.57|1|1|7|0|171	.	-	1	scaffold10568	151126	204689	g393648;COMP	.	-	22567	53563	0.167839740119
scaffold122797	254470	255289	ustus_masked-jcf7180063014784-processed-gene-0.0-mRNA-1-transcript-offset:0-AED:0.05-eAED:0.05-QI:0|0|0|0.5|1|1|2|0|205	.	-	1	scaffold122797	46788	255208	g836626;COMP	.	-	819	208420	0.00354092697438
scaffold6047	105827	106396	p_masked-jcf7180063177581-processed-gene-0.1-mRNA-1-transcript-offset:0-AED:0.06-eAED:0.07-QI:0|0|0|0.5|1|1|2|0|115	.	-	1	scaffold6047	104474	106387	g449654;COMP	.	-	569	1913	0.292733925771
C4709343	9365	10555	p_masked-jcf7180063029452-processed-gene-0.1-mRNA-1-transcript-offset:0-AED:0.13-eAED:0.17-QI:0|0|0|0.5|1|1|2|0|181	.	+	2	C4709343	8387	9919	I18_VO_L_46635_T_10/12	.	+	1190	1532	0.361618798956
scaffold81342	119335	121267	p_masked-jcf7180063154377-processed-gene-0.2-mRNA-1-transcript-offset:0-AED:0.14-eAED:0.14-QI:0|0|0|0.75|1|1|4|0|336	.	-	1	scaffold81342	118708	120714	g239659;COMP	.	-	1932	2006	0.687437686939
scaffold228308	34687	37819	er-jcf7180063173577-snap-gene-0.3-mRNA-1-transcript-offset:0-AED:0.18-eAED:0.30-QI:0|0|0|0.66|0.2|0.5|6|0|349	.	-	1	scaffold228308	33917	34753	g39457;COMP	.	-	3132	836	0.0789473684211
super1550	146034	183674	er-jcf7180063115787-snap-gene-0.6-mRNA-1-transcript-offset:0-AED:0.13-eAED:0.13-QI:0|0|0|1|0|0|2|0|133	.	-	1	super1550	4233	146243	g58080.1;COMP	.	-	37640	142010	0.00147172734314
scaffold229545	76045	77456	er-jcf7180063004757-snap-gene-0.3-mRNA-1-transcript-offset:0-AED:0.16-eAED:0.23-QI:0|0|0|1|0.33|0.25|4|0|300	.	+	1	scaffold229545	76487	93630	g569230;COMP	.	+	1411	17143	0.0565245289623
scaffold80746	124523	125474	er-jcf7180063087543-snap-gene-0.2-mRNA-1-transcript-offset:51-AED:0.14-eAED:0.20-QI:51|0|0|1|0|0|2|0|222	.	+	1	scaffold80746	125379	127960	g165244;COMP	.	+	951	2581	0.0368074389771
scaffold80746	124523	125474	er-jcf7180063087543-snap-gene-0.2-mRNA-1-transcript-offset:51-AED:0.14-eAED:0.20-QI:51|0|0|1|0|0|2|0|222	.	+	1	scaffold80746	123924	125302	g165243;COMP	.	+	951	1378	0.565312046444
super2400	931388	955076	er-jcf7180063037769-snap-gene-0.5-mRNA-1-transcript-offset:0-AED:0.11-eAED:0.11-QI:0|0.66|0.25|1|0|0|4|0|291	.	-	1	super2400	943936	1002221	g351772;COMP	.	-	23688	58285	0.191129793257
C4496681	966	2793	er-jcf7180063044698-snap-gene-0.7-mRNA-1-transcript-offset:0-AED:0.18-eAED:0.19-QI:0|0|0|1|0|0.25|4|0|400	.	+	1	C4496681	972	4179	g646948;COMP	.	+	1827	3207	0.567820392891
scaffold62084	91525	135204	er-jcf7180062535908-snap-gene-0.2-mRNA-1-transcript-offset:33-AED:0.06-eAED:0.06-QI:33|0.71|0.5|0.75|0.28|0.5|8|0|395	.	-	1	scaffold62084	32894	135171	g433390;COMP	.	-	43679	102277	0.426743060512
scaffold148072	267676	269975	er-jcf7180063153600-snap-gene-0.5-mRNA-1-transcript-offset:0-AED:0.16-eAED:0.16-QI:0|0.66|0.25|0.75|0.66|0.75|4|0|474	.	-	2	scaffold148072	267690	271093	I11_VO_L_1_T_167059/226447	.	-	2299	3403	0.671466353218
scaffold144406	19277	20056	er-jcf7180063189043-snap-gene-0.5-mRNA-1-transcript-offset:0-AED:0.10-eAED:0.10-QI:0|0|0|0.5|0|0|2|0|260	.	+	1	scaffold144406	19349	23977	g759924;COMP	.	+	779	4628	0.152765773552
scaffold143439	21483	28337	er-jcf7180063126888-snap-gene-0.1-mRNA-1-transcript-offset:0-AED:0.19-eAED:0.19-QI:0|0|0|1|0|0|2|0|241	.	-	1	scaffold143439	25632	28956	g472491;COMP	.	-	6854	3324	0.813778580024
scaffold143439	21483	28337	er-jcf7180063126888-snap-gene-0.1-mRNA-1-transcript-offset:0-AED:0.19-eAED:0.19-QI:0|0|0|1|0|0|2|0|241	.	-	1	scaffold143439	19512	22358	g472490;COMP	.	-	6854	2846	0.3074490513
scaffold223272	69066	70410	er-jcf7180063100476-snap-gene-0.5-mRNA-1-transcript-offset:0-AED:0.04-eAED:0.04-QI:0|0|0|0.66|1|1|3|0|425	.	-	1	scaffold223272	38943	70251	g39808;COMP	.	-	1344	31308	0.0378497508624
scaffold101223	25219	27230	er-jcf7180063148472-snap-gene-0.4-mRNA-1-transcript-offset:0-AED:0.10-eAED:0.10-QI:0|0|0|0.66|0.5|1|3|0|205	.	+	1	scaffold101223	26638	27353	g380091;COMP	.	+	2011	715	0.827972027972
scaffold62950	155488	221513	er-jcf7180063007621-snap-gene-0.2-mRNA-1-transcript-offset:0-AED:0.18-eAED:0.18-QI:0|0|0|0.5|0.33|0.25|4|0|131	.	+	1	scaffold62950	1118	221391	g215138;COMP	.	+	66025	220273	0.299187826016
scaffold104631	24495	25539	er-jcf7180063059697-snap-gene-0.4-mRNA-1-transcript-offset:0-AED:0.13-eAED:0.13-QI:0|1|0|1|1|0.5|2|0|315	.	-	1	scaffold104631	6959	25494	g283522;COMP	.	-	1044	18535	0.0538980307526
scaffold186184	14634	21940	p_masked-jcf7180063150234-processed-gene-0.1-mRNA-1-transcript-offset:0-AED:0.12-eAED:0.12-QI:0|0|0|0.33|1|1|3|0|165	.	+	1	scaffold186184	20935	52373	g741818;COMP	.	+	7306	31438	0.0319676824225
super1705	162835	181981	ustus_masked-jcf7180062952064-processed-gene-0.3-mRNA-1-transcript-offset:0-AED:0.10-eAED:0.10-QI:0|0|0|0.33|1|1|3|0|276	.	+	3	super1705	163303	251573	732_f1p1_1309	.	+	19146	88270	0.211600770364
super1705	162835	181981	ustus_masked-jcf7180062952064-processed-gene-0.3-mRNA-1-transcript-offset:0-AED:0.10-eAED:0.10-QI:0|0|0|0.33|1|1|3|0|276	.	+	3	super1705	162982	251573	451_f1p2_1429	.	+	19146	88591	0.214457450531
super320	256716	264966	ustus_masked-jcf7180062996325-processed-gene-0.0-mRNA-1-transcript-offset:21-AED:0.17-eAED:0.22-QI:21|0|0|1|1|1|3|0|420	.	-	1	super320	256335	257934	g404782;COMP	.	-	8250	1599	0.761726078799
super320	256716	264966	ustus_masked-jcf7180062996325-processed-gene-0.0-mRNA-1-transcript-offset:21-AED:0.17-eAED:0.22-QI:21|0|0|1|1|1|3|0|420	.	-	1	super320	264352	265362	g404783;COMP	.	-	8250	1010	0.607920792079
scaffold21014	283340	283904	er-jcf7180063141205-snap-gene-0.5-mRNA-1-transcript-offset:30-AED:0.03-eAED:0.03-QI:30|1|0|1|1|0.5|2|0|133	.	-	1	scaffold21014	283172	283874	g160326;COMP	.	-	564	702	0.760683760684
scaffold69218	99628	119802	er-jcf7180063194242-snap-gene-0.3-mRNA-1-transcript-offset:0-AED:0.09-eAED:0.09-QI:0|0|0|0.25|0.66|0.75|4|0|462	.	+	1	scaffold69218	97834	100842	g181589;COMP	.	+	20174	3008	0.403590425532
scaffold111783	17958	38066	er-jcf7180063015042-snap-gene-0.7-mRNA-1-transcript-offset:0-AED:0.07-eAED:0.07-QI:0|0|0|1|0|0|2|0|975	.	+	2	scaffold111783	36660	69528	I4_VO_L_1_T_109398/124638	.	+	20108	32868	0.0427771692832
super2241	384640	386458	er-jcf7180062952622-augustus-gene-1.16-mRNA-1-transcript-offset:0-AED:0.05-eAED:0.05-QI:0|0.5|0|1|1|0.66|3|0|507	.	-	3	super2241	265245	385447	548_f1p0_1116	.	-	1818	120202	0.00671369860734
scaffold23908	74610	77609	er-jcf7180063045214-snap-gene-0.3-mRNA-1-transcript-offset:0-AED:0.08-eAED:0.12-QI:0|0|0|1|0.25|0|5|0|883	.	+	1	scaffold23908	60006	77493	g871823;COMP	.	+	2999	17487	0.16486532853
scaffold20100	98891	99348	er-jcf7180063144023-snap-gene-0.3-mRNA-1-transcript-offset:0-AED:0.13-eAED:0.26-QI:0|0|0|1|0|0.5|2|0|118	.	+	1	scaffold20100	99082	102058	g330585;COMP	.	+	457	2976	0.0893817204301
C4558773	1204	2119	er-jcf7180063212886-snap-gene-0.0-mRNA-1-transcript-offset:0-AED:0.11-eAED:0.15-QI:0|0|0|1|0|0|3|0|139	.	+	1	C4558773	1436	16199	g468459;COMP	.	+	915	14763	0.0462643094222
scaffold53467	141357	142717	er-jcf7180062664856-snap-gene-0.1-mRNA-1-transcript-offset:0-AED:0.14-eAED:0.38-QI:0|0|0|1|0|0|4|0|244	.	+	1	scaffold53467	142171	142822	g371762;COMP	.	+	1360	651	0.838709677419
scaffold12521	104610	106106	er-jcf7180063010050-snap-gene-0.4-mRNA-1-transcript-offset:0-AED:0.12-eAED:0.16-QI:0|0.5|0.4|1|0.25|0.6|5|0|373	.	+	1	scaffold12521	100244	105809	g432149;COMP	.	+	1496	5565	0.215453728661
scaffold160441	57951	59902	er-jcf7180062873947-augustus-gene-0.4-mRNA-1-transcript-offset:0-AED:0.16-eAED:0.16-QI:0|0.5|0|0.66|0.5|0.33|3|0|284	.	+	1	scaffold160441	59204	64918	g734587;COMP	.	+	1951	5714	0.122156107805
C5151711	486	5780	er-jcf7180063217070-snap-gene-0.10-mRNA-1-transcript-offset:0-AED:0.12-eAED:0.29-QI:0|0.11|0|1|0.22|0.2|10|0|1132	.	-	1	C5151711	3490	21523	g195241;COMP	.	-	5294	18033	0.126989408307
scaffold40247	128678	155639	er-jcf7180062526436-augustus-gene-0.1-mRNA-1-transcript-offset:0-AED:0.06-eAED:0.06-QI:0|0|0|0.5|0|0.5|2|0|411	.	-	1	scaffold40247	128372	130103	g440701;COMP	.	-	26961	1731	0.823223570191
scaffold40247	128678	155639	er-jcf7180062526436-augustus-gene-0.1-mRNA-1-transcript-offset:0-AED:0.06-eAED:0.06-QI:0|0|0|0.5|0|0.5|2|0|411	.	-	2	scaffold40247	128372	130103	all_VO_L_180686_T_2/3	.	-	26961	1731	0.823223570191
C4839767	9736	12774	er-jcf7180062568386-snap-gene-0.3-mRNA-1-transcript-offset:45-AED:0.16-eAED:0.19-QI:45|0|0|1|0|0.22|9|0|550	.	-	1	C4839767	12553	13136	g560421;COMP	.	-	3038	583	0.379073756432
scaffold28121	25181	26398	er-jcf7180062925336-snap-gene-0.2-mRNA-1-transcript-offset:0-AED:0.18-eAED:0.20-QI:0|0|0|1|0|0|3|0|297	.	-	1	scaffold28121	25898	27832	g403046;COMP	.	-	1217	1934	0.258531540848
scaffold123239	117252	129373	er-jcf7180063043891-snap-gene-0.2-mRNA-1-transcript-offset:0-AED:0.09-eAED:0.09-QI:0|0|0|1|0|0|4|0|552	.	-	1	scaffold123239	129041	140120	g457482;COMP	.	-	12121	11079	0.0299666034841
scaffold132641	40306	41713	er-jcf7180063212914-augustus-gene-0.2-mRNA-1-transcript-offset:18-AED:0.09-eAED:0.09-QI:18|1|0.83|1|0.8|0.83|6|0|274	.	-	1	scaffold132641	39757	41695	g462226;COMP	.	-	1407	1938	0.716718266254
scaffold59959	220808	223426	er-jcf7180062952782-snap-gene-0.5-mRNA-1-transcript-offset:0-AED:0.16-eAED:0.16-QI:0|0|0|0.5|0|1|2|0|258	.	+	1	scaffold59959	206710	221722	g177940.1;COMP	.	+	2618	15012	0.0608846256328
scaffold229580	101675	107958	er-jcf7180062679029-snap-gene-0.3-mRNA-1-transcript-offset:0-AED:0.09-eAED:0.17-QI:0|0|0|1|0|0|4|0|406	.	-	1	scaffold229580	107238	120942	g523105;COMP	.	-	6283	13704	0.0525394045534
super2541	91879	143138	er-jcf7180063204924-snap-gene-0.6-mRNA-1-transcript-offset:0-AED:0.12-eAED:0.13-QI:0|0|0|1|0|0.33|3|0|406	.	+	2	super2541	142665	143318	I15_VO_L_1_T_93621/133144	.	+	51259	653	0.724349157734
super3557	354100	362012	er-jcf7180063012533-snap-gene-0.3-mRNA-1-transcript-offset:0-AED:0.16-eAED:0.16-QI:0|0.4|0.16|0.5|0.8|0.83|6|0|217	.	+	1	super3557	346667	361940	g620205;COMP	.	+	7912	15273	0.51332416683
super2582	54006	136793	er-jcf7180063217446-augustus-gene-0.1-mRNA-1-transcript-offset:0-AED:0.14-eAED:0.15-QI:0|0|0|1|1|0.5|2|0|622	.	-	1	super2582	135483	154624	g844990;COMP	.	-	82787	19141	0.0684394754715
scaffold8260	26182	36817	er-jcf7180063071159-snap-gene-0.7-mRNA-1-transcript-offset:0-AED:0.12-eAED:0.22-QI:0|0.4|0.16|1|0.2|0.16|6|0|445	.	-	1	scaffold8260	36247	37260	g281810;COMP	.	-	10635	1013	0.562685093781
scaffold50401	68528	69761	er-jcf7180063164989-snap-gene-0.4-mRNA-1-transcript-offset:0-AED:0.16-eAED:0.16-QI:0|0.5|0.33|0.66|0.5|0.33|3|0|256	.	-	1	scaffold50401	67298	69468	g374749;COMP	.	-	1233	2170	0.433179723502
scaffold115403	4261	8294	ustus_masked-jcf7180063102241-processed-gene-0.0-mRNA-1-transcript-offset:0-AED:0.13-eAED:0.15-QI:0|0.2|0|1|1|1|6|0|844	.	-	1	scaffold115403	3803	5280	g303851;COMP	.	-	4033	1477	0.689911983751
scaffold15598	55629	58084	er-jcf7180062308940-snap-gene-0.10-mRNA-1-transcript-offset:0-AED:0.08-eAED:0.10-QI:0|0|0|0.8|0|0|5|0|697	.	-	2	scaffold15598	55325	55879	I13_VO_L_1_T_131875/181601	.	-	2455	554	0.451263537906
scaffold217213	15373	29410	er-jcf7180063088040-snap-gene-0.3-mRNA-1-transcript-offset:0-AED:0.18-eAED:0.25-QI:0|0|0|0.6|0.5|0.6|5|0|217	.	+	1	scaffold217213	28979	31505	g726089;COMP	.	+	14037	2526	0.170625494854
scaffold99548	88232	94172	er-jcf7180063052603-snap-gene-0.3-mRNA-1-transcript-offset:0-AED:0.08-eAED:0.17-QI:0|0|0|0.6|0|0|5|0|651	.	-	1	scaffold99548	87742	88891	g245996;COMP	.	-	5940	1149	0.573542210618
scaffold118017	58452	59137	er-jcf7180063227775-augustus-gene-1.13-mRNA-1-transcript-offset:0-AED:0.11-eAED:0.11-QI:0|0|0|1|1|1|2|0|174	.	+	1	scaffold118017	58458	59893	g427039;COMP	.	+	685	1435	0.473170731707
scaffold23860	17635	173364	ustus_masked-jcf7180063178202-processed-gene-0.0-mRNA-1-transcript-offset:0-AED:0.19-eAED:0.19-QI:0|0|0|0.2|1|1|5|0|340	.	+	1	scaffold23860	109104	236941	g199194;COMP	.	+	155729	127837	0.502671370573
scaffold29789	71429	74685	er-jcf7180063227659-snap-gene-0.4-mRNA-1-transcript-offset:0-AED:0.12-eAED:0.12-QI:0|0.66|0.57|0.85|0.66|0.71|7|0|722	.	+	1	scaffold29789	72829	75823	g851247;COMP	.	+	3256	2994	0.619906479626
scaffold1364	185197	193473	er-jcf7180063111187-snap-gene-0.4-mRNA-1-transcript-offset:0-AED:0.18-eAED:0.23-QI:0|0|0|1|0|0|4|0|421	.	+	1	scaffold1364	185248	259695	g772039;COMP	.	+	8276	74447	0.110481281986
scaffold64885	171427	189135	er-jcf7180063121830-augustus-gene-0.5-mRNA-1-transcript-offset:0-AED:0.06-eAED:0.06-QI:0|0.8|0.5|0.83|0.8|0.83|6|0|282	.	-	1	scaffold64885	38324	180512	g248734;COMP	.	-	17708	142188	0.0638942808113
scaffold193211	167	2075	er-jcf7180063185815-augustus-gene-0.3-mRNA-1-transcript-offset:0-AED:0.01-eAED:0.01-QI:0|0|0|1|1|1|2|0|486	.	+	1	scaffold193211	224	17800	g574332;COMP	.	+	1908	17576	0.105314064634
scaffold226042	111550	113647	er-jcf7180062630201-snap-gene-0.3-mRNA-1-transcript-offset:0-AED:0.08-eAED:0.21-QI:0|0|0|1|0|0.25|4|0|442	.	-	1	scaffold226042	109729	113241	g543295;COMP	.	-	2097	3512	0.481492027335
scaffold83416	94022	95383	er-jcf7180062826573-snap-gene-0.2-mRNA-1-transcript-offset:12-AED:0.04-eAED:0.04-QI:12|0|0|1|0.5|0.33|3|0|108	.	+	1	scaffold83416	94034	96409	g279845;COMP	.	+	1361	2375	0.568
scaffold46423	9041	11029	er-jcf7180063228535-snap-gene-5.76-mRNA-1-transcript-offset:0-AED:0.14-eAED:0.14-QI:0|0|0|1|0|0.5|2|0|533	.	+	2	scaffold46423	10667	90141	all_NT_comp91929_c0_seq5	.	+	1988	79474	0.00455494878828
scaffold5509	147265	150123	er-jcf7180063020155-snap-gene-0.2-mRNA-1-transcript-offset:0-AED:0.18-eAED:0.26-QI:0|0|0|1|0|0|7|0|559	.	+	1	scaffold5509	148297	152286	g391169;COMP	.	+	2858	3989	0.457758836801
scaffold16100	106182	107084	er-jcf7180062968548-snap-gene-0.1-mRNA-1-transcript-offset:0-AED:0.04-eAED:0.10-QI:0|0|0|1|0|0|3|0|287	.	+	1	scaffold16100	105415	107080	g150224;COMP	.	+	902	1665	0.539339339339
scaffold32754	146329	147348	er-jcf7180063060270-snap-gene-0.2-mRNA-1-transcript-offset:3-AED:0.09-eAED:0.11-QI:3|0|0|0.66|0.5|0.33|3|0|249	.	+	1	scaffold32754	140595	147046	g393114;COMP	.	+	1019	6451	0.111145558828
super3559	31912	32741	ustus_masked-jcf7180063044747-processed-gene-0.0-mRNA-1-transcript-offset:0-AED:0.17-eAED:0.17-QI:0|0|0|0.5|1|1|2|0|237	.	+	2	super3559	32152	32913	all_VO_L_1_T_180719/181832	.	+	829	761	0.773981603154
super3559	31912	32741	ustus_masked-jcf7180063044747-processed-gene-0.0-mRNA-1-transcript-offset:0-AED:0.17-eAED:0.17-QI:0|0|0|0.5|1|1|2|0|237	.	+	2	super3559	32455	33150	all_VO_L_10632_T_46/175	.	+	829	695	0.411510791367
scaffold50006	94080	101485	ustus_masked-jcf7180063087797-processed-gene-0.1-mRNA-1-transcript-offset:0-AED:0.11-eAED:0.11-QI:0|0|0|0.5|1|1|2|0|299	.	+	1	scaffold50006	100531	129754	g295655;COMP	.	+	7405	29223	0.0326455189406
scaffold5413	81087	82300	er-jcf7180059868829-snap-gene-0.0-mRNA-1-transcript-offset:0-AED:0.19-eAED:0.20-QI:0|0|0|1|0|0|3|0|280	.	-	1	scaffold5413	81348	83764	g438097;COMP	.	-	1213	2416	0.394039735099
super389	449215	467430	er-jcf7180063072353-snap-gene-0.3-mRNA-1-transcript-offset:9-AED:0.05-eAED:0.05-QI:9|0.5|0.33|0.66|0.5|0.66|3|0|583	.	+	1	super389	89696	451099	g114305;COMP	.	+	18215	361403	0.00521301704745
scaffold230106	28851	30559	er-jcf7180062957546-snap-gene-0.4-mRNA-1-transcript-offset:0-AED:0.11-eAED:0.13-QI:0|0|0|0.66|0|0|3|0|405	.	+	1	scaffold230106	18415	29787	g721039.1;COMP	.	+	1708	11372	0.0823074217376
super4	367740	634373	er-jcf7180063227550-snap-gene-1.20-mRNA-1-transcript-offset:0-AED:0.10-eAED:0.10-QI:0|0.71|0.62|0.75|0.57|0.5|8|0|258	.	+	1	super4	321199	405458	g303673;COMP	.	+	266633	84259	0.447643575167
scaffold23951	107137	117760	er-jcf7180063192247-snap-gene-0.3-mRNA-1-transcript-offset:0-AED:0.15-eAED:0.15-QI:0|0|0|0.5|0.33|0.25|4|0|432	.	+	1	scaffold23951	116608	118714	g100418;COMP	.	+	10623	2106	0.547008547009
scaffold34749	585750	586852	er-jcf7180063224940-snap-gene-0.3-mRNA-1-transcript-offset:0-AED:0.11-eAED:0.22-QI:0|0|0|0.66|0|0|3|0|262	.	-	1	scaffold34749	563212	586825	g61897;COMP	.	-	1102	23613	0.0455257697031
scaffold29700	39268	41792	er-jcf7180062532766-snap-gene-0.2-mRNA-1-transcript-offset:0-AED:0.16-eAED:0.33-QI:0|0|0|0.8|0.25|0.2|5|0|183	.	-	1	scaffold29700	15277	40403	g340651;COMP	.	-	2524	25126	0.0451723314495
scaffold92191	10835	20289	er-jcf7180061200449-snap-gene-0.3-mRNA-1-transcript-offset:0-AED:0.11-eAED:0.11-QI:0|0|0|0.66|0|0|3|0|261	.	+	1	scaffold92191	14169	31023	g354475;COMP	.	+	9454	16854	0.363118547526
scaffold20250	356098	387682	er-jcf7180063018828-snap-gene-0.7-mRNA-1-transcript-offset:0-AED:0.13-eAED:0.13-QI:0|0.8|0.54|0.81|0.6|0.63|11|0|875	.	+	1	scaffold20250	362418	484686	g137226.2;COMP	.	+	31584	122268	0.206628062944
scaffold44600	52464	53692	er-jcf7180063227218-snap-gene-0.17-mRNA-1-transcript-offset:21-AED:0.09-eAED:0.11-QI:21|0|0|1|1|1|2|0|244	.	-	1	scaffold44600	48850	52670	g300612;COMP	.	-	1228	3820	0.0539267015707
super1230	411176	446967	er-jcf7180063226469-snap-gene-0.5-mRNA-1-transcript-offset:0-AED:0.16-eAED:0.16-QI:0|0.5|0.2|0.8|0.25|0.6|5|0|229	.	+	1	super1230	411251	553984	g76472.1;COMP	.	+	35791	142733	0.250229449392
scaffold150097	51269	52059	er-jcf7180063141825-snap-gene-0.1-mRNA-1-transcript-offset:0-AED:0.11-eAED:0.11-QI:0|0|0|0.66|0|0|3|0|134	.	-	1	scaffold150097	51880	52239	g487357;COMP	.	-	790	359	0.49860724234
C4047351	3909	4638	p_masked-jcf7180063115770-processed-gene-1.7-mRNA-1-transcript-offset:0-AED:0.09-eAED:0.10-QI:0|0|0|0.5|1|1|2|0|126	.	-	2	C4047351	4210	4779	I25_VO_L_1888_T_26/79	.	-	729	569	0.752196836555
super32	249594	268328	er-jcf7180062960050-augustus-gene-0.1-mRNA-1-transcript-offset:0-AED:0.15-eAED:0.15-QI:0|0|0|1|1|1|2|0|195	.	+	3	super32	267960	811217	58_f1p0_1287	.	+	18734	543257	0.000677395781371
super32	249594	268328	er-jcf7180062960050-augustus-gene-0.1-mRNA-1-transcript-offset:0-AED:0.15-eAED:0.15-QI:0|0|0|1|1|1|2|0|195	.	+	3	super32	267921	811217	92_f2p0_1317	.	+	18734	543296	0.000749131228649
super32	249594	268328	er-jcf7180062960050-augustus-gene-0.1-mRNA-1-transcript-offset:0-AED:0.15-eAED:0.15-QI:0|0|0|1|1|1|2|0|195	.	+	3	super32	268062	811217	409_f1p1_1124	.	+	18734	543155	0.000489731292173
scaffold99226	298462	304355	er-jcf7180062969210-snap-gene-0.3-mRNA-1-transcript-offset:0-AED:0.12-eAED:0.12-QI:0|0.6|0.5|0.66|0.4|0.5|6|0|519	.	-	2	scaffold99226	274294	302826	I9_VO_L_32191_T_14/14	.	-	5893	28532	0.15295107248
scaffold98754	85390	87166	er-jcf7180062996661-snap-gene-0.2-mRNA-1-transcript-offset:0-AED:0.17-eAED:0.17-QI:0|0|0|1|0|0|3|0|445	.	+	1	scaffold98754	78845	86370	g133380;COMP	.	+	1776	7525	0.13023255814
scaffold214238	74284	85789	p_masked-jcf7180063178284-processed-gene-0.1-mRNA-1-transcript-offset:0-AED:0.15-eAED:0.16-QI:0|0.33|0|0.5|1|1|4|0|575	.	-	1	scaffold214238	15882	76286	g730873.1;COMP	.	-	11505	60404	0.0331435004304
scaffold39856	135203	139530	er-jcf7180063213030-snap-gene-0.2-mRNA-1-transcript-offset:0-AED:0.05-eAED:0.05-QI:0|0|0|0.66|0.5|0.33|3|0|438	.	-	1	scaffold39856	137929	140175	g844598;COMP	.	-	4327	2246	0.712822796082
scaffold66233	83212	90179	ustus_masked-jcf7180059890292-processed-gene-0.0-mRNA-1-transcript-offset:0-AED:0.04-eAED:0.15-QI:0|0|0|1|1|1|2|0|296	.	+	1	scaffold66233	89513	95371	g75632;COMP	.	+	6967	5858	0.113690679413
scaffold138254	15327	16074	ustus_masked-jcf7180062538392-processed-gene-0.1-mRNA-1-transcript-offset:0-AED:0.17-eAED:0.38-QI:0|0|0|1|1|1|2|0|192	.	+	1	scaffold138254	15839	20052	g620936;COMP	.	+	747	4213	0.055779729409
super1152	20956	23439	er-jcf7180062526839-snap-gene-0.3-mRNA-1-transcript-offset:0-AED:0.11-eAED:0.11-QI:0|0|0|1|0|0|2|0|763	.	-	1	super1152	19808	22869	g334413;COMP	.	-	2483	3061	0.624959163672
super3799	489283	506266	er-jcf7180062956645-snap-gene-0.3-mRNA-1-transcript-offset:18-AED:0.03-eAED:0.05-QI:18|0|0|1|0.85|0.75|8|0|373	.	-	1	super3799	450932	490437	g49022;COMP	.	-	16983	39505	0.0292114922162
super3799	489283	506266	er-jcf7180062956645-snap-gene-0.3-mRNA-1-transcript-offset:18-AED:0.03-eAED:0.05-QI:18|0|0|1|0.85|0.75|8|0|373	.	-	1	super3799	505140	529085	g49023;COMP	.	-	16983	23945	0.0470244309877
scaffold144584	50912	52309	er-jcf7180063082397-snap-gene-0.7-mRNA-1-transcript-offset:0-AED:0.13-eAED:0.30-QI:0|0|0|1|0.25|0.2|5|0|287	.	+	1	scaffold144584	47928	52005	g608861;COMP	.	+	1397	4077	0.268089281334
scaffold116075	84762	85787	er-jcf7180062512023-snap-gene-0.2-mRNA-1-transcript-offset:0-AED:0.14-eAED:0.14-QI:0|0|0|0.5|1|1|2|0|266	.	+	2	scaffold116075	84802	88479	all_VO_L_96181_T_3/3	.	+	1025	3677	0.267881425075
scaffold118083	130957	138155	er-jcf7180063093191-snap-gene-0.4-mRNA-1-transcript-offset:60-AED:0.14-eAED:0.30-QI:60|0|0|1|0|0|2|0|147	.	-	1	scaffold118083	128515	131742	g153402;COMP	.	-	7198	3227	0.243259993802
scaffold113786	111102	117400	p_masked-jcf7180063017822-processed-gene-0.2-mRNA-1-transcript-offset:0-AED:0.16-eAED:0.16-QI:0|0|0|0.33|1|1|3|0|223	.	-	1	scaffold113786	107002	112644	g238321;COMP	.	-	6298	5642	0.273307337823
scaffold224441	14171	116360	ustus_masked-jcf7180063027448-processed-gene-0.0-mRNA-1-transcript-offset:0-AED:0.18-eAED:0.18-QI:0|0|0|0.5|1|1|2|0|290	.	+	1	scaffold224441	115275	123736	g553220;COMP	.	+	102189	8461	0.128235433164
C4120669	3359	3739	er-jcf7180062887943-snap-gene-0.2-mRNA-1-transcript-offset:0-AED:0.18-eAED:0.18-QI:0|0|0|0.5|0|0|2|0|115	.	+	1	C4120669	3393	5136	g582035.1;COMP	.	+	380	1743	0.19850831899
scaffold230416	105349	125558	er-jcf7180063001895-snap-gene-0.7-mRNA-1-transcript-offset:0-AED:0.08-eAED:0.08-QI:0|0|0|1|0|0|2|0|571	.	-	1	scaffold230416	124713	131860	g624036;COMP	.	-	20209	7147	0.118231425773
super2829	9064	30368	er-jcf7180063201993-snap-gene-0.3-mRNA-1-transcript-offset:9-AED:0.12-eAED:0.12-QI:9|1|0.77|1|0.25|0.55|9|0|564	.	+	3	super2829	29982	58354	473_f1p0_1035	.	+	21304	28372	0.0136049626392
scaffold186288	13524	17321	er-jcf7180063188843-snap-gene-0.11-mRNA-1-transcript-offset:30-AED:0.11-eAED:0.11-QI:30|0.5|0.33|0.66|1|0.66|3|0|245	.	+	1	scaffold186288	10417	14456	g709159;COMP	.	+	3797	4039	0.23075018569
scaffold175015	234304	236435	er-jcf7180062538306-snap-gene-0.5-mRNA-1-transcript-offset:0-AED:0.10-eAED:0.10-QI:0|0.8|0.33|1|0.6|0.33|6|0|431	.	-	1	scaffold175015	233649	234956	g604465;COMP	.	-	2131	1307	0.498852333588
super2260	67899	316529	er-jcf7180063207205-snap-gene-2.24-mRNA-1-transcript-offset:0-AED:0.16-eAED:0.17-QI:0|0|0|0.9|0.22|0.5|10|0|394	.	+	1	super2260	257278	409602	g123323;COMP	.	+	248630	152324	0.388980068801
super4090	45167	180614	er-jcf7180063227820-snap-gene-3.10-mRNA-1-transcript-offset:0-AED:0.19-eAED:0.19-QI:0|0|0|0.66|0.5|0.66|3|0|154	.	+	1	super4090	55570	250919	g515742;COMP	.	+	135447	195349	0.640105657055
C4579105	16916	17702	er-jcf7180063190745-snap-gene-0.7-mRNA-1-transcript-offset:0-AED:0.09-eAED:0.18-QI:0|0|0|1|0|0|2|0|256	.	+	1	C4579105	17049	17880	g502999;COMP	.	+	786	831	0.785800240674
scaffold185887	405	1423	er-jcf7180062544677-snap-gene-0.3-mRNA-1-transcript-offset:0-AED:0.11-eAED:0.11-QI:0|1|0.75|1|1|1|4|0|231	.	-	1	scaffold185887	225	1408	g654550;COMP	.	-	1018	1183	0.847844463229
scaffold144512	248156	262149	er-jcf7180063201407-augustus-gene-0.11-mRNA-1-transcript-offset:0-AED:0.14-eAED:0.14-QI:0|0|0|0.25|0.66|0.75|4|0|333	.	-	1	scaffold144512	260906	262934	g594536;COMP	.	-	13993	2028	0.61291913215
scaffold13426	101195	103392	er-jcf7180063042079-snap-gene-0.8-mRNA-1-transcript-offset:0-AED:0.12-eAED:0.12-QI:0|0|0|0.66|0|0|3|0|393	.	+	1	scaffold13426	65255	102652	g88813;COMP	.	+	2197	37397	0.0389603444127
scaffold145281	165693	168100	er-jcf7180062639772-augustus-gene-0.4-mRNA-1-transcript-offset:0-AED:0.09-eAED:0.09-QI:0|0.75|0.4|0.8|1|1|5|0|338	.	-	1	scaffold145281	160914	168077	g563263;COMP	.	-	2407	7163	0.332821443529
scaffold29329	25695	28314	er-jcf7180062879915-snap-gene-0.6-mRNA-1-transcript-offset:0-AED:0.16-eAED:0.19-QI:0|0|0|1|0|0.33|3|0|728	.	+	1	scaffold29329	25719	36023	g96150;COMP	.	+	2619	10304	0.251843944099
scaffold105675	173105	204017	ustus_masked-jcf7180062952629-processed-gene-1.0-mRNA-1-transcript-offset:0-AED:0.13-eAED:0.14-QI:0|0|0|0.33|1|1|3|0|239	.	+	1	scaffold105675	192567	209893	g263657.3;COMP	.	+	30912	17326	0.660856516218
scaffold29333	13197	17966	p_masked-jcf7180062974530-processed-gene-0.1-mRNA-1-transcript-offset:0-AED:0.10-eAED:0.10-QI:0|0|0|0.33|1|1|3|0|209	.	+	1	scaffold29333	12694	14166	g73855;COMP	.	+	4769	1472	0.658288043478
scaffold173452	66117	70486	er-jcf7180062998580-snap-gene-0.5-mRNA-1-transcript-offset:0-AED:0.07-eAED:0.07-QI:0|0|0|0.75|0|0|4|0|766	.	+	1	scaffold173452	66232	112199	g469479;COMP	.	+	4369	45967	0.0925446515979
scaffold159126	61030	70459	p_masked-jcf7180063145728-processed-gene-0.2-mRNA-1-transcript-offset:0-AED:0.18-eAED:0.18-QI:0|0|0|0.33|1|1|3|0|267	.	+	1	scaffold159126	64449	162475	g704654;COMP	.	+	9429	98026	0.0613102646237
C4408981	3608	4721	er-jcf7180063011113-snap-gene-0.6-mRNA-1-transcript-offset:0-AED:0.14-eAED:0.14-QI:0|0|0|1|0.5|0.33|3|0|182	.	-	1	C4408981	4009	10029	g799820;COMP	.	-	1113	6020	0.118272425249
scaffold19688	377267	379300	er-jcf7180062966129-snap-gene-0.3-mRNA-1-transcript-offset:0-AED:0.09-eAED:0.09-QI:0|0|0|1|0|0|2|0|282	.	+	1	scaffold19688	377095	377625	g186860;COMP	.	+	2033	530	0.675471698113
super505	137308	189335	er-jcf7180062973188-snap-gene-0.6-mRNA-1-transcript-offset:0-AED:0.19-eAED:0.19-QI:0|0.4|0.16|0.66|0.6|0.5|6|0|450	.	+	1	super505	141324	360583	g127060;COMP	.	+	52027	219259	0.218969346754
super505	137308	189335	er-jcf7180062973188-snap-gene-0.6-mRNA-1-transcript-offset:0-AED:0.19-eAED:0.19-QI:0|0.4|0.16|0.66|0.6|0.5|6|0|450	.	+	2	super505	141255	360155	all_VO_L_7394_T_20/35	.	+	52027	218900	0.21964367291
C5012017	44354	45967	er-jcf7180062794290-snap-gene-0.8-mRNA-1-transcript-offset:0-AED:0.16-eAED:0.30-QI:0|0|0|0.87|0.42|0.37|8|0|321	.	-	1	C5012017	44902	48757	g621537;COMP	.	-	1613	3855	0.27626459144
scaffold97006	159239	165369	er-jcf7180063157285-snap-gene-0.1-mRNA-1-transcript-offset:0-AED:0.14-eAED:0.19-QI:0|0|0|1|0|0|2|0|233	.	-	1	scaffold97006	164776	165957	g77066;COMP	.	-	6130	1181	0.502116850127
super167	87757	162099	er-jcf7180063010548-snap-gene-0.8-mRNA-1-transcript-offset:0-AED:0.15-eAED:0.15-QI:0|0.16|0|0.85|0.83|0.85|7|0|282	.	+	1	super167	142508	299217	g106954;COMP	.	+	74342	156709	0.125015155479
scaffold39272	184054	195964	er-jcf7180062981171-snap-gene-0.3-mRNA-1-transcript-offset:0-AED:0.19-eAED:0.19-QI:0|0.5|0|0.66|0|0|3|0|144	.	-	1	scaffold39272	137583	192596	g352528;COMP	.	-	11910	55013	0.155272390162
scaffold192329	75037	81223	ustus_masked-jcf7180063198980-processed-gene-0.1-mRNA-1-transcript-offset:0-AED:0.05-eAED:0.05-QI:0|0|0|0.5|1|1|2|0|622	.	-	1	scaffold192329	78599	82084	g661659;COMP	.	-	6186	3485	0.752941176471
scaffold32557	48869	51492	er-jcf7180063210953-augustus-gene-0.3-mRNA-1-transcript-offset:0-AED:0.12-eAED:0.14-QI:0|0|0|1|0.5|0.66|3|0|304	.	-	1	scaffold32557	47621	49408	g101533.1;COMP	.	-	2623	1787	0.301622831561
scaffold176090	42749	45047	er-jcf7180063209415-snap-gene-0.5-mRNA-1-transcript-offset:0-AED:0.09-eAED:0.16-QI:0|0|0|1|0|0|2|0|687	.	-	1	scaffold176090	9898	43498	g557380;COMP	.	-	2298	33600	0.0222916666667
scaffold167065	96540	168409	er-jcf7180063204071-snap-gene-0.9-mRNA-1-transcript-offset:0-AED:0.07-eAED:0.08-QI:0|0.41|0.23|0.84|0.41|0.69|13|0|969	.	+	1	scaffold167065	103131	199243	g617912.1;COMP	.	+	71869	96112	0.679186782088
scaffold40504	123179	125157	p_masked-jcf7180063067098-processed-gene-0.2-mRNA-1-transcript-offset:0-AED:0.15-eAED:0.20-QI:0|0|0|0.5|1|1|2|0|113	.	-	1	scaffold40504	91752	123340	g63318.2;COMP	.	-	1978	31588	0.00509687222996
C5109573	9092	12743	er-jcf7180063085178-snap-gene-0.8-mRNA-1-transcript-offset:0-AED:0.08-eAED:0.08-QI:0|0|0|0.75|0.33|0.5|4|0|193	.	+	1	C5109573	9275	66324	g827660;COMP	.	+	3651	57049	0.0607898473242
scaffold15473	311903	313602	er-jcf7180063211199-snap-gene-0.3-mRNA-1-transcript-offset:0-AED:0.14-eAED:0.17-QI:0|0|0|1|0|0.25|4|0|182	.	+	1	scaffold15473	313192	313737	g152288;COMP	.	+	1699	545	0.752293577982
scaffold229764	19867	23950	ustus_masked-jcf7180062962253-processed-gene-0.2-mRNA-1-transcript-offset:0-AED:0.07-eAED:0.07-QI:0|0|0|0.5|1|1|2|0|481	.	-	3	scaffold229764	2144	23404	894_f1p0_2196	.	-	4083	21260	0.166368767639
C5053835	54938	55661	er-jcf7180062986519-snap-gene-0.5-mRNA-1-transcript-offset:0-AED:0.08-eAED:0.20-QI:0|0|0|1|0|0|2|0|232	.	-	1	C5053835	55552	59530	g601333;COMP	.	-	723	3978	0.0274007038713
C4849527	3627	5594	er-jcf7180059712343-snap-gene-0.9-mRNA-1-transcript-offset:0-AED:0.16-eAED:0.17-QI:0|0|0|1|0|0|5|0|332	.	-	1	C4849527	3409	4376	g475903;COMP	.	-	1967	967	0.774560496381
C4462937	13293	14300	er-jcf7180063021842-snap-gene-0.0-mRNA-1-transcript-offset:0-AED:0.12-eAED:0.28-QI:0|0|0|1|0|0|2|0|304	.	-	1	C4462937	12930	14146	g560976;COMP	.	-	1007	1216	0.701480263158
super1612	148951	154684	er-jcf7180063137025-snap-gene-0.3-mRNA-1-transcript-offset:0-AED:0.08-eAED:0.11-QI:0|0|0|0.6|0.25|0.6|5|0|743	.	-	3	super1612	147026	151431	87_f1p0_3463	.	-	5733	4405	0.562996594779
C4977711	34764	35527	er-jcf7180063182400-augustus-gene-0.4-mRNA-1-transcript-offset:0-AED:0.12-eAED:0.12-QI:0|0|0|1|1|1|2|0|224	.	-	1	C4977711	27448	35500	g604446;COMP	.	-	763	8052	0.0914058618977
super80	365942	367453	er-jcf7180063099409-snap-gene-0.0-mRNA-1-transcript-offset:0-AED:0.13-eAED:0.13-QI:0|0|0|0.66|0|0|3|0|241	.	-	1	super80	265828	367177	g206491;COMP	.	-	1511	101349	0.0121856160396
scaffold49551	32648	34029	er-jcf7180063015263-augustus-gene-0.2-mRNA-1-transcript-offset:0-AED:0.10-eAED:0.12-QI:0|0|0|1|1|1|2|0|408	.	+	1	scaffold49551	33487	37536	g234160;COMP	.	+	1381	4049	0.133860212398
scaffold118970	165869	167870	er-jcf7180062951362-snap-gene-0.5-mRNA-1-transcript-offset:6-AED:0.19-eAED:0.19-QI:6|0.5|0.2|0.6|0.5|0.6|5|0|163	.	+	1	scaffold118970	46670	167554	g828026;COMP	.	+	2001	120884	0.0139389828265
super1586	352418	369082	er-jcf7180063062085-augustus-gene-0.5-mRNA-1-transcript-offset:0-AED:0.15-eAED:0.15-QI:0|0.66|0.25|0.75|0|0.25|4|0|264	.	-	1	super1586	367328	490442	g880980.2;COMP	.	-	16664	123114	0.0142469581039
scaffold187667	26490	31950	ustus_masked-jcf7180060054018-processed-gene-0.0-mRNA-1-transcript-offset:0-AED:0.11-eAED:0.11-QI:0|0|0|0.4|1|1|5|0|846	.	-	1	scaffold187667	29820	38965	g472689;COMP	.	-	5460	9145	0.232914160744
scaffold49215	27886	30855	ustus_masked-jcf7180063106244-processed-gene-0.0-mRNA-1-transcript-offset:0-AED:0.15-eAED:0.17-QI:0|0|0|0.66|1|1|3|0|178	.	-	1	scaffold49215	28013	96430	g248508.1;COMP	.	-	2969	68417	0.0415393834866
scaffold45295	68690	70121	er-jcf7180063098846-augustus-gene-0.2-mRNA-1-transcript-offset:0-AED:0.05-eAED:0.07-QI:0|0|0|0.5|1|1|2|0|228	.	+	1	scaffold45295	68363	69406	g197154;COMP	.	+	1431	1043	0.686481303931
scaffold29032	106350	107824	ustus_masked-jcf7180063019932-processed-gene-0.0-mRNA-1-transcript-offset:0-AED:0.19-eAED:0.19-QI:0|0|0|1|1|1|4|0|225	.	+	1	scaffold29032	97399	106759	g179891;COMP	.	+	1474	9360	0.0436965811966
C4748001	14730	18134	er-jcf7180063070992-augustus-gene-0.2-mRNA-1-transcript-offset:0-AED:0.07-eAED:0.07-QI:0|1|0|1|1|1|2|0|979	.	-	1	C4748001	17354	18349	g758247;COMP	.	-	3404	995	0.78391959799
super4018	251112	259726	ustus_masked-jcf7180062867868-processed-gene-0.0-mRNA-1-transcript-offset:0-AED:0.15-eAED:0.15-QI:0|0|0|0.66|1|1|3|0|133	.	+	1	super4018	251178	359690	g50822;COMP	.	+	8614	108512	0.0787746977293
scaffold17268	286025	287824	er-jcf7180063227272-augustus-gene-0.7-mRNA-1-transcript-offset:0-AED:0.04-eAED:0.04-QI:0|0|0|0.5|0|0|2|0|430	.	+	1	scaffold17268	286661	291155	g336934;COMP	.	+	1799	4494	0.258789497107
scaffold198584	35853	57698	er-jcf7180063018139-snap-gene-0.13-mRNA-1-transcript-offset:0-AED:0.05-eAED:0.06-QI:0|0|0|1|0|0.33|3|0|621	.	-	1	scaffold198584	57030	58071	g486807;COMP	.	-	21845	1041	0.641690682037
super1165	695047	701550	ustus_masked-jcf7180062971963-processed-gene-0.1-mRNA-1-transcript-offset:0-AED:0.15-eAED:0.15-QI:0|0|0|0.5|1|1|2|0|209	.	-	2	super1165	430557	695547	all_VO_L_5782_T_50/70	.	-	6503	264990	0.00188686365523
scaffold35034	7108	50572	er-jcf7180063118687-snap-gene-0.9-mRNA-1-transcript-offset:0-AED:0.17-eAED:0.21-QI:0|0|0|1|0|0|5|0|862	.	+	2	scaffold35034	48724	85563	I16_VO_L_32567_T_38/79	.	+	43464	36839	0.0501642281278
scaffold177854	35612	53392	er-jcf7180062757796-snap-gene-0.5-mRNA-1-transcript-offset:0-AED:0.14-eAED:0.14-QI:0|0.25|0|0.4|0.5|0.4|5|0|452	.	+	1	scaffold177854	51834	53748	g530846.1;COMP	.	+	17780	1914	0.814002089864
scaffold195895	6674	10969	er-jcf7180062664530-snap-gene-0.2-mRNA-1-transcript-offset:0-AED:0.05-eAED:0.06-QI:0|0|0|0.5|0|0|2|0|496	.	+	1	scaffold195895	5573	8521	g632615.2;COMP	.	+	4295	2948	0.626526458616
super4025	367754	389487	er-jcf7180062952686-snap-gene-3.17-mRNA-1-transcript-offset:0-AED:0.10-eAED:0.10-QI:0|0|0|1|0.6|0.83|6|0|303	.	+	1	super4025	367793	522132	g516814;COMP	.	+	21733	154339	0.140560713753
scaffold1214	35667	38091	er-jcf7180063000143-snap-gene-0.10-mRNA-1-transcript-offset:0-AED:0.06-eAED:0.06-QI:0|0|0|1|0|0|6|0|608	.	+	1	scaffold1214	32625	37630	g826981;COMP	.	+	2424	5005	0.392207792208
super851	100287	101237	er-jcf7180062995342-snap-gene-0.1-mRNA-1-transcript-offset:6-AED:0.03-eAED:0.04-QI:6|0|0|1|0|0|3|0|133	.	+	3	super851	100326	176523	779_f1p0_994	.	+	950	76197	0.0119558512802
scaffold178820	20596	24810	er-jcf7180062648269-snap-gene-0.6-mRNA-1-transcript-offset:0-AED:0.08-eAED:0.09-QI:0|0|0|1|0|0.33|3|0|213	.	-	1	scaffold178820	19504	23211	g602985;COMP	.	-	4214	3707	0.705422174265
super2084	59591	60322	er-jcf7180063116277-snap-gene-0.9-mRNA-1-transcript-offset:0-AED:0.19-eAED:0.33-QI:0|0|0|1|0|0|3|0|233	.	-	1	super2084	60048	60682	g75413;COMP	.	-	731	634	0.432176656151
C5093595	33263	34695	er-jcf7180062987030-snap-gene-0.3-mRNA-1-transcript-offset:0-AED:0.10-eAED:0.27-QI:0|0|0|1|0|0.5|2|0|122	.	+	1	C5093595	34486	36186	g114151;COMP	.	+	1432	1700	0.122941176471
scaffold59354	58659	64060	er-jcf7180063224400-snap-gene-0.2-mRNA-1-transcript-offset:0-AED:0.05-eAED:0.05-QI:0|0|0|1|0|0|2|0|333	.	+	1	scaffold59354	57179	62749	g333692;COMP	.	+	5401	5570	0.734290843806
scaffold28512	47133	47957	er-jcf7180062982010-snap-gene-0.5-mRNA-1-transcript-offset:0-AED:0.11-eAED:0.11-QI:0|0|0|1|0|0|2|0|230	.	+	1	scaffold28512	46008	47717	g843081;COMP	.	+	824	1709	0.341720304272
scaffold152032	69747	121846	er-jcf7180063085263-snap-gene-0.5-mRNA-1-transcript-offset:0-AED:0.15-eAED:0.15-QI:0|0|0|0.75|1|0.75|4|0|214	.	+	1	scaffold152032	120871	145381	g597710;COMP	.	+	52099	24510	0.0397796817625
scaffold78794	135706	164919	er-jcf7180062952461-snap-gene-1.22-mRNA-1-transcript-offset:0-AED:0.19-eAED:0.19-QI:0|0|0|0.66|0|0.33|3|0|168	.	-	3	scaffold78794	61544	135899	813_f1p0_1494	.	-	29213	74355	0.00259565597472
scaffold179118	58117	59748	er-jcf7180063047098-augustus-gene-0.1-mRNA-1-transcript-offset:0-AED:0.11-eAED:0.11-QI:0|0|0|1|1|1|2|0|217	.	-	1	scaffold179118	56432	58377	g554759;COMP	.	-	1631	1945	0.133676092545
C5013003	12961	25551	p_masked-jcf7180063101770-processed-gene-0.1-mRNA-1-transcript-offset:0-AED:0.19-eAED:0.19-QI:0|0|0|0.33|1|1|3|0|180	.	-	1	C5013003	8782	13508	g627415;COMP	.	-	12590	4726	0.115742699958
scaffold51264	179394	183130	er-jcf7180063196973-augustus-gene-0.4-mRNA-1-transcript-offset:0-AED:0.05-eAED:0.05-QI:0|0.8|0.33|1|1|1|6|0|667	.	+	3	scaffold51264	182561	216460	470_f1p0_1311	.	+	3736	33899	0.0167851559043
scaffold58229	3556	4397	er-jcf7180062985365-augustus-gene-0.2-mRNA-1-transcript-offset:0-AED:0.09-eAED:0.10-QI:0|0|0|1|1|1|3|0|206	.	+	1	scaffold58229	3607	5163	g273590;COMP	.	+	841	1556	0.507712082262
scaffold169932	120642	126306	er-jcf7180063201495-augustus-gene-0.4-mRNA-1-transcript-offset:0-AED:0.10-eAED:0.13-QI:0|0|0|1|0|0|2|0|782	.	-	1	scaffold169932	124414	154992	g554983;COMP	.	-	5664	30578	0.0618745503303
super4353	137230	138944	er-jcf7180062901163-augustus-gene-0.2-mRNA-1-transcript-offset:0-AED:0.18-eAED:0.19-QI:0|0.5|0|1|1|1|3|0|202	.	+	1	super4353	137260	432832	g675400;COMP	.	+	1714	295572	0.00569742736118
