5at33090
24at33090
255at33090
383at33090
1363at33090
1419at33090
1855at33090
4004at33090
4034at33090
4115at33090
4115at33090
4115at33090
5305at33090
5305at33090
6843at33090
7366at33090
8072at33090
9044at33090
9058at33090
10924at33090
10924at33090
10924at33090
11800at33090
13039at33090
13039at33090
13643at33090
16726at33090
18455at33090
22109at33090
22109at33090
22109at33090
22618at33090
22958at33090
23444at33090
24838at33090
27607at33090
27607at33090
27607at33090
31855at33090
31855at33090
31855at33090
32730at33090
32923at33090
33264at33090
34517at33090
35887at33090
36284at33090
37663at33090
39913at33090
40630at33090
42407at33090
43957at33090
44526at33090
46307at33090
46307at33090
46307at33090
48290at33090
48645at33090
49092at33090
49092at33090
49092at33090
50512at33090
51262at33090
52795at33090
52795at33090
53416at33090
55448at33090
55448at33090
60262at33090
60262at33090
63853at33090
64272at33090
64272at33090
68537at33090
69137at33090
69505at33090
70613at33090
70613at33090
71620at33090
72992at33090
72992at33090
74742at33090
75785at33090
83749at33090
84114at33090
84264at33090
87734at33090
88295at33090
90240at33090
92579at33090
95807at33090
96953at33090
97593at33090
101241at33090
101701at33090
102307at33090
102307at33090
102307at33090
103382at33090
104867at33090
105782at33090
105867at33090
106769at33090
106886at33090
106886at33090
107107at33090
107107at33090
107107at33090
107413at33090
108705at33090
109586at33090
109586at33090
109823at33090
110222at33090
111210at33090
111210at33090
111213at33090
111249at33090
111924at33090
112238at33090
112461at33090
112542at33090
112542at33090
115240at33090
115240at33090
115992at33090
115992at33090
116411at33090
116411at33090
116585at33090
116623at33090
116623at33090
117191at33090
117191at33090
117191at33090
117247at33090
119439at33090
120589at33090
121281at33090
121303at33090
122422at33090
122422at33090
122422at33090
122958at33090
126138at33090
126138at33090
128774at33090
130268at33090
130637at33090
131556at33090
131556at33090
131556at33090
131874at33090
131874at33090
131914at33090
133112at33090
133622at33090
133622at33090
133622at33090
134078at33090
135892at33090
135892at33090
136118at33090
136118at33090
136267at33090
137018at33090
137787at33090
139450at33090
139497at33090
140876at33090
140876at33090
141370at33090
142077at33090
142077at33090
142077at33090
143963at33090
143978at33090
144144at33090
144680at33090
144765at33090
145061at33090
146469at33090
146469at33090
146469at33090
146772at33090
146772at33090
146772at33090
147262at33090
148236at33090
149782at33090
150470at33090
150470at33090
150559at33090
152317at33090
153820at33090
154870at33090
155102at33090
155102at33090
156843at33090
156843at33090
158492at33090
158957at33090
160064at33090
160064at33090
160064at33090
160610at33090
160610at33090
160680at33090
161066at33090
161066at33090
161559at33090
161966at33090
162794at33090
163701at33090
164019at33090
164280at33090
164280at33090
164280at33090
165103at33090
165103at33090
166645at33090
166660at33090
166660at33090
166660at33090
167217at33090
167325at33090
167809at33090
167809at33090
167809at33090
167932at33090
168563at33090
169007at33090
171627at33090
171627at33090
171708at33090
171708at33090
171767at33090
172535at33090
173119at33090
173143at33090
173477at33090
174767at33090
175792at33090
175792at33090
175963at33090
175963at33090
176016at33090
176016at33090
176016at33090
176328at33090
177296at33090
177720at33090
177964at33090
178386at33090
179975at33090
179975at33090
180466at33090
180674at33090
181108at33090
182493at33090
182493at33090
182513at33090
182936at33090
183313at33090
183396at33090
183396at33090
183396at33090
183719at33090
183931at33090
184066at33090
184405at33090
184776at33090
184776at33090
185172at33090
185696at33090
185941at33090
185941at33090
186340at33090
187462at33090
188180at33090
188180at33090
188180at33090
188583at33090
188938at33090
188938at33090
190390at33090
190390at33090
190390at33090
191396at33090
192090at33090
192090at33090
192456at33090
192750at33090
192750at33090
192750at33090
193437at33090
193683at33090
193683at33090
193683at33090
193982at33090
194002at33090
194293at33090
194293at33090
195185at33090
196198at33090
196198at33090
196198at33090
196410at33090
196512at33090
196850at33090
196873at33090
196873at33090
196873at33090
196991at33090
197838at33090
197838at33090
198012at33090
198012at33090
198012at33090
198570at33090
198570at33090
199795at33090
200687at33090
200687at33090
201861at33090
201861at33090
203383at33090
203818at33090
203818at33090
203818at33090
204117at33090
205308at33090
205308at33090
205308at33090
206164at33090
206164at33090
206164at33090
206170at33090
207179at33090
207898at33090
208706at33090
208707at33090
209015at33090
209301at33090
209302at33090
209302at33090
209302at33090
210493at33090
210493at33090
210493at33090
210557at33090
210851at33090
211645at33090
212331at33090
214313at33090
215487at33090
216228at33090
216601at33090
216601at33090
217521at33090
218947at33090
220165at33090
220165at33090
220165at33090
220316at33090
220587at33090
220587at33090
220587at33090
220589at33090
220981at33090
220981at33090
220981at33090
223902at33090
223902at33090
223902at33090
227848at33090
227848at33090
227848at33090
228201at33090
229764at33090
229778at33090
231151at33090
231707at33090
233744at33090
234046at33090
234046at33090
234046at33090
238204at33090
238204at33090
238385at33090
