5at3193
241at3193
364at3193
469at3193
827at3193
1332at3193
1388at3193
1440at3193
1664at3193
1822at3193
2050at3193
2203at3193
2661at3193
2661at3193
2661at3193
2834at3193
3052at3193
3082at3193
3322at3193
3493at3193
3704at3193
3755at3193
3935at3193
3971at3193
4051at3193
4051at3193
4051at3193
4483at3193
4483at3193
4547at3193
4582at3193
4582at3193
4678at3193
4892at3193
5232at3193
5306at3193
5603at3193
5727at3193
6485at3193
6707at3193
7170at3193
7511at3193
7852at3193
7852at3193
7936at3193
7975at3193
7975at3193
8030at3193
8229at3193
8341at3193
8341at3193
8566at3193
8828at3193
8939at3193
8953at3193
9385at3193
9443at3193
9466at3193
9508at3193
9727at3193
9962at3193
9962at3193
10797at3193
10797at3193
10856at3193
10856at3193
11121at3193
11361at3193
11585at3193
11903at3193
12350at3193
12350at3193
12643at3193
12893at3193
12903at3193
13044at3193
13359at3193
13359at3193
13438at3193
13438at3193
13495at3193
13979at3193
13985at3193
13985at3193
14027at3193
14163at3193
15047at3193
15289at3193
15289at3193
15318at3193
15419at3193
15951at3193
16286at3193
16351at3193
16550at3193
16810at3193
16810at3193
16901at3193
16984at3193
17217at3193
18005at3193
18144at3193
18255at3193
18890at3193
18970at3193
19019at3193
19068at3193
19402at3193
19439at3193
19475at3193
19475at3193
19696at3193
19858at3193
20132at3193
20290at3193
21033at3193
21795at3193
21873at3193
22385at3193
22441at3193
22723at3193
23064at3193
23529at3193
23743at3193
24580at3193
25353at3193
25450at3193
25543at3193
26282at3193
26417at3193
26756at3193
26776at3193
26815at3193
26824at3193
27315at3193
27315at3193
27315at3193
27435at3193
27492at3193
27702at3193
27877at3193
28151at3193
28171at3193
29036at3193
29931at3193
30808at3193
31508at3193
31508at3193
31508at3193
31517at3193
31517at3193
31517at3193
32138at3193
32371at3193
32377at3193
32377at3193
32377at3193
32563at3193
32798at3193
32854at3193
32900at3193
34076at3193
34144at3193
34445at3193
35505at3193
36036at3193
36176at3193
36176at3193
36488at3193
37262at3193
37412at3193
37548at3193
38226at3193
38226at3193
38226at3193
38669at3193
39247at3193
40093at3193
40169at3193
40197at3193
40351at3193
40517at3193
40592at3193
40659at3193
41007at3193
41601at3193
41955at3193
42058at3193
42564at3193
42802at3193
43116at3193
43212at3193
43595at3193
44473at3193
44486at3193
44486at3193
44542at3193
44590at3193
45227at3193
45375at3193
45375at3193
45799at3193
45799at3193
45799at3193
46068at3193
46074at3193
47174at3193
47240at3193
47310at3193
47310at3193
47310at3193
47597at3193
47597at3193
48502at3193
48546at3193
48546at3193
48588at3193
48921at3193
49491at3193
49808at3193
49808at3193
49808at3193
50679at3193
51155at3193
51536at3193
51536at3193
51536at3193
51745at3193
52234at3193
52464at3193
52497at3193
52743at3193
52804at3193
52839at3193
52897at3193
53003at3193
53767at3193
53767at3193
54177at3193
54696at3193
54799at3193
54799at3193
54811at3193
54858at3193
54858at3193
54931at3193
55426at3193
55426at3193
56051at3193
56251at3193
56251at3193
56328at3193
56560at3193
56690at3193
56819at3193
57149at3193
57821at3193
57821at3193
58430at3193
58451at3193
58451at3193
58847at3193
59555at3193
59555at3193
59621at3193
59885at3193
60079at3193
60903at3193
60903at3193
61944at3193
62741at3193
62741at3193
62741at3193
62778at3193
63082at3193
63302at3193
63302at3193
63493at3193
63493at3193
63577at3193
63577at3193
63577at3193
63780at3193
63780at3193
64856at3193
64856at3193
65268at3193
66400at3193
67201at3193
67266at3193
67480at3193
67617at3193
67893at3193
68623at3193
68670at3193
68939at3193
69301at3193
69605at3193
69714at3193
69714at3193
69936at3193
70084at3193
70127at3193
70127at3193
70127at3193
70143at3193
70315at3193
70703at3193
71031at3193
71446at3193
71677at3193
71815at3193
71903at3193
71903at3193
72057at3193
72057at3193
72717at3193
73780at3193
74386at3193
74386at3193
74392at3193
74392at3193
74392at3193
74779at3193
74804at3193
75306at3193
75306at3193
75306at3193
75478at3193
75478at3193
75889at3193
75889at3193
75889at3193
76478at3193
76571at3193
76883at3193
76883at3193
77313at3193
77313at3193
77313at3193
77611at3193
78511at3193
78556at3193
78590at3193
78718at3193
79128at3193
79244at3193
79699at3193
81311at3193
81311at3193
81311at3193
81321at3193
81543at3193
81710at3193
82631at3193
82968at3193
83115at3193
84352at3193
84368at3193
84405at3193
85324at3193
85324at3193
85324at3193
85573at3193
86302at3193
86708at3193
86708at3193
86708at3193
86832at3193
86917at3193
86989at3193
86989at3193
87062at3193
87393at3193
87537at3193
88005at3193
88005at3193
88005at3193
88591at3193
88949at3193
89076at3193
89100at3193
89100at3193
89263at3193
89263at3193
90324at3193
90324at3193
90458at3193
90464at3193
90521at3193
90780at3193
90842at3193
91048at3193
91082at3193
91089at3193
91089at3193
91089at3193
91220at3193
91402at3193
91585at3193
91585at3193
91873at3193
92659at3193
93783at3193
94214at3193
94219at3193
94362at3193
94735at3193
94986at3193
95104at3193
95114at3193
95185at3193
95185at3193
95185at3193
95481at3193
96092at3193
96112at3193
96118at3193
96469at3193
96478at3193
96694at3193
96694at3193
96694at3193
96825at3193
97542at3193
99077at3193
99091at3193
99095at3193
99337at3193
99652at3193
99659at3193
100472at3193
100472at3193
100472at3193
100693at3193
100693at3193
100693at3193
101336at3193
101442at3193
101735at3193
101744at3193
102301at3193
102470at3193
102470at3193
102538at3193
102703at3193
103054at3193
103054at3193
103261at3193
103418at3193
103418at3193
103418at3193
103454at3193
103458at3193
103458at3193
104085at3193
104170at3193
104849at3193
104849at3193
104849at3193
104863at3193
104863at3193
104863at3193
105038at3193
105152at3193
105152at3193
105160at3193
105160at3193
105160at3193
105366at3193
105366at3193
105366at3193
105380at3193
105380at3193
105405at3193
105470at3193
105656at3193
105662at3193
107992at3193
108382at3193
108586at3193
108706at3193
109071at3193
109096at3193
109325at3193
109325at3193
109328at3193
109341at3193
109364at3193
109394at3193
109552at3193
110023at3193
110118at3193
110122at3193
110615at3193
110617at3193
110617at3193
111493at3193
111709at3193
111709at3193
111709at3193
111753at3193
111753at3193
111753at3193
111949at3193
111949at3193
112185at3193
112291at3193
112609at3193
112609at3193
112828at3193
113209at3193
113230at3193
113230at3193
113276at3193
113514at3193
113964at3193
113964at3193
114367at3193
114367at3193
114420at3193
114420at3193
114420at3193
114533at3193
114571at3193
114571at3193
115044at3193
115172at3193
115278at3193
115278at3193
115377at3193
115537at3193
115652at3193
115652at3193
115953at3193
116353at3193
116353at3193
116868at3193
116963at3193
117028at3193
117072at3193
117785at3193
117788at3193
118094at3193
118094at3193
118094at3193
118313at3193
118313at3193
118313at3193
118639at3193
119341at3193
119341at3193
119367at3193
119367at3193
119367at3193
119415at3193
120357at3193
120357at3193
120357at3193
120627at3193
120714at3193
120718at3193
120718at3193
120718at3193
120730at3193
120730at3193
120972at3193
121132at3193
121132at3193
121132at3193
121345at3193
121345at3193
121345at3193
121419at3193
121531at3193
121539at3193
121638at3193
121971at3193
121971at3193
121971at3193
122353at3193
122353at3193
122353at3193
122450at3193
122476at3193
122934at3193
122934at3193
123292at3193
123292at3193
123630at3193
123784at3193
123784at3193
124129at3193
124129at3193
124129at3193
124504at3193
124542at3193
124542at3193
124542at3193
124686at3193
124686at3193
125213at3193
125597at3193
125597at3193
125597at3193
126110at3193
126310at3193
126380at3193
126918at3193
127141at3193
127141at3193
127141at3193
127464at3193
127764at3193
127774at3193
127800at3193
127808at3193
127808at3193
128124at3193
128218at3193
128312at3193
128656at3193
128799at3193
129010at3193
129010at3193
129010at3193
129063at3193
129063at3193
129063at3193
129341at3193
129584at3193
129584at3193
129584at3193
129904at3193
129904at3193
129904at3193
130037at3193
130505at3193
130511at3193
130625at3193
130795at3193
130835at3193
131273at3193
131437at3193
131839at3193
132355at3193
132355at3193
133295at3193
133520at3193
133826at3193
134135at3193
134161at3193
134178at3193
134555at3193
134572at3193
134878at3193
134878at3193
134878at3193
134953at3193
135198at3193
135305at3193
135305at3193
135305at3193
136227at3193
136227at3193
136227at3193
136660at3193
136660at3193
136660at3193
137523at3193
137933at3193
137933at3193
138005at3193
138210at3193
138284at3193
138284at3193
138284at3193
138352at3193
138397at3193
138397at3193
138402at3193
138707at3193
138855at3193
139014at3193
139014at3193
139014at3193
139843at3193
139971at3193
139971at3193
140075at3193
140146at3193
140146at3193
140590at3193
140590at3193
140590at3193
141065at3193
141280at3193
141488at3193
141575at3193
141660at3193
143110at3193
143110at3193
143110at3193
143219at3193
143219at3193
143276at3193
143276at3193
143276at3193
143563at3193
143563at3193
143563at3193
143643at3193
143643at3193
143653at3193
143770at3193
143770at3193
143942at3193
143942at3193
144036at3193
144311at3193
144455at3193
144455at3193
144523at3193
144969at3193
145050at3193
145050at3193
145105at3193
145105at3193
145105at3193
145172at3193
145718at3193
145718at3193
145760at3193
145776at3193
145776at3193
145857at3193
146304at3193
146428at3193
146440at3193
147098at3193
147098at3193
147098at3193
147120at3193
147167at3193
147320at3193
147320at3193
147320at3193
147386at3193
147523at3193
147820at3193
147820at3193
148068at3193
148068at3193
148068at3193
148097at3193
148097at3193
148721at3193
148729at3193
148840at3193
150672at3193
150771at3193
150871at3193
150913at3193
151358at3193
151358at3193
151476at3193
151476at3193
151491at3193
151650at3193
152030at3193
152129at3193
152646at3193
152910at3193
152910at3193
153132at3193
153139at3193
153139at3193
153426at3193
153434at3193
153660at3193
153829at3193
154063at3193
154116at3193
154272at3193
154272at3193
154546at3193
154694at3193
155112at3193
155121at3193
155203at3193
155380at3193
155380at3193
156170at3193
156170at3193
156170at3193
156254at3193
156254at3193
156254at3193
156527at3193
157002at3193
157312at3193
157529at3193
157529at3193
157529at3193
157570at3193
157570at3193
157608at3193
157608at3193
157608at3193
157618at3193
157970at3193
157980at3193
157980at3193
158175at3193
158302at3193
158302at3193
158302at3193
158558at3193
159297at3193
159411at3193
159575at3193
159575at3193
159603at3193
159907at3193
160775at3193
161183at3193
161183at3193
161537at3193
161721at3193
162002at3193
162190at3193
162254at3193
162373at3193
162373at3193
162373at3193
162410at3193
162418at3193
162526at3193
162526at3193
162804at3193
162804at3193
162919at3193
163003at3193
163007at3193
163212at3193
163212at3193
163212at3193
163263at3193
163383at3193
163383at3193
163383at3193
163466at3193
163466at3193
163466at3193
163589at3193
164172at3193
164172at3193
164172at3193
164462at3193
164523at3193
164589at3193
164966at3193
164966at3193
164966at3193
165314at3193
165321at3193
165321at3193
165321at3193
165381at3193
165834at3193
165991at3193
166043at3193
166043at3193
166043at3193
166256at3193
166256at3193
166433at3193
166433at3193
166568at3193
166627at3193
166627at3193
166627at3193
166883at3193
167028at3193
167028at3193
167052at3193
167052at3193
167170at3193
167614at3193
167808at3193
167863at3193
167863at3193
167863at3193
168007at3193
168033at3193
168033at3193
168428at3193
168457at3193
168772at3193
169146at3193
169146at3193
169146at3193
169392at3193
169890at3193
169890at3193
170931at3193
170931at3193
170998at3193
171072at3193
171072at3193
171124at3193
171124at3193
171124at3193
171230at3193
171230at3193
171230at3193
171238at3193
171238at3193
171307at3193
171623at3193
171623at3193
171623at3193
171667at3193
171888at3193
171958at3193
171958at3193
171958at3193
172307at3193
172331at3193
172331at3193
172612at3193
172938at3193
172964at3193
173609at3193
173677at3193
173763at3193
174147at3193
174182at3193
174182at3193
174182at3193
174618at3193
174618at3193
175075at3193
175075at3193
175075at3193
175201at3193
175852at3193
176470at3193
176549at3193
176806at3193
176874at3193
176874at3193
176969at3193
177107at3193
177502at3193
177680at3193
177961at3193
177961at3193
177961at3193
178005at3193
178095at3193
178269at3193
178271at3193
178271at3193
178271at3193
178434at3193
178501at3193
178573at3193
178774at3193
179154at3193
179162at3193
179211at3193
179211at3193
179434at3193
179450at3193
179450at3193
179450at3193
179537at3193
179584at3193
179638at3193
179742at3193
179820at3193
179820at3193
179820at3193
180106at3193
180289at3193
180289at3193
180395at3193
180615at3193
180615at3193
180615at3193
180839at3193
181954at3193
182056at3193
182056at3193
182056at3193
182370at3193
182370at3193
183896at3193
183896at3193
183896at3193
184242at3193
184242at3193
184250at3193
184250at3193
184250at3193
184280at3193
184565at3193
184565at3193
184565at3193
184637at3193
184869at3193
184869at3193
184869at3193
184923at3193
184963at3193
185081at3193
185081at3193
185149at3193
185632at3193
185632at3193
185632at3193
186115at3193
186228at3193
186725at3193
186725at3193
187064at3193
187120at3193
187340at3193
187345at3193
187627at3193
187828at3193
187828at3193
188597at3193
189022at3193
189624at3193
189624at3193
189624at3193
191064at3193
191064at3193
191077at3193
191077at3193
191247at3193
191247at3193
191247at3193
192570at3193
192570at3193
192570at3193
192752at3193
192752at3193
192752at3193
193065at3193
193065at3193
193252at3193
193252at3193
193277at3193
193277at3193
193818at3193
193818at3193
193818at3193
193902at3193
193910at3193
193996at3193
194233at3193
194233at3193
194233at3193
194237at3193
194237at3193
194511at3193
196221at3193
196221at3193
196221at3193
196323at3193
196423at3193
196423at3193
196423at3193
196442at3193
196442at3193
196453at3193
197017at3193
197017at3193
197017at3193
197152at3193
197152at3193
197413at3193
197413at3193
197413at3193
197545at3193
197836at3193
197836at3193
199845at3193
199941at3193
199941at3193
199941at3193
200083at3193
200083at3193
200301at3193
200301at3193
200301at3193
200869at3193
201093at3193
202147at3193
202147at3193
202185at3193
202482at3193
202482at3193
202482at3193
202553at3193
203809at3193
203809at3193
203809at3193
204060at3193
204060at3193
204701at3193
205878at3193
205887at3193
205963at3193
205963at3193
205963at3193
206707at3193
206860at3193
206860at3193
206860at3193
206888at3193
207344at3193
207476at3193
207533at3193
207537at3193
208235at3193
210541at3193
211137at3193
211824at3193
212874at3193
212874at3193
212908at3193
212908at3193
213697at3193
213743at3193
213743at3193
214134at3193
214134at3193
214225at3193
214225at3193
214225at3193
214985at3193
214985at3193
214985at3193
216356at3193
216383at3193
216383at3193
216383at3193
217135at3193
217208at3193
217208at3193
217208at3193
217398at3193
217409at3193
218126at3193
218897at3193
219117at3193
220203at3193
220203at3193
220203at3193
220518at3193
220518at3193
220874at3193
223334at3193
223334at3193
225752at3193
225752at3193
225752at3193
