fragScaff_scaffold_3284	565017	946633	PILAhm_000281-RA	.	-	1	fragScaff_scaffold_3284	920763	1038462	g174816	.	-
fragScaff_scaffold_734	381211	449942	PILAhm_000835-RA	.	-	1	fragScaff_scaffold_734	325005	449918	g218826	.	-
fragScaff_scaffold_13217	2780528	2807457	PILAhm_000225-RA	.	+	1	fragScaff_scaffold_13217	2765152	2782551	g94672	.	+
fragScaff_scaffold_6455	655871	1081998	PILAhm_001000-RA	.	+	1	fragScaff_scaffold_6455	829804	1082212	g201640	.	+
fragScaff_scaffold_4239	760290	855181	PILAhm_000516-RA	.	+	1	fragScaff_scaffold_4239	758334	777484	g79446	.	+
fragScaff_scaffold_8102	45242	68364	PILAhm_001363-RA	.	-	1	fragScaff_scaffold_8102	67657	75638	g13338	.	-
fragScaff_scaffold_8880	6886470	7000331	PILAhm_000989-RA	.	+	2	fragScaff_scaffold_8880	6885804	6887429	gb|GEUZ01017487.1|	.	+
fragScaff_scaffold_8880	6886470	7000331	PILAhm_000989-RA	.	+	2	fragScaff_scaffold_8880	6842120	6886589	gb|GEUZ01006245.1|	.	+
fragScaff_scaffold_12205	755986	847764	PILAhm_000785-RA	.	+	1	fragScaff_scaffold_12205	567419	814617	g72384	.	+
fragScaff_scaffold_11356	3816641	4044796	PILAhm_001539-RA	.	-	1	fragScaff_scaffold_11356	3816330	4044697	g58786.1	.	-
fragScaff_scaffold_11356	3816641	4044796	PILAhm_001539-RA	.	-	1	fragScaff_scaffold_11356	3816330	4044697	g58786.2	.	-
fragScaff_scaffold_2199	1405720	1723245	PILAhm_000171-RA	.	-	1	fragScaff_scaffold_2199	1722573	1740718	g158669	.	-
fragScaff_scaffold_2199	1405720	1723245	PILAhm_000171-RA	.	-	1	fragScaff_scaffold_2199	1405427	1696369	g158668	.	-
fragScaff_scaffold_12130	1744372	1815139	PILAhm_001112-RA	.	+	1	fragScaff_scaffold_12130	1719352	1815092	g70581	.	+
fragScaff_scaffold_16491	334523	518235	PILAhm_000765-RA	.	+	1	fragScaff_scaffold_16491	517239	518443	g143180	.	+
fragScaff_scaffold_16491	334523	518235	PILAhm_000765-RA	.	+	1	fragScaff_scaffold_16491	334163	465144	g143179	.	+
fragScaff_scaffold_554	815373	826113	PILAhm_001011-RA	.	+	1	fragScaff_scaffold_554	810217	815900	g197862	.	+
fragScaff_scaffold_9846	146867	217601	PILAhm_001957-RA	.	-	2	fragScaff_scaffold_9846	145123	148268	gb|GEUZ01009617.1|	.	-
fragScaff_scaffold_9846	146867	217601	PILAhm_001957-RA	.	-	1	fragScaff_scaffold_9846	147321	325660	g38284	.	-
fragScaff_scaffold_15578	2363782	2452901	PILAhm_001731-RA	.	-	2	fragScaff_scaffold_15578	2364754	2457889	gb|GEUZ01003377.1|	.	-
fragScaff_scaffold_1284	118209	307019	PILAhm_000149-RA	.	-	1	fragScaff_scaffold_1284	117453	307001	g84035	.	-
fragScaff_scaffold_3575	496759	558406	PILAhm_001256-RA	.	-	1	fragScaff_scaffold_3575	534867	598284	g972.1	.	-
fragScaff_scaffold_3575	496759	558406	PILAhm_001256-RA	.	-	1	fragScaff_scaffold_3575	534867	598284	g972.2	.	-
fragScaff_scaffold_6637	5446941	5500472	PILAhm_000363-RA	.	-	2	fragScaff_scaffold_6637	5447430	5502102	gb|GEUZ01018542.1|	.	-
fragScaff_scaffold_7668	4258099	4662772	PILAhm_001156-RA	.	-	1	fragScaff_scaffold_7668	4257833	4432355	g219260	.	-
fragScaff_scaffold_377	8359396	8669343	PILAhm_000351-RA	.	+	1	fragScaff_scaffold_377	8357937	8445216	g152832.2	.	+
fragScaff_scaffold_801	5013914	5175525	PILAhm_000317-RA	.	+	1	fragScaff_scaffold_801	5060306	5179105	g16139	.	+
fragScaff_scaffold_11456	16108	69065	PILAhm_000813-RA	.	-	1	fragScaff_scaffold_11456	13158	55987	g59829.1	.	-
fragScaff_scaffold_5997	2199165	2291487	PILAhm_002081-RA	.	+	1	fragScaff_scaffold_5997	2199339	2349204	g194772	.	+
fragScaff_scaffold_712	3344166	3580867	PILAhm_000409-RA	.	+	1	fragScaff_scaffold_712	3317785	3362882	g218522	.	+
fragScaff_scaffold_712	3344166	3580867	PILAhm_000409-RA	.	+	1	fragScaff_scaffold_712	3417848	3580900	g218528	.	+
fragScaff_scaffold_15069	1246729	1622840	PILAhm_001197-RA	.	-	1	fragScaff_scaffold_15069	1246051	1266149	g122114.1	.	-
fragScaff_scaffold_15069	1246729	1622840	PILAhm_001197-RA	.	-	1	fragScaff_scaffold_15069	1246051	1266149	g122114.2	.	-
fragScaff_scaffold_15069	1246729	1622840	PILAhm_001197-RA	.	-	1	fragScaff_scaffold_15069	1246051	1266149	g122114.3	.	-
fragScaff_scaffold_10905	1413299	1679974	PILAhm_001415-RA	.	-	1	fragScaff_scaffold_10905	1412981	1427677	g52292	.	-
fragScaff_scaffold_12995	33364	126266	PILAhm_002061-RA	.	-	1	fragScaff_scaffold_12995	124663	129189	g91721	.	-
fragScaff_scaffold_1096	1621134	1967959	PILAhm_000280-RA	.	-	1	fragScaff_scaffold_1096	1603957	1893508	g51693	.	-
fragScaff_scaffold_7477	751643	913462	PILAhm_000817-RA	.	+	1	fragScaff_scaffold_7477	751652	913575	g216383	.	+
fragScaff_scaffold_5374	2462903	2511211	PILAhm_002103-RA	.	+	1	fragScaff_scaffold_5374	2462906	2511470	g185873	.	+
fragScaff_scaffold_377	10451758	10962721	PILAhm_000249-RA	.	-	1	fragScaff_scaffold_377	10515436	10967352	g152855	.	-
fragScaff_scaffold_3694	6451898	6828874	PILAhm_001580-RA	.	-	1	fragScaff_scaffold_3694	6451765	6657351	g2927	.	-
fragScaff_scaffold_2901	6362650	6671906	PILAhm_001179-RA	.	+	1	fragScaff_scaffold_2901	6488896	6787489	g169244	.	+
fragScaff_scaffold_6930	951692	1389276	PILAhm_001638-RA	.	+	1	fragScaff_scaffold_6930	1366582	1389776	g208566	.	+
fragScaff_scaffold_14057	1935600	2441949	PILAhm_000949-RA	.	-	1	fragScaff_scaffold_14057	1902675	2308824	g106647	.	-
fragScaff_scaffold_15147	694429	1224219	PILAhm_000138-RA	.	-	1	fragScaff_scaffold_15147	693416	917851	g123100	.	-
fragScaff_scaffold_15147	694429	1224219	PILAhm_000138-RA	.	-	2	fragScaff_scaffold_15147	693416	917851	gb|GEUZ01007956.1|	.	-
fragScaff_scaffold_15147	694429	1224219	PILAhm_000138-RA	.	-	1	fragScaff_scaffold_15147	1096227	1224657	g123104.1	.	-
fragScaff_scaffold_15147	694429	1224219	PILAhm_000138-RA	.	-	1	fragScaff_scaffold_15147	1096227	1224657	g123104.2	.	-
fragScaff_scaffold_3515	903238	1063248	PILAhm_000134-RA	.	-	1	fragScaff_scaffold_3515	888179	904581	g22	.	-
fragScaff_scaffold_4411	1515446	1658494	PILAhm_001542-RA	.	-	1	fragScaff_scaffold_4411	1655236	1659359	g82086	.	+
fragScaff_scaffold_12714	238873	396923	PILAhm_000232-RA	.	+	1	fragScaff_scaffold_12714	238822	396674	g87330	.	+
fragScaff_scaffold_11413	691303	1267469	PILAhm_000143-RA	.	+	2	fragScaff_scaffold_11413	1079321	1655738	gb|GEUZ01020347.1|	.	+
fragScaff_scaffold_3125	974571	1434634	PILAhm_001948-RA	.	+	1	fragScaff_scaffold_3125	1349404	1435415	g172376	.	+
fragScaff_scaffold_3125	974571	1434634	PILAhm_001948-RA	.	+	1	fragScaff_scaffold_3125	974058	1279291	g172371	.	+
fragScaff_scaffold_348	4316342	4625672	PILAhm_000839-RA	.	-	1	fragScaff_scaffold_348	4315978	4544707	g78694.1	.	-
fragScaff_scaffold_348	4316342	4625672	PILAhm_000839-RA	.	-	1	fragScaff_scaffold_348	4315978	4544707	g78694.2	.	-
fragScaff_scaffold_348	4316342	4625672	PILAhm_000839-RA	.	-	1	fragScaff_scaffold_348	4315978	4544707	g78694.3	.	-
fragScaff_scaffold_2131	290910	470644	PILAhm_001988-RA	.	+	1	fragScaff_scaffold_2131	277943	437715	g151208.1	.	+
fragScaff_scaffold_9190	1889971	2099828	PILAhm_000731-RA	.	-	1	fragScaff_scaffold_9190	1889751	2045630	g29407	.	-
fragScaff_scaffold_7963	559366	721760	PILAhm_001954-RA	.	+	1	fragScaff_scaffold_7963	559372	777506	g11290	.	+
fragScaff_scaffold_5394	3771969	4213508	PILAhm_001486-RA	.	-	1	fragScaff_scaffold_5394	3771519	3880594	g186272	.	-
fragScaff_scaffold_11688	678258	1080767	PILAhm_001704-RA	.	+	1	fragScaff_scaffold_11688	677876	947636	g63567	.	+
fragScaff_scaffold_14087	2557489	2884738	PILAhm_001258-RA	.	+	2	fragScaff_scaffold_14087	2622293	4160168	gb|GEUZ01001131.1|	.	+
fragScaff_scaffold_12804	1031867	1394755	PILAhm_000936-RA	.	+	1	fragScaff_scaffold_12804	1031648	1254410	g88863	.	+
fragScaff_scaffold_781	235749	402989	PILAhm_000912-RA	.	+	1	fragScaff_scaffold_781	384219	429792	g15807	.	+
fragScaff_scaffold_15142	6062264	6096709	PILAhm_000150-RA	.	-	1	fragScaff_scaffold_15142	6061953	6096496	g123029	.	-
fragScaff_scaffold_15189	3399880	3578884	PILAhm_001413-RA	.	-	1	fragScaff_scaffold_15189	3403615	3587997	g123633	.	-
fragScaff_scaffold_12479	1021154	1050318	PILAhm_001642-RA	.	+	2	fragScaff_scaffold_12479	1048712	1050682	gb|GEUZ01008140.1|	.	+
fragScaff_scaffold_12479	1021154	1050318	PILAhm_001642-RA	.	+	2	fragScaff_scaffold_12479	1048712	1050489	gb|GEUZ01009433.1|	.	+
fragScaff_scaffold_12479	1021154	1050318	PILAhm_001642-RA	.	+	2	fragScaff_scaffold_12479	1049575	1050441	gb|GEUZ01018410.1|	.	+
fragScaff_scaffold_10373	1930574	2283925	PILAhm_000818-RA	.	-	1	fragScaff_scaffold_10373	1935689	2337381	g44561	.	-
fragScaff_scaffold_2337	1976510	2402250	PILAhm_000060-RA	.	-	1	fragScaff_scaffold_2337	2186299	2473806	g160742.1	.	-
fragScaff_scaffold_2337	1976510	2402250	PILAhm_000060-RA	.	-	1	fragScaff_scaffold_2337	2186299	2473806	g160742.2	.	-
fragScaff_scaffold_2408	11139216	11485562	PILAhm_000091-RA	.	+	2	fragScaff_scaffold_2408	10965668	11226200	gb|GEUZ01000308.1|	.	-
fragScaff_scaffold_2408	11139216	11485562	PILAhm_000091-RA	.	+	2	fragScaff_scaffold_2408	10966721	11226200	gb|GEUZ01010869.1|	.	-
fragScaff_scaffold_8739	304129	693331	PILAhm_000767-RA	.	+	1	fragScaff_scaffold_8739	226784	358291	g23125	.	+
fragScaff_scaffold_8739	304129	693331	PILAhm_000767-RA	.	+	1	fragScaff_scaffold_8739	474453	745192	g23127	.	+
fragScaff_scaffold_2313	3930686	4006341	PILAhm_000531-RA	.	+	1	fragScaff_scaffold_2313	3913361	4006162	g160329	.	+
fragScaff_scaffold_7197	4474912	4906310	PILAhm_001457-RA	.	-	1	fragScaff_scaffold_7197	4906203	4937317	g212281	.	-
fragScaff_scaffold_15575	2015845	2464591	PILAhm_000703-RA	.	-	1	fragScaff_scaffold_15575	2005590	2016773	g129766	.	-
fragScaff_scaffold_15575	2015845	2464591	PILAhm_000703-RA	.	-	1	fragScaff_scaffold_15575	2309835	2586295	g129771.3	.	-
fragScaff_scaffold_6557	319319	780443	PILAhm_000808-RA	.	-	1	fragScaff_scaffold_6557	319217	606432	g202961	.	-
fragScaff_scaffold_6557	319319	780443	PILAhm_000808-RA	.	-	1	fragScaff_scaffold_6557	642480	835638	g202962	.	-
fragScaff_scaffold_8537	790378	951826	PILAhm_001942-RA	.	-	2	fragScaff_scaffold_8537	511524	790881	gb|GEUZ01008281.1|	.	-
fragScaff_scaffold_8537	790378	951826	PILAhm_001942-RA	.	-	2	fragScaff_scaffold_8537	511524	790881	gb|GEUZ01011330.1|	.	-
fragScaff_scaffold_8537	790378	951826	PILAhm_001942-RA	.	-	2	fragScaff_scaffold_8537	755493	790881	gb|GEUZ01032398.1|	.	-
fragScaff_scaffold_8537	790378	951826	PILAhm_001942-RA	.	-	2	fragScaff_scaffold_8537	755493	790881	gb|GEUZ01032432.1|	.	-
fragScaff_scaffold_3977	5345510	5437389	PILAhm_001245-RA	.	-	1	fragScaff_scaffold_3977	5397830	5437821	g75488	.	-
fragScaff_scaffold_10225	1133693	1335951	PILAhm_000978-RA	.	-	1	fragScaff_scaffold_10225	1058654	1322972	g42929	.	-
fragScaff_scaffold_13367	5654468	6162009	PILAhm_002065-RA	.	+	2	fragScaff_scaffold_13367	4870346	5992455	gb|GEUZ01001687.1|	.	-
fragScaff_scaffold_9687	1218288	1758529	PILAhm_001181-RA	.	+	1	fragScaff_scaffold_9687	1501088	1814730	g35754	.	+
fragScaff_scaffold_397	1629976	1884640	PILAhm_000026-RA	.	-	1	fragScaff_scaffold_397	1884143	1887759	g153081	.	-
fragScaff_scaffold_7185	1235587	1564989	PILAhm_000762-RA	.	-	1	fragScaff_scaffold_7185	1491795	1622678	g212070.2	.	-
fragScaff_scaffold_5601	139066	416935	PILAhm_000372-RA	.	+	1	fragScaff_scaffold_5601	138682	375822	g189329.1	.	+
fragScaff_scaffold_5601	139066	416935	PILAhm_000372-RA	.	+	1	fragScaff_scaffold_5601	138682	375822	g189329.2	.	+
fragScaff_scaffold_5601	139066	416935	PILAhm_000372-RA	.	+	1	fragScaff_scaffold_5601	138682	375822	g189329.3	.	+
fragScaff_scaffold_8090	3194104	3295365	PILAhm_000983-RA	.	+	1	fragScaff_scaffold_8090	3194116	3295527	g13078.1	.	+
fragScaff_scaffold_8090	3194104	3295365	PILAhm_000983-RA	.	+	1	fragScaff_scaffold_8090	3194116	3295527	g13078.2	.	+
fragScaff_scaffold_15244	252675	625031	PILAhm_000733-RA	.	+	1	fragScaff_scaffold_15244	507054	643223	g124389	.	+
fragScaff_scaffold_14662	275775	536388	PILAhm_001339-RA	.	+	1	fragScaff_scaffold_14662	272694	277025	g116091	.	+
fragScaff_scaffold_451	1046417	1459148	PILAhm_000230-RA	.	-	1	fragScaff_scaffold_451	1458975	1522599	g158025	.	-
fragScaff_scaffold_16456	1076047	1159825	PILAhm_000727-RA	.	-	1	fragScaff_scaffold_16456	1067164	1159798	g142775.2	.	-
fragScaff_scaffold_3072	1486142	1818154	PILAhm_001073-RA	.	-	1	fragScaff_scaffold_3072	1776320	1826199	g171823	.	-
fragScaff_scaffold_12457	1519991	1837770	PILAhm_000184-RA	.	-	1	fragScaff_scaffold_12457	1674293	1837978	g82808	.	-
fragScaff_scaffold_2218	1059066	1380309	PILAhm_001458-RA	.	-	1	fragScaff_scaffold_2218	1336100	1380610	g158859	.	-
fragScaff_scaffold_11731	713022	1099534	PILAhm_000257-RA	.	+	2	fragScaff_scaffold_11731	1001477	1101292	gb|GEUZ01014585.1|	.	+
fragScaff_scaffold_3930	210518	830354	PILAhm_001620-RA	.	-	1	fragScaff_scaffold_3930	378588	830777	g6441	.	-
fragScaff_scaffold_6773	2901393	3292961	PILAhm_002047-RA	.	-	1	fragScaff_scaffold_6773	3105808	3360126	g206401.1	.	-
fragScaff_scaffold_6773	2901393	3292961	PILAhm_002047-RA	.	-	1	fragScaff_scaffold_6773	3105808	3360126	g206401.2	.	-
fragScaff_scaffold_13868	120012	547880	PILAhm_000300-RA	.	-	1	fragScaff_scaffold_13868	80105	494823	g103639	.	-
fragScaff_scaffold_3733	789350	844998	PILAhm_000515-RA	.	-	1	fragScaff_scaffold_3733	843995	845034	g3412	.	-
fragScaff_scaffold_3733	789350	844998	PILAhm_000515-RA	.	-	1	fragScaff_scaffold_3733	781381	790127	g3409	.	-
fragScaff_scaffold_7063	1577551	1726579	PILAhm_000175-RA	.	+	2	fragScaff_scaffold_7063	1577938	1749295	gb|GEUZ01003814.1|	.	+
fragScaff_scaffold_7063	1577551	1726579	PILAhm_000175-RA	.	+	2	fragScaff_scaffold_7063	1703351	1729569	gb|GEUZ01025801.1|	.	+
fragScaff_scaffold_1550	218741	610950	PILAhm_000528-RA	.	+	1	fragScaff_scaffold_1550	110578	289033	g125165	.	+
fragScaff_scaffold_2785	574607	752946	PILAhm_000240-RA	.	-	1	fragScaff_scaffold_2785	574389	752925	g167078	.	-
fragScaff_scaffold_16080	869441	946631	PILAhm_001426-RA	.	-	1	fragScaff_scaffold_16080	941939	947094	g137173	.	-
fragScaff_scaffold_491	1527401	1965178	PILAhm_001718-RA	.	+	1	fragScaff_scaffold_491	1506186	1736699	g187808	.	+
fragScaff_scaffold_491	1527401	1965178	PILAhm_001718-RA	.	+	1	fragScaff_scaffold_491	1820425	2166189	g187809.1	.	-
fragScaff_scaffold_8571	796801	1251690	PILAhm_001932-RA	.	+	1	fragScaff_scaffold_8571	1113524	1252432	g20496	.	+
fragScaff_scaffold_5629	1033155	1036072	PILAhm_001284-RA	.	+	1	fragScaff_scaffold_5629	1035300	1055724	g189793	.	+
fragScaff_scaffold_8302	5175177	5422116	PILAhm_000078-RA	.	+	2	fragScaff_scaffold_8302	5136720	5422079	gb|GEUZ01012697.1|	.	+
fragScaff_scaffold_16056	481102	709427	PILAhm_000942-RA	.	+	1	fragScaff_scaffold_16056	481159	709602	g136905.2	.	+
fragScaff_scaffold_5835	1883075	2147367	PILAhm_000500-RA	.	-	1	fragScaff_scaffold_5835	1879547	2079134	g192422	.	-
fragScaff_scaffold_14150	3350719	3397380	PILAhm_001451-RA	.	-	1	fragScaff_scaffold_14150	3395932	3397447	g107993	.	+
fragScaff_scaffold_15693	980852	1489822	PILAhm_000227-RA	.	+	1	fragScaff_scaffold_15693	1253087	1490180	g131849	.	+
fragScaff_scaffold_11554	313109	643444	PILAhm_000822-RA	.	+	1	fragScaff_scaffold_11554	264272	464494	g61068	.	+
fragScaff_scaffold_12396	1231802	1840180	PILAhm_000165-RA	.	+	1	fragScaff_scaffold_12396	1213707	1262596	g74861	.	+
fragScaff_scaffold_2971	96824	351962	PILAhm_001968-RA	.	-	1	fragScaff_scaffold_2971	96779	351950	g170258.1	.	-
fragScaff_scaffold_2971	96824	351962	PILAhm_001968-RA	.	-	1	fragScaff_scaffold_2971	96779	351950	g170258.2	.	-
fragScaff_scaffold_3477	1546405	1887666	PILAhm_000972-RA	.	+	1	fragScaff_scaffold_3477	1438301	1708308	g177103	.	+
fragScaff_scaffold_8576	3925759	4149180	PILAhm_001581-RA	.	-	1	fragScaff_scaffold_8576	3920636	3984906	g20659	.	-
fragScaff_scaffold_10857	6822861	7013430	PILAhm_001046-RA	.	+	1	fragScaff_scaffold_10857	6935533	7013825	g51036.1	.	+
fragScaff_scaffold_7197	2110619	2305419	PILAhm_000374-RA	.	+	1	fragScaff_scaffold_7197	2269747	2306895	g212265	.	+
fragScaff_scaffold_7197	2110619	2305419	PILAhm_000374-RA	.	+	1	fragScaff_scaffold_7197	1959239	2163947	g212261	.	+
fragScaff_scaffold_12249	4244895	4508579	PILAhm_002040-RA	.	+	1	fragScaff_scaffold_12249	4280303	4515944	g72804	.	+
fragScaff_scaffold_5635	580613	607167	PILAhq_060354-RA	.	-	1	fragScaff_scaffold_5635	581015	667685	g189960	.	-
fragScaff_scaffold_5635	580613	607167	PILAhq_060354-RA	.	-	2	fragScaff_scaffold_5635	581015	667685	gb|GEUZ01001211.1|	.	-
fragScaff_scaffold_15395	793935	799986	PILAhq_049678-RA	.	+	2	fragScaff_scaffold_15395	796598	799991	gb|GEUZ01009002.1|	.	+
fragScaff_scaffold_1984	2693939	2696897	PILAhq_052308-RA	.	-	1	fragScaff_scaffold_1984	2650643	2696822	g148821	.	-
fragScaff_scaffold_14045	801004	805967	PILAhq_022646-RA	.	-	1	fragScaff_scaffold_14045	796258	805952	g106419.2	.	-
fragScaff_scaffold_12040	1111980	1133131	PILAhq_023058-RA	.	-	1	fragScaff_scaffold_12040	1127991	1133664	g69250	.	-
fragScaff_scaffold_2229	7854954	7858544	PILAlq_056772-RA	.	+	1	fragScaff_scaffold_2229	7857009	7860259	g159027	.	+
fragScaff_scaffold_414	780095	780837	PILAhq_080660-RA	.	-	2	fragScaff_scaffold_414	780475	780882	gb|GEUZ01028456.1|	.	-
fragScaff_scaffold_8407	2725838	2740594	PILAhq_053044-RA	.	-	1	fragScaff_scaffold_8407	2723953	2727191	g17964	.	-
fragScaff_scaffold_13107	807498	808851	PILAhq_037010-RA	.	-	1	fragScaff_scaffold_13107	808418	810551	g93003.1	.	+
fragScaff_scaffold_1031	444018	444742	PILAhq_024012-RA	.	-	1	fragScaff_scaffold_1031	443664	444505	g46293	.	-
fragScaff_scaffold_14356	2082784	2084355	PILAhq_070634-RA	.	+	1	fragScaff_scaffold_14356	2082781	2083798	g110896	.	+
fragScaff_scaffold_3236	854617	857379	PILAhq_003466-RA	.	-	1	fragScaff_scaffold_3236	739361	857244	g174164	.	-
fragScaff_scaffold_5136	434111	438073	PILAhq_049317-RA	.	-	1	fragScaff_scaffold_5136	432216	436241	g181964	.	-
fragScaff_scaffold_7529	841580	844391	PILAhq_034222-RA	.	+	1	fragScaff_scaffold_7529	840422	843065	g217054	.	+
fragScaff_scaffold_14464	455133	538935	PILAhq_021886-RA	.	-	2	fragScaff_scaffold_14464	447597	537195	gb|GEUZ01012746.1|	.	-
fragScaff_scaffold_15840	150207	152504	PILAhq_060185-RA	.	+	2	fragScaff_scaffold_15840	151621	247782	gb|GEUZ01012668.1|	.	+
fragScaff_scaffold_15840	150207	152504	PILAhq_060185-RA	.	+	2	fragScaff_scaffold_15840	48289	151947	gb|GEUZ01027143.1|	.	+
fragScaff_scaffold_5109	472132	475509	PILAhq_037950-RA	.	+	1	fragScaff_scaffold_5109	474166	475637	g181567	.	+
fragScaff_scaffold_2283	33560	34776	PILAhq_083167-RA	.	-	1	fragScaff_scaffold_2283	33386	33976	g159769	.	-
fragScaff_scaffold_11057	206459	281475	PILAhq_026686-RA	.	-	1	fragScaff_scaffold_11057	207194	281816	g53960	.	-
fragScaff_scaffold_9659	43365	61457	PILAhq_070038-RA	.	+	2	fragScaff_scaffold_9659	7727	61358	gb|GEUZ01015676.1|	.	+
fragScaff_scaffold_15299	460179	461561	PILAlq_093110-RA	.	-	1	fragScaff_scaffold_15299	460009	461558	g125574	.	-
fragScaff_scaffold_4840	1557558	1562778	PILAhq_063156-RA	.	+	1	fragScaff_scaffold_4840	1561147	1563010	g157014	.	+
fragScaff_scaffold_8444	927822	932905	PILAhq_036886-RA	.	+	2	fragScaff_scaffold_8444	849515	930205	gb|GEUZ01000048.1|	.	+
fragScaff_scaffold_15594	2425438	2427132	PILAhq_074296-RA	.	+	1	fragScaff_scaffold_15594	2424343	2425725	g130640.1	.	+
fragScaff_scaffold_11586	2028467	2029859	PILAhq_057818-RA	.	+	1	fragScaff_scaffold_11586	2028554	2035724	g61332	.	+
fragScaff_scaffold_4488	7248684	7253230	PILAhq_071295-RA	.	-	1	fragScaff_scaffold_4488	7143557	7253200	g152200	.	-
fragScaff_scaffold_14203	1928802	1934517	PILAhq_033929-RA	.	+	1	fragScaff_scaffold_14203	1930705	1937278	g108612	.	-
fragScaff_scaffold_4984	2013139	2013789	PILAlq_051100-RA	.	-	1	fragScaff_scaffold_4984	2011161	2013669	g179990	.	-
fragScaff_scaffold_5453	2124023	2124440	PILAhq_033508-RA	.	-	1	fragScaff_scaffold_5453	2109758	2124398	g187153	.	-
fragScaff_scaffold_14226	273381	276907	PILAhq_056621-RA	.	+	1	fragScaff_scaffold_14226	273420	277004	g108972	.	+
fragScaff_scaffold_863	900299	902459	PILAhq_045410-RA	.	+	1	fragScaff_scaffold_863	900016	900550	g26202	.	+
fragScaff_scaffold_6249	174110	177951	PILAhq_069468-RA	.	-	1	fragScaff_scaffold_6249	173563	177930	g198890.2	.	-
fragScaff_scaffold_1560	2205212	2213342	PILAhq_070225-RA	.	-	1	fragScaff_scaffold_1560	2115320	2209856	g130122	.	-
fragScaff_scaffold_7217	911499	915690	PILAhq_032423-RA	.	-	1	fragScaff_scaffold_7217	915208	915981	g212521	.	-
fragScaff_scaffold_4454	520364	544993	PILAhq_034268-RA	.	+	1	fragScaff_scaffold_4454	519495	541455	g151543	.	+
fragScaff_scaffold_7662	6908084	6910877	PILAhq_035750-RA	.	-	1	fragScaff_scaffold_7662	6878466	6910616	g219187	.	-
fragScaff_scaffold_7662	6908084	6910877	PILAhq_035750-RA	.	-	2	fragScaff_scaffold_7662	6878466	6910616	gb|GEUZ01009284.1|	.	-
fragScaff_scaffold_12814	2433739	2435533	PILAhq_052236-RA	.	+	1	fragScaff_scaffold_12814	2417019	2435522	g89053	.	+
fragScaff_scaffold_4266	2793251	2794015	PILAlq_103752-RA	.	-	1	fragScaff_scaffold_4266	2793228	2793559	g79987	.	-
fragScaff_scaffold_12078	10567512	10570263	PILAhq_023773-RA	.	-	1	fragScaff_scaffold_12078	10556422	10569077	g69886	.	+
fragScaff_scaffold_2923	295370	297344	PILAhq_067002-RA	.	+	2	fragScaff_scaffold_2923	297039	497897	gb|GEUZ01021351.1|	.	+
fragScaff_scaffold_5125	320936	322831	PILAhq_081749-RA	.	-	1	fragScaff_scaffold_5125	322584	457820	g181758	.	-
fragScaff_scaffold_5125	320936	322831	PILAhq_081749-RA	.	-	2	fragScaff_scaffold_5125	321884	457325	gb|GEUZ01015565.1|	.	-
fragScaff_scaffold_1259	2524058	2529896	PILAhq_071231-RA	.	+	1	fragScaff_scaffold_1259	2524061	2608311	g72020	.	+
fragScaff_scaffold_1259	2524058	2529896	PILAhq_071231-RA	.	+	2	fragScaff_scaffold_1259	2524328	2608979	gb|GEUZ01026743.1|	.	+
fragScaff_scaffold_2471	1216943	1235685	PILAhq_044018-RA	.	+	1	fragScaff_scaffold_2471	1216961	1235820	g162873.1	.	+
fragScaff_scaffold_9326	4000029	4002960	PILAhq_053472-RA	.	+	1	fragScaff_scaffold_9326	4000518	4058999	g31864	.	+
fragScaff_scaffold_910	262023	275439	PILAhq_058420-RA	.	+	2	fragScaff_scaffold_910	261370	262573	gb|GEUZ01029203.1|	.	+
fragScaff_scaffold_11193	3081706	3091510	PILAhq_046227-RA	.	+	1	fragScaff_scaffold_11193	3089780	3091660	g55831	.	+
fragScaff_scaffold_15759	870352	871611	PILAlq_110561-RA	.	+	1	fragScaff_scaffold_15759	870385	871749	g132776	.	+
fragScaff_scaffold_8337	1723963	1727945	PILAhq_052749-RA	.	+	1	fragScaff_scaffold_8337	1727331	1730492	g16883	.	+
fragScaff_scaffold_8337	1723963	1727945	PILAhq_052749-RA	.	+	2	fragScaff_scaffold_8337	1727070	1728277	gb|GEUZ01011558.1|	.	+
fragScaff_scaffold_808	3764124	3778495	PILAhq_020121-RA	.	-	1	fragScaff_scaffold_808	3612289	3777830	g21065	.	-
fragScaff_scaffold_15931	703623	706559	PILAlq_004644-RA	.	+	1	fragScaff_scaffold_15931	703644	707930	g135551.1	.	+
fragScaff_scaffold_15931	703623	706559	PILAlq_004644-RA	.	+	1	fragScaff_scaffold_15931	703644	707930	g135551.2	.	+
fragScaff_scaffold_16112	131824	146403	PILAhq_037895-RA	.	+	2	fragScaff_scaffold_16112	137611	146915	gb|GEUZ01010038.1|	.	+
fragScaff_scaffold_3006	5444913	5454585	PILAhq_050954-RA	.	-	2	fragScaff_scaffold_3006	5444950	5611046	gb|GEUZ01004419.1|	.	-
fragScaff_scaffold_5730	1488487	1492518	PILAlq_061249-RA	.	-	1	fragScaff_scaffold_5730	1488264	1492098	g191044	.	-
fragScaff_scaffold_692	2449944	2451693	PILAhq_076210-RA	.	-	1	fragScaff_scaffold_692	2449503	2450395	g213422	.	+
fragScaff_scaffold_692	2449944	2451693	PILAhq_076210-RA	.	-	2	fragScaff_scaffold_692	2450068	2452543	gb|GEUZ01017769.1|	.	-
fragScaff_scaffold_5614	1374745	1386327	PILAhq_040356-RA	.	-	1	fragScaff_scaffold_5614	1374656	1386138	g189468	.	-
fragScaff_scaffold_5826	588630	593178	PILAhq_081670-RA	.	+	1	fragScaff_scaffold_5826	588693	593470	g192206	.	+
fragScaff_scaffold_12001	928839	932464	PILAhq_069003-RA	.	-	1	fragScaff_scaffold_12001	928534	932335	g68647	.	-
fragScaff_scaffold_13897	1698275	1700505	PILAhq_073276-RA	.	+	1	fragScaff_scaffold_13897	1695385	1698862	g103931	.	+
fragScaff_scaffold_9772	584565	587001	PILAhq_026512-RA	.	-	2	fragScaff_scaffold_9772	584577	711443	gb|GEUZ01018971.1|	.	-
fragScaff_scaffold_6070	408333	409193	PILAhq_017587-RA	.	+	2	fragScaff_scaffold_6070	408429	438582	gb|GEUZ01019800.1|	.	+
fragScaff_scaffold_13763	1201564	1237473	PILAhq_040693-RA	.	+	2	fragScaff_scaffold_13763	1191087	1237464	gb|GEUZ01005789.1|	.	+
fragScaff_scaffold_15094	1771027	1774410	PILAhq_065156-RA	.	+	1	fragScaff_scaffold_15094	1771379	1777460	g122503	.	+
fragScaff_scaffold_10133	678826	679550	PILAhq_057037-RA	.	+	2	fragScaff_scaffold_10133	679001	748527	gb|GEUZ01022828.1|	.	+
fragScaff_scaffold_10133	678826	679550	PILAhq_057037-RA	.	+	2	fragScaff_scaffold_10133	679001	748527	gb|GEUZ01024869.1|	.	+
fragScaff_scaffold_14211	10215931	10221107	PILAhq_004115-RA	.	-	1	fragScaff_scaffold_14211	10220817	10325190	g108808	.	-
fragScaff_scaffold_14211	10048358	10053855	PILAhq_004113-RA	.	+	1	fragScaff_scaffold_14211	10047941	10050085	g108802	.	+
fragScaff_scaffold_12776	131338	147089	PILAhq_041523-RA	.	+	1	fragScaff_scaffold_12776	101991	131953	g88336	.	+
fragScaff_scaffold_12266	1000478	1023659	PILAhq_019570-RA	.	+	1	fragScaff_scaffold_12266	894956	1018465	g73238.1	.	+
fragScaff_scaffold_12266	1000478	1023659	PILAhq_019570-RA	.	+	1	fragScaff_scaffold_12266	894956	1018465	g73238.2	.	+
fragScaff_scaffold_8096	2553859	2565401	PILAhq_074599-RA	.	-	1	fragScaff_scaffold_8096	2565042	2617712	g13292	.	-
fragScaff_scaffold_10694	142291	143540	PILAhq_059482-RA	.	-	1	fragScaff_scaffold_10694	143537	148635	g49024	.	-
fragScaff_scaffold_7896	1835808	1846736	PILAhq_007018-RA	.	+	1	fragScaff_scaffold_7896	1740843	1846713	g9692	.	+
fragScaff_scaffold_10944	744892	752461	PILAhq_014440-RA	.	+	1	fragScaff_scaffold_10944	744309	752301	g52650	.	+
fragScaff_scaffold_5293	753522	754479	PILAhq_046036-RA	.	+	1	fragScaff_scaffold_5293	752240	754234	g184605	.	+
fragScaff_scaffold_14367	7892	11194	PILAhq_069242-RA	.	-	2	fragScaff_scaffold_14367	9725	11200	gb|GEUZ01007156.1|	.	-
fragScaff_scaffold_3539	1792332	1794191	PILAlq_128729-RA	.	-	1	fragScaff_scaffold_3539	1792774	1794218	g301	.	-
fragScaff_scaffold_5859	50563	52092	PILAlq_125933-RA	.	+	1	fragScaff_scaffold_5859	50632	52577	g193172	.	+
fragScaff_scaffold_8413	1948001	1963067	PILAhq_022514-RA	.	+	1	fragScaff_scaffold_8413	1961669	1965518	g18187	.	+
fragScaff_scaffold_12761	5696727	5698488	PILAhq_065668-RA	.	+	1	fragScaff_scaffold_12761	5696802	5699106	g88135	.	+
fragScaff_scaffold_6906	249515	252429	PILAhq_070665-RA	.	+	1	fragScaff_scaffold_6906	249527	257960	g207841	.	+
fragScaff_scaffold_13962	1555212	1556696	PILAhq_083472-RA	.	+	1	fragScaff_scaffold_13962	1555788	1641832	g105261	.	+
fragScaff_scaffold_13962	1555212	1556696	PILAhq_083472-RA	.	+	2	fragScaff_scaffold_13962	1555788	1641832	gb|GEUZ01003440.1|	.	+
fragScaff_scaffold_16050	3861	4516	PILAhq_050862-RA	.	+	2	fragScaff_scaffold_16050	4208	4688	gb|GEUZ01031232.1|	.	+
fragScaff_scaffold_5809	1960594	1962011	PILAhq_013356-RA	.	-	2	fragScaff_scaffold_5809	1960445	1961981	gb|GEUZ01022625.1|	.	-
fragScaff_scaffold_12794	348495	368476	PILAhq_052222-RA	.	+	2	fragScaff_scaffold_12794	260775	348617	gb|GEUZ01003966.1|	.	+
fragScaff_scaffold_2891	3770147	3773363	PILAhq_069939-RA	.	+	1	fragScaff_scaffold_2891	3772546	3773958	g168985	.	+
fragScaff_scaffold_10926	1526042	1543166	PILAhq_018938-RA	.	-	1	fragScaff_scaffold_10926	1517794	1542233	g52506	.	-
fragScaff_scaffold_9625	260679	264079	PILAhq_074929-RA	.	-	2	fragScaff_scaffold_9625	263432	264115	gb|GEUZ01014359.1|	.	-
fragScaff_scaffold_12179	592974	621230	PILAhq_057362-RA	.	-	2	fragScaff_scaffold_12179	593040	628827	gb|GEUZ01013734.1|	.	-
fragScaff_scaffold_9458	224404	229574	PILAhq_052997-RA	.	+	1	fragScaff_scaffold_9458	224425	248714	g33337.1	.	+
fragScaff_scaffold_3564	11498279	11501418	PILAhq_069194-RA	.	+	1	fragScaff_scaffold_3564	11497979	11501269	g726	.	+
fragScaff_scaffold_10051	1040132	1045007	PILAhq_048677-RA	.	+	1	fragScaff_scaffold_10051	1040171	1215046	g40351	.	+
fragScaff_scaffold_12439	136927	142441	PILAhq_054076-RA	.	+	1	fragScaff_scaffold_12439	23146	142158	g82554.2	.	+
fragScaff_scaffold_12439	136927	142441	PILAhq_054076-RA	.	+	1	fragScaff_scaffold_12439	23146	142158	g82554.3	.	+
fragScaff_scaffold_7445	551522	552115	PILAlq_064377-RA	.	+	1	fragScaff_scaffold_7445	551534	573123	g215857	.	+
fragScaff_scaffold_2742	67257	70421	PILAhq_068398-RA	.	+	1	fragScaff_scaffold_2742	67284	70632	g166524	.	+
fragScaff_scaffold_5217	12513679	12516616	PILAhq_074838-RA	.	+	1	fragScaff_scaffold_5217	12515793	12525151	g183434	.	-
fragScaff_scaffold_15473	439480	448084	PILAhq_057288-RA	.	+	2	fragScaff_scaffold_15473	439486	448157	gb|GEUZ01020331.1|	.	+
fragScaff_scaffold_8056	4357135	4368986	PILAhq_013038-RA	.	-	1	fragScaff_scaffold_8056	4265788	4358102	g12714	.	-
fragScaff_scaffold_1270	269487	280220	PILAhq_001554-RA	.	-	1	fragScaff_scaffold_1270	272654	282056	g83906	.	-
fragScaff_scaffold_7150	1864121	1865086	PILAhq_076256-RA	.	-	1	fragScaff_scaffold_7150	1857602	1865053	g211701	.	-
fragScaff_scaffold_4319	394880	406450	PILAhq_053149-RA	.	-	1	fragScaff_scaffold_4319	394996	420807	g80836	.	-
fragScaff_scaffold_11798	708006	717242	PILAhq_082621-RA	.	-	1	fragScaff_scaffold_11798	567663	709334	g64964	.	-
fragScaff_scaffold_12318	1556445	1558920	PILAhq_038334-RA	.	-	2	fragScaff_scaffold_12318	1555680	1556454	gb|GEUZ01015549.1|	.	-
fragScaff_scaffold_4309	21098	40353	PILAhq_040358-RA	.	+	1	fragScaff_scaffold_4309	38324	68030	g80583	.	+
fragScaff_scaffold_1766	748448	749278	PILAlq_040495-RA	.	+	1	fragScaff_scaffold_1766	748505	749399	g145648	.	+
fragScaff_scaffold_521	2576460	2580919	PILAhq_083430-RA	.	+	1	fragScaff_scaffold_521	2576586	2581041	g192732	.	+
fragScaff_scaffold_876	2447473	2448642	PILAhq_062537-RA	.	-	2	fragScaff_scaffold_876	2238713	2448365	gb|GEUZ01000213.1|	.	-
fragScaff_scaffold_2700	508893	516727	PILAhq_048941-RA	.	+	1	fragScaff_scaffold_2700	509031	561462	g165665	.	+
fragScaff_scaffold_8185	14635	26084	PILAhq_066583-RA	.	+	1	fragScaff_scaffold_8185	17468	26310	g14546	.	+
fragScaff_scaffold_4357	214201	222017	PILAhq_062395-RA	.	+	1	fragScaff_scaffold_4357	219743	323488	g81237	.	+
fragScaff_scaffold_12605	2219668	2220261	PILAhq_052010-RA	.	-	1	fragScaff_scaffold_12605	2153554	2220186	g85803	.	-
fragScaff_scaffold_12605	2219668	2220261	PILAhq_052010-RA	.	-	2	fragScaff_scaffold_12605	2153554	2220186	gb|GEUZ01022654.1|	.	-
fragScaff_scaffold_13549	944253	951928	PILAhq_036887-RA	.	+	1	fragScaff_scaffold_13549	949519	962211	g99078	.	+
fragScaff_scaffold_15336	376883	378704	PILAhq_028411-RA	.	-	1	fragScaff_scaffold_15336	377161	423940	g126163	.	-
fragScaff_scaffold_15529	974515	978359	PILAhq_058235-RA	.	+	1	fragScaff_scaffold_15529	974762	978530	g129134	.	+
fragScaff_scaffold_11359	3677251	3699059	PILAhq_021081-RA	.	+	2	fragScaff_scaffold_11359	2916032	3678474	gb|GEUZ01021487.1|	.	+
fragScaff_scaffold_12321	204740	210157	PILAhq_030966-RA	.	+	1	fragScaff_scaffold_12321	204749	210741	g73992	.	+
fragScaff_scaffold_3047	5600429	5604200	PILAhq_032921-RA	.	+	1	fragScaff_scaffold_3047	5601024	5604891	g171446.1	.	+
fragScaff_scaffold_3047	5600429	5604200	PILAhq_032921-RA	.	+	1	fragScaff_scaffold_3047	5601024	5604891	g171446.2	.	+
fragScaff_scaffold_15676	667357	669522	PILAlq_122667-RA	.	+	1	fragScaff_scaffold_15676	667375	671674	g131721	.	+
fragScaff_scaffold_11587	709563	711746	PILAhq_067706-RA	.	-	2	fragScaff_scaffold_11587	710167	751107	gb|GEUZ01017760.1|	.	-
fragScaff_scaffold_8842	504634	507289	PILAhq_007094-RA	.	-	1	fragScaff_scaffold_8842	465611	506535	g24409.2	.	-
fragScaff_scaffold_4041	714957	726604	PILAhq_042347-RA	.	-	1	fragScaff_scaffold_4041	724571	746569	g76206	.	-
fragScaff_scaffold_12267	1806777	1825296	PILAhq_043432-RA	.	+	1	fragScaff_scaffold_12267	1806207	1808195	g73323	.	+
fragScaff_scaffold_8351	8544937	8549539	PILAhq_005646-RA	.	+	1	fragScaff_scaffold_8351	8544964	8983611	g17139	.	+
fragScaff_scaffold_7796	811555	812867	PILAhq_042396-RA	.	+	2	fragScaff_scaffold_7796	811549	812742	gb|GEUZ01007032.1|	.	+
fragScaff_scaffold_2545	973584	1015313	PILAhq_013163-RA	.	+	2	fragScaff_scaffold_2545	173770	995444	gb|GEUZ01008350.1|	.	+
fragScaff_scaffold_9352	1156980	1160804	PILAhq_062678-RA	.	+	1	fragScaff_scaffold_9352	1156599	1159027	g32204	.	+
fragScaff_scaffold_332	1676108	1677398	PILAhq_064037-RA	.	-	1	fragScaff_scaffold_332	1676647	1690120	g5351	.	-
fragScaff_scaffold_4256	1687764	1690992	PILAhq_050308-RA	.	-	1	fragScaff_scaffold_4256	1560840	1690649	g79860	.	-
fragScaff_scaffold_570	795818	798393	PILAhq_055669-RA	.	-	1	fragScaff_scaffold_570	795792	798387	g198069	.	-
fragScaff_scaffold_9491	87158	88506	PILAhq_081814-RA	.	-	2	fragScaff_scaffold_9491	86962	87979	gb|GEUZ01011630.1|	.	-
fragScaff_scaffold_8449	1184326	1186953	PILAhq_038422-RA	.	-	1	fragScaff_scaffold_8449	1183452	1186323	g18690	.	-
fragScaff_scaffold_15834	1202904	1212103	PILAhq_060057-RA	.	+	1	fragScaff_scaffold_15834	1203186	1213837	g133610	.	+
fragScaff_scaffold_2833	1078429	1081665	PILAhq_022144-RA	.	-	1	fragScaff_scaffold_2833	1020438	1081193	g167508	.	-
fragScaff_scaffold_6467	1121206	1122180	PILAhq_075651-RA	.	+	1	fragScaff_scaffold_6467	1121389	1122938	g201860	.	+
fragScaff_scaffold_16296	972780	974859	PILAhq_069895-RA	.	-	1	fragScaff_scaffold_16296	972908	1015745	g139860	.	-
fragScaff_scaffold_16296	972780	974859	PILAhq_069895-RA	.	-	2	fragScaff_scaffold_16296	973384	1015754	gb|GEUZ01005751.1|	.	-
fragScaff_scaffold_16296	972780	974859	PILAhq_069895-RA	.	-	2	fragScaff_scaffold_16296	973408	1015754	gb|GEUZ01005782.1|	.	-
fragScaff_scaffold_7342	904774	907204	PILAhq_081355-RA	.	+	2	fragScaff_scaffold_7342	826544	905805	gb|GEUZ01003301.1|	.	+
fragScaff_scaffold_7342	904774	907204	PILAhq_081355-RA	.	+	2	fragScaff_scaffold_7342	899177	905616	gb|GEUZ01016294.1|	.	+
fragScaff_scaffold_11698	1160026	1164154	PILAhq_058253-RA	.	+	1	fragScaff_scaffold_11698	1124770	1162889	g63940.2	.	+
fragScaff_scaffold_1202	4322997	4386945	PILAhq_008461-RA	.	-	2	fragScaff_scaffold_1202	4183728	4343530	gb|GEUZ01001004.1|	.	-
fragScaff_scaffold_15271	2596936	2599846	PILAhq_060599-RA	.	+	1	fragScaff_scaffold_15271	2594475	2599397	g125288	.	+
fragScaff_scaffold_5314	666948	676094	PILAhq_048317-RA	.	+	2	fragScaff_scaffold_5314	666974	729527	gb|GEUZ01000141.1|	.	+
fragScaff_scaffold_10203	128874	129542	PILAhq_052181-RA	.	-	1	fragScaff_scaffold_10203	78728	129461	g42670	.	-
fragScaff_scaffold_291	1851480	1891351	PILAhq_045631-RA	.	+	1	fragScaff_scaffold_291	1864941	1993729	g177834	.	-
fragScaff_scaffold_291	1851480	1891351	PILAhq_045631-RA	.	+	2	fragScaff_scaffold_291	1864941	1993729	gb|GEUZ01017469.1|	.	-
fragScaff_scaffold_15473	438694	440958	PILAhq_039272-RA	.	+	2	fragScaff_scaffold_15473	439486	448157	gb|GEUZ01020331.1|	.	+
fragScaff_scaffold_7461	2077302	2079929	PILAhq_034245-RA	.	-	1	fragScaff_scaffold_7461	2030066	2079652	g216063	.	-
fragScaff_scaffold_5662	683974	686274	PILAhq_037947-RA	.	-	1	fragScaff_scaffold_5662	681189	686223	g190331.1	.	-
fragScaff_scaffold_5662	683974	686274	PILAhq_037947-RA	.	-	1	fragScaff_scaffold_5662	681189	686223	g190331.2	.	-
fragScaff_scaffold_14229	1365018	1367946	PILAhq_003714-RA	.	+	1	fragScaff_scaffold_14229	1365060	1368577	g109049	.	+
fragScaff_scaffold_12091	3132657	3138696	PILAhq_036521-RA	.	+	1	fragScaff_scaffold_12091	3137807	3139696	g70102	.	+
fragScaff_scaffold_1796	2203716	2205973	PILAhq_039042-RA	.	+	1	fragScaff_scaffold_1796	2203737	2271172	g145907	.	+
fragScaff_scaffold_9944	1111407	1115788	PILAhq_039408-RA	.	-	1	fragScaff_scaffold_9944	1111226	1115647	g39336	.	-
fragScaff_scaffold_11943	5318848	5319927	PILAhq_071323-RA	.	+	2	fragScaff_scaffold_11943	5319196	5320733	gb|GEUZ01024295.1|	.	+
fragScaff_scaffold_3436	1418314	1420331	PILAhq_082466-RA	.	+	1	fragScaff_scaffold_3436	1417915	1419201	g176559.1	.	+
fragScaff_scaffold_2375	284412	293833	PILAhq_041913-RA	.	-	1	fragScaff_scaffold_2375	231399	289911	g161302	.	-
fragScaff_scaffold_703	3045401	3046978	PILAlq_122426-RA	.	-	1	fragScaff_scaffold_703	3015403	3046936	g213550.2	.	-
fragScaff_scaffold_3091	2578014	2580742	PILAhq_011948-RA	.	+	1	fragScaff_scaffold_3091	2578023	2583257	g172067.2	.	+
fragScaff_scaffold_13158	83201	84189	PILAhq_038916-RA	.	+	1	fragScaff_scaffold_13158	83207	167154	g93487	.	+
fragScaff_scaffold_14853	1001282	1004571	PILAhq_066468-RA	.	+	1	fragScaff_scaffold_14853	999708	1001853	g118678	.	+
fragScaff_scaffold_14853	1001282	1004571	PILAhq_066468-RA	.	+	1	fragScaff_scaffold_14853	1002064	1004752	g118679	.	+
fragScaff_scaffold_13918	1936780	1980625	PILAhq_032289-RA	.	+	1	fragScaff_scaffold_13918	1935953	1937965	g104241	.	-
fragScaff_scaffold_13918	1936780	1980625	PILAhq_032289-RA	.	+	1	fragScaff_scaffold_13918	1939010	2018149	g104242	.	+
fragScaff_scaffold_10891	9152660	9153433	PILAhq_060937-RA	.	+	1	fragScaff_scaffold_10891	9152884	9234359	g52059	.	+
fragScaff_scaffold_4443	2149244	2153840	PILAhq_059988-RA	.	+	1	fragScaff_scaffold_4443	2149487	2153932	g82436	.	+
fragScaff_scaffold_9569	1376222	1392407	PILAhq_060946-RA	.	+	2	fragScaff_scaffold_9569	1376446	1457729	gb|GEUZ01005146.1|	.	+
fragScaff_scaffold_15038	2704141	2707121	PILAhq_071198-RA	.	-	1	fragScaff_scaffold_15038	2658726	2705027	g121708.2	.	-
fragScaff_scaffold_11514	492768	495506	PILAlq_001159-RA	.	+	1	fragScaff_scaffold_11514	493902	496759	g60460.2	.	+
fragScaff_scaffold_6880	802196	803297	PILAhq_044342-RA	.	+	1	fragScaff_scaffold_6880	802235	803452	g207635.1	.	+
fragScaff_scaffold_13107	133370	134821	PILAhq_044821-RA	.	+	1	fragScaff_scaffold_13107	116975	134559	g92999	.	+
fragScaff_scaffold_9418	776810	781286	PILAhq_004708-RA	.	+	1	fragScaff_scaffold_9418	780396	886398	g32962	.	+
fragScaff_scaffold_8526	421617	440259	PILAhq_017912-RA	.	-	1	fragScaff_scaffold_8526	421750	440984	g19902	.	-
fragScaff_scaffold_6079	797313	807440	PILAhq_055429-RA	.	+	1	fragScaff_scaffold_6079	804246	920819	g196208	.	+
fragScaff_scaffold_4700	6014472	6030555	PILAhq_023633-RA	.	-	2	fragScaff_scaffold_4700	6014674	6079306	gb|GEUZ01014129.1|	.	-
fragScaff_scaffold_3453	1817617	1820341	PILAhq_038645-RA	.	-	1	fragScaff_scaffold_3453	1817645	2059432	g176788	.	+
fragScaff_scaffold_4067	751673	774355	PILAhq_061680-RA	.	+	1	fragScaff_scaffold_4067	695350	770925	g76636	.	+
fragScaff_scaffold_4177	719110	721716	PILAhq_006190-RA	.	-	1	fragScaff_scaffold_4177	719550	722465	g78159	.	-
fragScaff_scaffold_3002	7421469	7445931	PILAhq_053437-RA	.	+	1	fragScaff_scaffold_3002	7445161	7446166	g170609	.	+
fragScaff_scaffold_16250	2861046	2891327	PILAhq_062601-RA	.	-	1	fragScaff_scaffold_16250	2882902	2950616	g139299	.	-
fragScaff_scaffold_16250	2861046	2891327	PILAhq_062601-RA	.	-	2	fragScaff_scaffold_16250	2882902	2950616	gb|GEUZ01016630.1|	.	-
fragScaff_scaffold_8985	78267	79737	PILAhq_061063-RA	.	-	1	fragScaff_scaffold_8985	78482	182118	g26842	.	-
fragScaff_scaffold_8985	78267	79737	PILAhq_061063-RA	.	-	2	fragScaff_scaffold_8985	78482	182118	gb|GEUZ01022945.1|	.	-
fragScaff_scaffold_8527	3613084	3613908	PILAlq_048755-RA	.	-	1	fragScaff_scaffold_8527	3608086	3613806	g19962	.	-
fragScaff_scaffold_12318	1555409	1556424	PILAhq_028340-RA	.	-	2	fragScaff_scaffold_12318	1555680	1556454	gb|GEUZ01015549.1|	.	-
fragScaff_scaffold_3699	628656	630326	PILAlq_125733-RA	.	-	1	fragScaff_scaffold_3699	609921	630281	g3004	.	-
fragScaff_scaffold_12318	1555409	1556022	PILAhq_075258-RA	.	-	2	fragScaff_scaffold_12318	1555680	1556454	gb|GEUZ01015549.1|	.	-
fragScaff_scaffold_5419	208530	212868	PILAhq_042801-RA	.	-	1	fragScaff_scaffold_5419	126661	212856	g186671	.	-
fragScaff_scaffold_9416	1071409	1078723	PILAhq_009936-RA	.	+	1	fragScaff_scaffold_9416	852075	1072464	g32912	.	+
fragScaff_scaffold_240	1371345	1372987	PILAhq_066442-RA	.	+	1	fragScaff_scaffold_240	1372086	1455960	g172707	.	+
fragScaff_scaffold_16436	35730	47826	PILAhq_066102-RA	.	-	1	fragScaff_scaffold_16436	46829	118111	g142482	.	-
fragScaff_scaffold_9869	1398322	1400743	PILAhq_075389-RA	.	-	1	fragScaff_scaffold_9869	1397586	1398939	g38485	.	-
fragScaff_scaffold_14162	4143360	4145446	PILAhq_010793-RA	.	+	1	fragScaff_scaffold_14162	4143495	4199422	g108212.1	.	+
fragScaff_scaffold_13195	1444900	1445555	PILAhq_062606-RA	.	+	2	fragScaff_scaffold_13195	1445155	1549360	gb|GEUZ01027571.1|	.	+
fragScaff_scaffold_9222	2712995	2744206	PILAhq_073572-RA	.	-	1	fragScaff_scaffold_9222	2527358	2744157	g29887	.	+
fragScaff_scaffold_2848	616151	617548	PILAhq_070299-RA	.	+	1	fragScaff_scaffold_2848	493836	617366	g168369	.	+
fragScaff_scaffold_2848	616151	617548	PILAhq_070299-RA	.	+	2	fragScaff_scaffold_2848	493836	617366	gb|GEUZ01011327.1|	.	+
fragScaff_scaffold_1862	421053	442968	PILAhq_055997-RA	.	+	1	fragScaff_scaffold_1862	409625	441512	g147178	.	+
fragScaff_scaffold_3564	7436574	7438505	PILAhq_009419-RA	.	+	1	fragScaff_scaffold_3564	7436526	7437427	g680	.	+
fragScaff_scaffold_10613	5421319	5427514	PILAhq_042670-RA	.	-	2	fragScaff_scaffold_10613	5422682	5427692	gb|GEUZ01002896.1|	.	-
fragScaff_scaffold_12925	1868710	1870400	PILAhq_073413-RA	.	-	2	fragScaff_scaffold_12925	1868713	1912903	gb|GEUZ01008336.1|	.	-
fragScaff_scaffold_5209	1150785	1153276	PILAhq_018390-RA	.	+	1	fragScaff_scaffold_5209	1143371	1152257	g183223	.	+
fragScaff_scaffold_10003	842573	857102	PILAhq_029479-RA	.	+	1	fragScaff_scaffold_10003	842582	911340	g39923	.	+
fragScaff_scaffold_4954	2060929	2062115	PILAhq_003483-RA	.	-	2	fragScaff_scaffold_4954	2060932	2280916	gb|GEUZ01001089.1|	.	-
fragScaff_scaffold_3563	190697	191804	PILAhq_079192-RA	.	+	2	fragScaff_scaffold_3563	145827	190739	gb|GEUZ01006567.1|	.	+
fragScaff_scaffold_11846	108656	112733	PILAhq_050459-RA	.	+	2	fragScaff_scaffold_11846	109305	204878	gb|GEUZ01005802.1|	.	+
fragScaff_scaffold_14767	184730	186210	PILAhq_034168-RA	.	-	1	fragScaff_scaffold_14767	184854	470568	g117457.1	.	-
fragScaff_scaffold_14767	184730	186210	PILAhq_034168-RA	.	-	1	fragScaff_scaffold_14767	184854	470568	g117457.2	.	-
fragScaff_scaffold_14560	262419	265363	PILAhq_011324-RA	.	-	1	fragScaff_scaffold_14560	262654	265459	g114075	.	-
fragScaff_scaffold_14560	262419	265363	PILAhq_011324-RA	.	-	2	fragScaff_scaffold_14560	262654	265459	gb|GEUZ01026283.1|	.	-
fragScaff_scaffold_11654	16835693	16885523	PILAhq_067228-RA	.	-	2	fragScaff_scaffold_11654	16835907	17135923	gb|GEUZ01014826.1|	.	+
fragScaff_scaffold_11654	16835693	16885523	PILAhq_067228-RA	.	-	2	fragScaff_scaffold_11654	16835907	17078640	gb|GEUZ01022804.1|	.	+
fragScaff_scaffold_7761	2653	12504	PILAhq_021965-RA	.	-	2	fragScaff_scaffold_7761	12179	105331	gb|GEUZ01024849.1|	.	-
fragScaff_scaffold_2521	623584	627605	PILAhq_034630-RA	.	+	1	fragScaff_scaffold_2521	625665	628630	g163560	.	+
fragScaff_scaffold_9228	904965	907896	PILAhq_052583-RA	.	-	1	fragScaff_scaffold_9228	897521	907452	g29950	.	-
fragScaff_scaffold_15398	2667647	2670829	PILAhq_028181-RA	.	-	1	fragScaff_scaffold_15398	2651879	2668870	g127171	.	-
fragScaff_scaffold_15398	2667647	2670829	PILAhq_028181-RA	.	-	1	fragScaff_scaffold_15398	2670536	2671428	g127173	.	+
fragScaff_scaffold_13349	3065841	3067277	PILAhq_071498-RA	.	-	1	fragScaff_scaffold_13349	3059924	3067035	g96419	.	-
fragScaff_scaffold_15552	96186	123641	PILAhq_054599-RA	.	+	2	fragScaff_scaffold_15552	93524	123611	gb|GEUZ01005892.1|	.	+
fragScaff_scaffold_7008	4596434	4597543	PILAhq_069822-RA	.	-	2	fragScaff_scaffold_7008	4212838	4596658	gb|GEUZ01017962.1|	.	-
fragScaff_scaffold_7851	115912	119333	PILAhq_036934-RA	.	+	1	fragScaff_scaffold_7851	116680	147676	g8938	.	+
fragScaff_scaffold_5224	471141	480071	PILAhq_018078-RA	.	-	1	fragScaff_scaffold_5224	475496	480134	g183536	.	-
fragScaff_scaffold_10225	2902468	2905486	PILAhq_053213-RA	.	-	1	fragScaff_scaffold_10225	2903209	2936625	g42957	.	-
fragScaff_scaffold_1636	1547773	1550725	PILAhq_075613-RA	.	-	1	fragScaff_scaffold_1636	1508392	1550686	g140328	.	-
fragScaff_scaffold_12249	133721	135338	PILAhq_023839-RA	.	-	1	fragScaff_scaffold_12249	89798	134953	g72753	.	-
fragScaff_scaffold_11820	1204752	1221565	PILAhq_015720-RA	.	-	2	fragScaff_scaffold_11820	1169763	1218424	gb|GEUZ01013648.1|	.	-
fragScaff_scaffold_3453	585874	589458	PILAhq_065023-RA	.	-	2	fragScaff_scaffold_3453	540303	587817	gb|GEUZ01028593.1|	.	-
fragScaff_scaffold_15314	7056733	7085527	PILAhq_012394-RA	.	-	1	fragScaff_scaffold_15314	7056782	7289868	g125793	.	-
fragScaff_scaffold_9587	2274584	2276000	PILAhq_011266-RA	.	-	1	fragScaff_scaffold_9587	2205304	2275955	g34482	.	-
fragScaff_scaffold_4311	1574619	1623602	PILAhq_011090-RA	.	-	1	fragScaff_scaffold_4311	1581594	1638129	g80632	.	-
fragScaff_scaffold_5014	1082598	1088367	PILAhq_034783-RA	.	+	1	fragScaff_scaffold_5014	1074255	1083203	g180424	.	+
fragScaff_scaffold_14940	4858756	4889319	PILAhq_012542-RA	.	+	1	fragScaff_scaffold_14940	4877203	4953631	g120214	.	+
fragScaff_scaffold_1991	4589875	4592114	PILAhq_010502-RA	.	+	2	fragScaff_scaffold_1991	4482359	4591889	gb|GEUZ01009642.1|	.	+
fragScaff_scaffold_8020	2981726	3038430	PILAhq_057296-RA	.	+	2	fragScaff_scaffold_8020	2981897	3039719	gb|GEUZ01027893.1|	.	+
fragScaff_scaffold_1415	351863	361968	PILAhq_071521-RA	.	+	1	fragScaff_scaffold_1415	353247	506794	g104632	.	+
fragScaff_scaffold_7129	289569	290747	PILAhq_024328-RA	.	-	1	fragScaff_scaffold_7129	262073	290501	g211482	.	-
fragScaff_scaffold_15408	2107209	2122431	PILAhq_067707-RA	.	-	1	fragScaff_scaffold_15408	2121289	2123777	g127292	.	-
fragScaff_scaffold_11842	495643	498848	PILAhq_017289-RA	.	-	2	fragScaff_scaffold_11842	467609	496030	gb|GEUZ01024149.1|	.	-
fragScaff_scaffold_2835	1486197	1490297	PILAhq_032700-RA	.	-	1	fragScaff_scaffold_2835	1488043	1490632	g167583	.	-
fragScaff_scaffold_3950	1884051	1887924	PILAhq_003065-RA	.	-	2	fragScaff_scaffold_3950	1884792	1888276	gb|GEUZ01002182.1|	.	-
fragScaff_scaffold_3950	1884051	1887924	PILAhq_003065-RA	.	-	2	fragScaff_scaffold_3950	1884792	1888276	gb|GEUZ01007386.1|	.	-
fragScaff_scaffold_8429	1423061	1443485	PILAhq_018596-RA	.	-	1	fragScaff_scaffold_8429	1424023	1500952	g18355	.	-
fragScaff_scaffold_6254	4273660	4279653	PILAhq_033513-RA	.	+	1	fragScaff_scaffold_6254	4272792	4279111	g199001	.	+
fragScaff_scaffold_6254	4273660	4279653	PILAhq_033513-RA	.	+	2	fragScaff_scaffold_6254	4278959	4547839	gb|GEUZ01012789.1|	.	+
fragScaff_scaffold_12512	333743	342307	PILAhq_076755-RA	.	+	1	fragScaff_scaffold_12512	332105	342124	g83690	.	+
fragScaff_scaffold_9359	1217357	1226833	PILAhq_050407-RA	.	-	2	fragScaff_scaffold_9359	1213997	1226504	gb|GEUZ01004692.1|	.	-
fragScaff_scaffold_3020	603443	605458	PILAhq_011902-RA	.	+	1	fragScaff_scaffold_3020	604951	629652	g170975	.	+
fragScaff_scaffold_4416	198745	200241	PILAhq_074920-RA	.	-	1	fragScaff_scaffold_4416	198301	199419	g82128	.	-
fragScaff_scaffold_12253	5552746	5556826	PILAhq_015198-RA	.	+	1	fragScaff_scaffold_12253	5553179	5642988	g72953	.	+
fragScaff_scaffold_12253	5552746	5556826	PILAhq_015198-RA	.	+	2	fragScaff_scaffold_12253	5553179	5642988	gb|GEUZ01006974.1|	.	+
fragScaff_scaffold_5492	1305162	1308053	PILAhq_057310-RA	.	-	1	fragScaff_scaffold_5492	1305407	1308198	g187593	.	-
fragScaff_scaffold_6475	1445883	1449622	PILAhq_053373-RA	.	-	1	fragScaff_scaffold_6475	1446245	1538851	g201955	.	-
fragScaff_scaffold_6475	1445883	1449622	PILAhq_053373-RA	.	-	2	fragScaff_scaffold_6475	1446245	1538851	gb|GEUZ01017970.1|	.	-
fragScaff_scaffold_8489	696518	698534	PILAhq_022100-RA	.	-	1	fragScaff_scaffold_8489	696600	710452	g19214	.	-
fragScaff_scaffold_15731	78374	98720	PILAhq_042427-RA	.	-	1	fragScaff_scaffold_15731	78863	152021	g132365	.	-
fragScaff_scaffold_5964	80052	81179	PILAhq_021139-RA	.	+	2	fragScaff_scaffold_5964	80715	261621	gb|GEUZ01004586.1|	.	+
fragScaff_scaffold_11109	996438	999173	PILAhq_039065-RA	.	-	1	fragScaff_scaffold_11109	998403	1009675	g54808	.	-
fragScaff_scaffold_14329	1736062	1738897	PILAhq_049402-RA	.	-	1	fragScaff_scaffold_14329	1549125	1737873	g110579	.	-
fragScaff_scaffold_8041	544601	556635	PILAhq_009064-RA	.	-	1	fragScaff_scaffold_8041	544988	556671	g12360	.	-
fragScaff_scaffold_15487	872097	927889	PILAhq_047523-RA	.	+	1	fragScaff_scaffold_15487	872078	873637	g128328	.	-
fragScaff_scaffold_11032	2072507	2078596	PILAhq_025228-RA	.	+	1	fragScaff_scaffold_11032	2031096	2074071	g53603	.	+
fragScaff_scaffold_11032	2072507	2078596	PILAhq_025228-RA	.	+	1	fragScaff_scaffold_11032	2075153	2119120	g53604	.	+
fragScaff_scaffold_10776	738587	740793	PILAhq_078697-RA	.	+	2	fragScaff_scaffold_10776	738470	739846	gb|GEUZ01002387.1|	.	+
fragScaff_scaffold_12623	10244301	10365175	PILAhq_031587-RA	.	+	2	fragScaff_scaffold_12623	10279134	10490577	gb|GEUZ01008345.1|	.	+
fragScaff_scaffold_11166	7235078	7250629	PILAhq_040256-RA	.	-	1	fragScaff_scaffold_11166	7235106	7263958	g55537	.	-
fragScaff_scaffold_5297	1607672	1610251	PILAhq_014847-RA	.	-	2	fragScaff_scaffold_5297	1610217	1611113	gb|GEUZ01014690.1|	.	-
fragScaff_scaffold_11037	2038163	2039269	PILAhq_072750-RA	.	+	1	fragScaff_scaffold_11037	2038357	2273906	g53702	.	+
fragScaff_scaffold_1468	11797668	11800408	PILAhq_072607-RA	.	-	1	fragScaff_scaffold_1468	11796294	11797919	g114901	.	-
fragScaff_scaffold_3806	350121	357927	PILAhq_003957-RA	.	+	1	fragScaff_scaffold_3806	287339	357871	g4471	.	+
fragScaff_scaffold_10196	1568478	1569334	PILAhq_038570-RA	.	-	2	fragScaff_scaffold_10196	1537126	1569188	gb|GEUZ01020151.1|	.	-
fragScaff_scaffold_12882	1293378	1294338	PILAhq_001444-RA	.	+	2	fragScaff_scaffold_12882	1265071	1293436	gb|GEUZ01008853.1|	.	+
fragScaff_scaffold_7213	35405	421345	PILAhq_042200-RA	.	+	1	fragScaff_scaffold_7213	14285	62416	g212479	.	+
fragScaff_scaffold_7213	35405	421345	PILAhq_042200-RA	.	+	1	fragScaff_scaffold_7213	420916	744373	g212482.2	.	+
fragScaff_scaffold_8651	799238	811698	PILAhq_012548-RA	.	-	1	fragScaff_scaffold_8651	797745	799268	g22086	.	-
fragScaff_scaffold_1848	1880840	1906888	PILAhq_073025-RA	.	-	2	fragScaff_scaffold_1848	1881207	2302534	gb|GEUZ01010178.1|	.	-
fragScaff_scaffold_4663	9023	12077	PILAhq_069418-RA	.	-	1	fragScaff_scaffold_4663	10432	93792	g155002	.	-
fragScaff_scaffold_6115	9763320	9766258	PILAhq_067679-RA	.	+	2	fragScaff_scaffold_6115	9763245	9763619	gb|GEUZ01029687.1|	.	+
fragScaff_scaffold_12073	1542990	1543700	PILAlq_079147-RA	.	+	1	fragScaff_scaffold_12073	1542999	1600870	g69621	.	+
fragScaff_scaffold_7865	1117415	1127389	PILAhq_017839-RA	.	+	2	fragScaff_scaffold_7865	1117537	1136398	gb|GEUZ01013932.1|	.	+
fragScaff_scaffold_6461	2757194	2759197	PILAhq_001574-RA	.	+	1	fragScaff_scaffold_6461	2585431	2757457	g201799.1	.	+
fragScaff_scaffold_6458	2089464	2097434	PILAhq_073584-RA	.	+	2	fragScaff_scaffold_6458	1883793	2095992	gb|GEUZ01011235.1|	.	-
fragScaff_scaffold_6458	2089464	2097434	PILAhq_073584-RA	.	+	2	fragScaff_scaffold_6458	1883793	2095986	gb|GEUZ01015680.1|	.	-
fragScaff_scaffold_1531	2334122	2339026	PILAhq_006439-RA	.	-	2	fragScaff_scaffold_1531	2338010	2382901	gb|GEUZ01014788.1|	.	-
fragScaff_scaffold_1447	3324811	3335482	PILAhq_007882-RA	.	-	1	fragScaff_scaffold_1447	3331488	3465460	g109804.2	.	-
fragScaff_scaffold_2258	49969	52894	PILAhq_039211-RA	.	+	1	fragScaff_scaffold_2258	50013	53288	g159515	.	+
fragScaff_scaffold_5835	5743960	5744562	PILAlq_070919-RA	.	-	1	fragScaff_scaffold_5835	5743759	5744376	g192462	.	-
fragScaff_scaffold_10720	19184781	19191499	PILAhq_000228-RA	.	-	1	fragScaff_scaffold_10720	19152092	19186958	g49560	.	-
fragScaff_scaffold_4635	488263	491855	PILAhq_001407-RA	.	-	2	fragScaff_scaffold_4635	440189	488784	gb|GEUZ01014688.1|	.	-
fragScaff_scaffold_1619	6266489	6268407	PILAhq_001270-RA	.	+	1	fragScaff_scaffold_1619	6266543	6272403	g140187	.	+
fragScaff_scaffold_2993	24678	26397	PILAhq_040499-RA	.	+	2	fragScaff_scaffold_2993	24675	26155	gb|GEUZ01014881.1|	.	+
fragScaff_scaffold_6839	1823267	1834045	PILAhq_035167-RA	.	+	1	fragScaff_scaffold_6839	1741225	1824615	g207274	.	+
fragScaff_scaffold_13349	2243017	2244429	PILAhq_005801-RA	.	-	1	fragScaff_scaffold_13349	2207883	2244188	g96411	.	-
fragScaff_scaffold_3976	374343	377248	PILAhq_000930-RA	.	+	2	fragScaff_scaffold_3976	374424	432355	gb|GEUZ01003769.1|	.	+
fragScaff_scaffold_3976	374343	377248	PILAhq_000930-RA	.	+	2	fragScaff_scaffold_3976	375087	432538	gb|GEUZ01004970.1|	.	+
fragScaff_scaffold_6185	1111709	1112579	PILAhq_029015-RA	.	-	2	fragScaff_scaffold_6185	1111362	1111898	gb|GEUZ01009889.1|	.	-
fragScaff_scaffold_1873	1312540	1313920	PILAhq_034369-RA	.	+	1	fragScaff_scaffold_1873	1312829	1427213	g147269.1	.	+
fragScaff_scaffold_8200	1574483	1591490	PILAhq_061475-RA	.	+	1	fragScaff_scaffold_8200	1574510	1701577	g14710	.	+
fragScaff_scaffold_6623	3240084	3242303	PILAhq_031888-RA	.	+	1	fragScaff_scaffold_6623	3242163	3322521	g204182	.	+
fragScaff_scaffold_6623	3240084	3242303	PILAhq_031888-RA	.	+	2	fragScaff_scaffold_6623	3242163	3322521	gb|GEUZ01002793.1|	.	+
fragScaff_scaffold_13531	1786017	1787080	PILAhq_013231-RA	.	-	1	fragScaff_scaffold_13531	1785368	1787074	g98723	.	-
fragScaff_scaffold_11002	345327	357815	PILAhq_056024-RA	.	-	1	fragScaff_scaffold_11002	345337	762937	g53232.1	.	-
fragScaff_scaffold_11002	345327	357815	PILAhq_056024-RA	.	-	1	fragScaff_scaffold_11002	345337	762937	g53232.2	.	-
fragScaff_scaffold_11002	345327	357815	PILAhq_056024-RA	.	-	1	fragScaff_scaffold_11002	345337	762937	g53232.3	.	-
fragScaff_scaffold_3546	631943	650828	PILAhq_036105-RA	.	+	1	fragScaff_scaffold_3546	591986	650754	g385	.	+
fragScaff_scaffold_3546	631943	650828	PILAhq_036105-RA	.	+	2	fragScaff_scaffold_3546	591986	650754	gb|GEUZ01011273.1|	.	+
fragScaff_scaffold_16325	1526599	1528533	PILAlq_022834-RA	.	-	2	fragScaff_scaffold_16325	1526870	1528578	gb|GEUZ01004342.1|	.	-
fragScaff_scaffold_4053	1066495	1069914	PILAhq_071113-RA	.	-	1	fragScaff_scaffold_4053	1066750	1074175	g76508	.	-
fragScaff_scaffold_5248	6210904	6220576	PILAhq_010348-RA	.	+	2	fragScaff_scaffold_5248	6199799	6213750	gb|GEUZ01025194.1|	.	+
fragScaff_scaffold_10730	343656	344558	PILAhq_043246-RA	.	-	1	fragScaff_scaffold_10730	343679	481347	g49714	.	-
fragScaff_scaffold_197	1708896	1730722	PILAhq_013216-RA	.	-	1	fragScaff_scaffold_197	1708267	1712741	g167629	.	-
fragScaff_scaffold_11654	22420927	22422212	PILAhq_016801-RA	.	+	1	fragScaff_scaffold_11654	22322985	22422008	g63043	.	+
fragScaff_scaffold_11654	22420927	22422212	PILAhq_016801-RA	.	+	2	fragScaff_scaffold_11654	22322985	22422008	gb|GEUZ01001182.1|	.	+
fragScaff_scaffold_13407	484941	489386	PILAhq_020984-RA	.	+	1	fragScaff_scaffold_13407	347953	489022	g97305	.	+
fragScaff_scaffold_9139	45338	50795	PILAhq_060563-RA	.	+	1	fragScaff_scaffold_9139	46546	72851	g28718.1	.	+
fragScaff_scaffold_9139	45338	50795	PILAhq_060563-RA	.	+	1	fragScaff_scaffold_9139	46546	72851	g28718.2	.	+
fragScaff_scaffold_9139	45338	50795	PILAhq_060563-RA	.	+	2	fragScaff_scaffold_9139	46546	72851	gb|GEUZ01001462.1|	.	+
fragScaff_scaffold_9139	45338	50795	PILAhq_060563-RA	.	+	2	fragScaff_scaffold_9139	46546	72851	gb|GEUZ01001905.1|	.	+
fragScaff_scaffold_3806	2269706	2275879	PILAhq_034467-RA	.	-	1	fragScaff_scaffold_3806	2269474	2271596	g4488	.	-
fragScaff_scaffold_15222	372026	375686	PILAhq_017562-RA	.	-	2	fragScaff_scaffold_15222	168480	373437	gb|GEUZ01021904.1|	.	-
fragScaff_scaffold_11396	1080581	1082226	PILAhq_052410-RA	.	-	1	fragScaff_scaffold_11396	909539	1080892	g59255	.	-
fragScaff_scaffold_2260	1858277	1863190	PILAhq_036004-RA	.	-	1	fragScaff_scaffold_2260	1859751	1908245	g159553	.	-
fragScaff_scaffold_1073	317599	321367	PILAhq_024329-RA	.	-	2	fragScaff_scaffold_1073	318600	482465	gb|GEUZ01009311.1|	.	-
fragScaff_scaffold_10559	190233	191324	PILAlq_069150-RA	.	+	1	fragScaff_scaffold_10559	190635	214742	g47132	.	+
fragScaff_scaffold_1073	255350	271106	PILAhq_024330-RA	.	-	1	fragScaff_scaffold_1073	136948	268940	g51473.1	.	-
fragScaff_scaffold_8350	4007296	4012381	PILAhq_050933-RA	.	+	1	fragScaff_scaffold_8350	4008804	4104255	g17014	.	+
fragScaff_scaffold_2244	2179063	2181229	PILAhq_013859-RA	.	+	1	fragScaff_scaffold_2244	2179099	2182661	g159320	.	+
fragScaff_scaffold_1395	838354	841615	PILAhq_008024-RA	.	-	1	fragScaff_scaffold_1395	841321	841693	g104401	.	-
fragScaff_scaffold_14980	33212	36301	PILAhq_036246-RA	.	+	1	fragScaff_scaffold_14980	31521	34369	g120611	.	+
fragScaff_scaffold_14255	14382	18198	PILAhq_015416-RA	.	-	1	fragScaff_scaffold_14255	10557	14758	g109984	.	-
fragScaff_scaffold_559	1760034	1774332	PILAhq_043791-RA	.	-	1	fragScaff_scaffold_559	1760028	1774065	g197958	.	-
fragScaff_scaffold_15408	5975586	5989424	PILAhq_010285-RA	.	+	1	fragScaff_scaffold_15408	5975813	6024496	g127340	.	+
fragScaff_scaffold_15408	5975586	5989424	PILAhq_010285-RA	.	+	2	fragScaff_scaffold_15408	5975813	6024496	gb|GEUZ01023410.1|	.	+
fragScaff_scaffold_15408	5975586	5989424	PILAhq_010285-RA	.	+	2	fragScaff_scaffold_15408	5975876	6954306	gb|GEUZ01005983.1|	.	+
fragScaff_scaffold_12264	1349189	1352049	PILAhq_034124-RA	.	+	1	fragScaff_scaffold_12264	1350745	1356542	g73137	.	+
fragScaff_scaffold_12264	1349189	1352049	PILAhq_034124-RA	.	+	1	fragScaff_scaffold_12264	1079579	1349963	g73136	.	+
fragScaff_scaffold_5849	190905	192175	PILAhq_003540-RA	.	-	1	fragScaff_scaffold_5849	169087	192115	g192650	.	-
fragScaff_scaffold_1154	454665	465907	PILAhq_061944-RA	.	-	2	fragScaff_scaffold_1154	454686	647325	gb|GEUZ01021911.1|	.	-
fragScaff_scaffold_6215	752611	761299	PILAhq_045828-RA	.	-	2	fragScaff_scaffold_6215	753777	1035715	gb|GEUZ01020158.1|	.	-
fragScaff_scaffold_6215	752611	761299	PILAhq_045828-RA	.	-	2	fragScaff_scaffold_6215	753771	883134	gb|GEUZ01022537.1|	.	-
fragScaff_scaffold_3654	713324	718581	PILAhq_011302-RA	.	-	1	fragScaff_scaffold_3654	686636	716512	g2138.1	.	+
fragScaff_scaffold_3654	713324	718581	PILAhq_011302-RA	.	-	1	fragScaff_scaffold_3654	686636	716512	g2138.2	.	+
fragScaff_scaffold_7817	2994984	3010542	PILAhq_028216-RA	.	-	2	fragScaff_scaffold_7817	2995177	3013989	gb|GEUZ01007799.1|	.	-
fragScaff_scaffold_7817	2994984	3010542	PILAhq_028216-RA	.	-	1	fragScaff_scaffold_7817	2850961	2995265	g8556	.	-
fragScaff_scaffold_3654	714858	718085	PILAhq_011303-RA	.	+	1	fragScaff_scaffold_3654	686636	716512	g2138.1	.	+
fragScaff_scaffold_3654	714858	718085	PILAhq_011303-RA	.	+	1	fragScaff_scaffold_3654	686636	716512	g2138.2	.	+
fragScaff_scaffold_15148	674640	678708	PILAhq_016524-RA	.	-	2	fragScaff_scaffold_15148	676683	679914	gb|GEUZ01002453.1|	.	-
fragScaff_scaffold_15148	674640	678708	PILAhq_016524-RA	.	-	1	fragScaff_scaffold_15148	666782	676161	g123114	.	+
fragScaff_scaffold_11227	7163415	7168160	PILAhq_046666-RA	.	-	2	fragScaff_scaffold_11227	7162943	7167017	gb|GEUZ01005798.1|	.	-
fragScaff_scaffold_11193	2494383	2498681	PILAhq_027964-RA	.	+	1	fragScaff_scaffold_11193	2494386	2586117	g55822.2	.	+
fragScaff_scaffold_6470	214287	221033	PILAhq_035026-RA	.	-	1	fragScaff_scaffold_6470	216871	239383	g201914	.	-
fragScaff_scaffold_1221	825353	849051	PILAhq_034342-RA	.	-	2	fragScaff_scaffold_1221	842790	886145	gb|GEUZ01001125.1|	.	-
fragScaff_scaffold_5642	2097363	2100045	PILAhq_044949-RA	.	+	2	fragScaff_scaffold_5642	2097478	2131532	gb|GEUZ01013980.1|	.	-
fragScaff_scaffold_2582	935511	938515	PILAhq_058521-RA	.	+	1	fragScaff_scaffold_2582	895462	935620	g164360	.	+
fragScaff_scaffold_12008	380581	392473	PILAhq_038244-RA	.	+	1	fragScaff_scaffold_12008	382059	414743	g68885	.	+
fragScaff_scaffold_10871	1600743	1633948	PILAhq_016166-RA	.	-	1	fragScaff_scaffold_10871	1398675	1629749	g51229	.	-
fragScaff_scaffold_1973	337432	357018	PILAhq_061278-RA	.	-	1	fragScaff_scaffold_1973	355913	357165	g148573	.	-
fragScaff_scaffold_8963	1022853	1024235	PILAhq_032488-RA	.	-	1	fragScaff_scaffold_8963	1023019	1102102	g25951	.	-
fragScaff_scaffold_8963	1022853	1024235	PILAhq_032488-RA	.	-	2	fragScaff_scaffold_8963	1023019	1102102	gb|GEUZ01011282.1|	.	-
fragScaff_scaffold_3638	2908171	2908996	PILAhq_018755-RA	.	+	2	fragScaff_scaffold_3638	2908327	2910156	gb|GEUZ01017368.1|	.	+
fragScaff_scaffold_1733	8086249	8088179	PILAhq_074605-RA	.	-	1	fragScaff_scaffold_1733	8032567	8088173	g145412	.	-
fragScaff_scaffold_12663	217079	254667	PILAhq_027860-RA	.	+	1	fragScaff_scaffold_12663	48761	254633	g86671.1	.	+
fragScaff_scaffold_14831	8137736	8139637	PILAhq_063199-RA	.	+	1	fragScaff_scaffold_14831	8129425	8139301	g118367	.	+
fragScaff_scaffold_10617	575024	613584	PILAhq_004534-RA	.	+	2	fragScaff_scaffold_10617	575741	724804	gb|GEUZ01003181.1|	.	+
fragScaff_scaffold_15718	9829729	9830593	PILAhq_032773-RA	.	+	2	fragScaff_scaffold_15718	9830027	9830611	gb|GEUZ01024655.1|	.	+
fragScaff_scaffold_2475	1400462	1403777	PILAhq_045808-RA	.	+	2	fragScaff_scaffold_2475	1401678	1658893	gb|GEUZ01003487.1|	.	+
fragScaff_scaffold_16434	6414903	6431310	PILAhq_028776-RA	.	+	1	fragScaff_scaffold_16434	6415430	6489899	g142468	.	+
fragScaff_scaffold_143	398762	403043	PILAhq_048550-RA	.	+	1	fragScaff_scaffold_143	399392	403095	g150620	.	+
fragScaff_scaffold_11053	1065321	1096817	PILAhq_050501-RA	.	-	1	fragScaff_scaffold_11053	1065377	1127235	g53936	.	-
fragScaff_scaffold_1209	379347	388126	PILAhq_002716-RA	.	-	1	fragScaff_scaffold_1209	388086	413286	g66710	.	-
fragScaff_scaffold_7369	14901420	14904796	PILAhq_074816-RA	.	-	2	fragScaff_scaffold_7369	14901401	14902451	gb|GEUZ01015550.1|	.	-
fragScaff_scaffold_15807	3393552	3415854	PILAhq_033880-RA	.	-	2	fragScaff_scaffold_15807	3393964	3637743	gb|GEUZ01006591.1|	.	-
fragScaff_scaffold_11084	36785	40469	PILAhq_027985-RA	.	-	1	fragScaff_scaffold_11084	31571	37036	g54438	.	+
fragScaff_scaffold_8773	4431790	4443616	PILAhq_004390-RA	.	-	1	fragScaff_scaffold_8773	4438834	4443619	g23558.1	.	-
fragScaff_scaffold_8773	4431790	4443616	PILAhq_004390-RA	.	-	1	fragScaff_scaffold_8773	4438834	4443619	g23558.2	.	-
fragScaff_scaffold_12166	5507885	5526307	PILAhq_004831-RA	.	-	1	fragScaff_scaffold_12166	5440244	5509311	g70981	.	-
fragScaff_scaffold_12166	5507885	5526307	PILAhq_004831-RA	.	-	2	fragScaff_scaffold_12166	5464717	5526223	gb|GEUZ01025573.1|	.	-
fragScaff_scaffold_14637	258407	259756	BRN/hiseq/c14319_g1_i1|m.3013.mrna1	.	+	1	fragScaff_scaffold_14637	254597	259649	g115762	.	+
fragScaff_scaffold_13043	1284685	1608665	DCR/hiseq/c82845_g1_i1|m.42912.mrna1	.	+	1	fragScaff_scaffold_13043	1546669	1609079	g92383	.	+
fragScaff_scaffold_1621	735891	1198432	JASS/hiseq/c15623_g1_i1|m.3525.mrna1	.	+	1	fragScaff_scaffold_1621	958229	1198705	g140213	.	+
fragScaff_scaffold_3246	663569	1097245	E1/hiseq/c4722_g1_i1|m.1012.mrna1	.	+	1	fragScaff_scaffold_3246	971541	1100998	g174295	.	+
fragScaff_scaffold_6387	1391352	1393052	SDN/miseq/c29250_g1_i1|m.38577.mrna1	.	-	1	fragScaff_scaffold_6387	1390367	1393016	g200950	.	-
fragScaff_scaffold_11820	2676298	2677007	BRN/hiseq/c64307_g1_i1|m.33859.mrna1	.	+	1	fragScaff_scaffold_11820	2676307	2679694	g65380	.	+
fragScaff_scaffold_8134	5814770	5817601	V_2kb_1/018436|m.939553.mrna1	.	+	1	fragScaff_scaffold_8134	5731721	5816074	g13856	.	+
fragScaff_scaffold_5556	333512	334426	V_2kb/008539|m.1000148.mrna1	.	-	2	fragScaff_scaffold_5556	332828	333730	gb|GEUZ01018382.1|	.	-
fragScaff_scaffold_14756	1646882	1648054	Wound/hiseq/c73866_g3_i1|m.66693.mrna1	.	-	2	fragScaff_scaffold_14756	1647971	1649095	gb|GEUZ01012868.1|	.	-
fragScaff_scaffold_1721	187161	479411	SDN/miseq/c19416_g1_i2|m.15929.mrna1	.	-	1	fragScaff_scaffold_1721	187088	398959	g145252	.	-
fragScaff_scaffold_2735	81301	82962	E1_3-6kb/016898|m.467398.mrna1	.	+	2	fragScaff_scaffold_2735	82804	84138	gb|GEUZ01008738.1|	.	+
fragScaff_scaffold_4754	573079	573453	BRS/miseq/c28172_g5_i1|m.42722.mrna1	.	-	2	fragScaff_scaffold_4754	572721	573134	gb|GEUZ01028303.1|	.	-
fragScaff_scaffold_6254	1209114	1210406	V_1kb/016984|m.888234.mrna1	.	+	2	fragScaff_scaffold_6254	1208169	1209476	gb|GEUZ01009758.1|	.	+
fragScaff_scaffold_6254	1209114	1210406	V_1kb/016984|m.888234.mrna1	.	+	2	fragScaff_scaffold_6254	1208811	1209299	gb|GEUZ01026408.1|	.	+
fragScaff_scaffold_12220	6956185	7083937	Wound/hiseq/c65959_g1_i3|m.34074.mrna1	.	+	1	fragScaff_scaffold_12220	6824505	6956990	g72521	.	+
fragScaff_scaffold_9063	172094	172939	E1_2kb_1/polished_high/000986|m.1488.mrna1	.	+	1	fragScaff_scaffold_9063	172118	214910	g27683	.	+
fragScaff_scaffold_14601	1508748	1511556	SDN/miseq/c17812_g1_i2|m.13805.mrna1	.	-	1	fragScaff_scaffold_14601	1508577	1511550	g115224.1	.	-
fragScaff_scaffold_14601	1508748	1511556	SDN/miseq/c17812_g1_i2|m.13805.mrna1	.	-	1	fragScaff_scaffold_14601	1508577	1511550	g115224.2	.	-
fragScaff_scaffold_4227	972167	1403903	BRS/miseq/c28181_g1_i2|m.42767.mrna1	.	-	1	fragScaff_scaffold_4227	971756	1308101	g79245	.	-
fragScaff_scaffold_6676	311296	455291	Wound/hiseq/c62388_g1_i3|m.26484.mrna1	.	-	1	fragScaff_scaffold_6676	435632	515500	g204996	.	-
fragScaff_scaffold_15789	2614471	2615463	S_2kb_2/014123|m.620330.mrna1	.	-	1	fragScaff_scaffold_15789	2586620	2615457	g133023	.	-
fragScaff_scaffold_6644	667067	667978	SDN/miseq/c31368_g11_i1|m.48569.mrna1	.	+	2	fragScaff_scaffold_6644	666653	667909	gb|GEUZ01010579.1|	.	+
fragScaff_scaffold_4557	82642	84915	BRN/hiseq/c54924_g1_i3|m.18557.mrna1	.	+	1	fragScaff_scaffold_4557	82765	84924	g153559	.	+
fragScaff_scaffold_16455	2843624	2947382	M_S1/c34462_g1_i1|m.152601.mrna1	.	+	1	fragScaff_scaffold_16455	2843738	2950831	g142745	.	+
fragScaff_scaffold_8622	41947	42555	BRN/hiseq/c61306_g1_i2|m.27221.mrna1	.	-	1	fragScaff_scaffold_8622	41713	42549	g21809	.	-
fragScaff_scaffold_10481	1759349	1761616	V/hiseq/c61863_g2_i2|m.62341.mrna1	.	-	1	fragScaff_scaffold_10481	1761535	1832189	g45827	.	-
fragScaff_scaffold_8965	2393397	2394575	E1_2kb_1/003457|m.290508.mrna1	.	+	2	fragScaff_scaffold_8965	2394447	2395043	gb|GEUZ01023454.1|	.	+
fragScaff_scaffold_801	2906522	3126496	BRS/miseq/c26268_g1_i3|m.35930.mrna1	.	-	1	fragScaff_scaffold_801	2946249	3185241	g16110	.	-
fragScaff_scaffold_723	8120393	8502915	BRS/miseq/c18861_g1_i1|m.18247.mrna1	.	+	1	fragScaff_scaffold_723	8083829	8376862	g218683	.	+
fragScaff_scaffold_1321	2629350	2630390	V_2kb/015728|m.1013834.mrna1	.	-	2	fragScaff_scaffold_1321	2629455	2630816	gb|GEUZ01007914.1|	.	-
fragScaff_scaffold_1321	2629350	2630390	V_2kb/015728|m.1013834.mrna1	.	-	2	fragScaff_scaffold_1321	2628819	2629451	gb|GEUZ01022736.1|	.	-
fragScaff_scaffold_12479	1367835	1369866	V1_2kb/polished_high/000541|m.510.mrna1	.	-	1	fragScaff_scaffold_12479	1367746	1369833	g83154	.	-
fragScaff_scaffold_7932	2961409	2975145	BRN/hiseq/c67075_g1_i3|m.42124.mrna1	.	+	1	fragScaff_scaffold_7932	2961764	2994086	g10280	.	+
fragScaff_scaffold_10578	252258	563942	BRS/miseq/c28845_g1_i1|m.45425.mrna1	.	-	1	fragScaff_scaffold_10578	309019	564212	g47444	.	-
fragScaff_scaffold_11642	975801	976847	JASS/hiseq/c63640_g1_i1|m.64510.mrna1	.	+	1	fragScaff_scaffold_11642	975897	977057	g62721	.	+
fragScaff_scaffold_2117	2430540	2431371	BRN/hiseq/c68822_g7_i1|m.48916.mrna1	.	-	2	fragScaff_scaffold_2117	2430361	2430687	gb|GEUZ01031723.1|	.	-
fragScaff_scaffold_10617	5227548	5252778	E1_2kb_2/polished_high/001369|m.1490.mrna1	.	+	1	fragScaff_scaffold_10617	5218782	5250897	g48194	.	+
fragScaff_scaffold_14831	1330815	1332074	BRS/miseq/c23666_g1_i2|m.28651.mrna1	.	-	1	fragScaff_scaffold_14831	1330501	1332008	g118268	.	-
fragScaff_scaffold_9229	1542082	1737528	BRN/hiseq/c65218_g1_i6|m.36202.mrna1	.	-	1	fragScaff_scaffold_9229	1537739	1737474	g29976.1	.	-
fragScaff_scaffold_9229	1542082	1737528	BRN/hiseq/c65218_g1_i6|m.36202.mrna1	.	-	1	fragScaff_scaffold_9229	1537739	1737474	g29976.2	.	-
fragScaff_scaffold_529	358496	667805	Neg_S1/c15447_g2_i1|m.80962.mrna1	.	+	1	fragScaff_scaffold_529	306377	359620	g192852	.	+
fragScaff_scaffold_11718	409908	410951	S_2kb_1/006127|m.579948.mrna1	.	+	2	fragScaff_scaffold_11718	409611	410876	gb|GEUZ01009716.1|	.	+
fragScaff_scaffold_16536	426392	452107	JASS/hiseq/c54337_g1_i1|m.27914.mrna1	.	+	1	fragScaff_scaffold_16536	426413	466258	g143558	.	+
fragScaff_scaffold_4170	2130618	2131353	JASS/hiseq/c29962_g1_i1|m.6747.mrna1	.	-	1	fragScaff_scaffold_4170	2130170	2131344	g78057	.	-
fragScaff_scaffold_5255	3785655	4164761	DCR/hiseq/c67051_g1_i2|m.25383.mrna1	.	+	1	fragScaff_scaffold_5255	3785572	3898861	g184159	.	+
fragScaff_scaffold_1812	3112420	3464776	K_S1/c23357_g1_i3|m.206138.mrna1	.	-	1	fragScaff_scaffold_1812	3090341	3268502	g146205	.	-
fragScaff_scaffold_1892	613890	681750	Basket/c13936_g1_i1|m.14581.mrna1	.	-	1	fragScaff_scaffold_1892	473916	614057	g147451	.	-
fragScaff_scaffold_9116	443762	822490	JASS/hiseq/c22739_g1_i1|m.4979.mrna1	.	-	1	fragScaff_scaffold_9116	664266	826469	g28343	.	-
fragScaff_scaffold_13375	1419585	1854465	NACLR/hiseq/c22869_g1_i1|m.10889.mrna1	.	-	1	fragScaff_scaffold_13375	1603985	1885796	g96766	.	-
fragScaff_scaffold_4411	1062826	1363287	NACLR/hiseq/c59474_g1_i4|m.40699.mrna1	.	+	1	fragScaff_scaffold_4411	901371	1164925	g82075	.	+
fragScaff_scaffold_14940	5824422	6158810	SDN/miseq/c32230_g3_i3|m.54213.mrna1	.	-	1	fragScaff_scaffold_14940	5939495	6201845	g120225.3	.	-
fragScaff_scaffold_1129	1599475	1601361	V_2kb/004084|m.991402.mrna1	.	-	2	fragScaff_scaffold_1129	1600873	1601985	gb|GEUZ01013148.1|	.	-
fragScaff_scaffold_8321	47390	192496	NACLR/hiseq/c67511_g1_i2|m.62502.mrna1	.	-	1	fragScaff_scaffold_8321	46787	192385	g16767	.	-
fragScaff_scaffold_8078	1595414	1639239	V1_1kb_2/005060|m.749319.mrna1	.	-	1	fragScaff_scaffold_8078	1260638	1639236	g12930	.	-
fragScaff_scaffold_8078	1595414	1639239	V1_1kb_2/005060|m.749319.mrna1	.	-	2	fragScaff_scaffold_8078	1144047	1595539	gb|GEUZ01012623.1|	.	-
fragScaff_scaffold_9227	1700036	1701253	V1_2kb/017050|m.854426.mrna1	.	+	2	fragScaff_scaffold_9227	1700147	1702183	gb|GEUZ01003155.1|	.	+
fragScaff_scaffold_9763	1044504	1047158	S/hiseq/c36556_g1_i1|m.18979.mrna1	.	-	1	fragScaff_scaffold_9763	960513	1047149	g37047	.	-
fragScaff_scaffold_7080	2135322	2410225	SDN/miseq/c31668_g3_i2|m.50398.mrna1	.	-	1	fragScaff_scaffold_7080	2135112	2374537	g210722	.	-
fragScaff_scaffold_1050	2369969	2707046	DCS/hiseq/c40226_g1_i1|m.11144.mrna1	.	+	1	fragScaff_scaffold_1050	2693030	2707287	g46505	.	+
fragScaff_scaffold_14366	659199	1029387	Neg_S1/c15162_g1_i1|m.80165.mrna1	.	+	2	fragScaff_scaffold_14366	848307	1220391	gb|GEUZ01002140.1|	.	+
fragScaff_scaffold_9500	537534	738455	S/hiseq/c37406_g1_i2|m.20591.mrna1	.	-	1	fragScaff_scaffold_9500	532033	738452	g33850	.	-
fragScaff_scaffold_8028	2902546	3247132	DCS/hiseq/c51493_g1_i1|m.23246.mrna1	.	+	1	fragScaff_scaffold_8028	3144169	3247887	g12277	.	+
fragScaff_scaffold_6163	3772683	3992047	V/hiseq/c7183_g1_i1|m.1825.mrna1	.	-	1	fragScaff_scaffold_6163	3984378	3992492	g197288	.	-
fragScaff_scaffold_13948	408524	408931	BRN/hiseq/c54140_g1_i2|m.17767.mrna1	.	-	2	fragScaff_scaffold_13948	408653	410434	gb|GEUZ01004438.1|	.	-
fragScaff_scaffold_9305	2036642	2244233	K_S1/c21104_g2_i1|m.200982.mrna1	.	+	1	fragScaff_scaffold_9305	2243778	2264475	g31528	.	+
fragScaff_scaffold_9305	2036642	2244233	K_S1/c21104_g2_i1|m.200982.mrna1	.	+	1	fragScaff_scaffold_9305	1965616	2190790	g31527	.	+
fragScaff_scaffold_12457	1158708	1159664	V_2kb/017077|m.1016454.mrna1	.	-	2	fragScaff_scaffold_12457	1159644	1160024	gb|GEUZ01029497.1|	.	-
fragScaff_scaffold_15001	16283913	16576279	V_2kb_2/003896|m.950587.mrna1	.	-	1	fragScaff_scaffold_15001	16409225	16586757	g121025	.	-
fragScaff_scaffold_15418	2115736	2308425	NACLR/hiseq/c69191_g2_i2|m.69387.mrna1	.	-	1	fragScaff_scaffold_15418	2115693	2304593	g127504	.	-
fragScaff_scaffold_5393	1289392	1689992	V1_1kb_1/030286|m.741411.mrna1	.	-	1	fragScaff_scaffold_5393	1289200	1654451	g186213	.	-
fragScaff_scaffold_7185	332465	561846	K_S1/c35345_g1_i1|m.240084.mrna1	.	+	1	fragScaff_scaffold_7185	163561	488511	g212057.1	.	+
fragScaff_scaffold_15154	3814999	4199956	E1_2kb_1/023981|m.314024.mrna1	.	-	1	fragScaff_scaffold_15154	3795657	3863127	g123388	.	-
fragScaff_scaffold_8394	637540	1045593	V/hiseq/c59528_g1_i1|m.50930.mrna1	.	-	1	fragScaff_scaffold_8394	782372	1119053	g17688	.	-
fragScaff_scaffold_6643	399312	401300	S_2kb_3/polished_high/000185|m.237.mrna1	.	-	1	fragScaff_scaffold_6643	398484	401288	g204509	.	-
fragScaff_scaffold_15891	1381519	1595380	BRN/hiseq/c54482_g1_i1|m.18107.mrna1	.	+	1	fragScaff_scaffold_15891	1381366	1381848	g134558	.	+
fragScaff_scaffold_1719	185710	521734	Basket/c16687_g1_i2|m.20513.mrna1	.	-	1	fragScaff_scaffold_1719	185339	404921	g145239.2	.	-
fragScaff_scaffold_1719	185710	521734	Basket/c16687_g1_i2|m.20513.mrna1	.	-	1	fragScaff_scaffold_1719	185339	404921	g145239.3	.	-
fragScaff_scaffold_12819	1708077	1761434	BRS/miseq/c29441_g1_i4|m.48254.mrna1	.	+	1	fragScaff_scaffold_12819	1425349	1761328	g89155	.	+
fragScaff_scaffold_3721	2676268	2913723	K_S1/c30450_g7_i6|m.233306.mrna1	.	+	1	fragScaff_scaffold_3721	2606987	2887191	g3310	.	+
fragScaff_scaffold_13130	71937	552448	V_1kb/013216|m.882309.mrna1	.	+	1	fragScaff_scaffold_13130	22350	243183	g93347	.	+
fragScaff_scaffold_1052	8093678	8464546	SDN/miseq/c20603_g1_i1|m.17555.mrna1	.	-	1	fragScaff_scaffold_1052	8080031	8464531	g46591	.	-
fragScaff_scaffold_202	844300	1330975	Wound/hiseq/c51775_g1_i1|m.14548.mrna1	.	+	1	fragScaff_scaffold_202	844101	993818	g167702	.	+
fragScaff_scaffold_202	844300	1330975	Wound/hiseq/c51775_g1_i1|m.14548.mrna1	.	+	1	fragScaff_scaffold_202	1090475	1331061	g167706	.	+
