PHMM 2.8
NAME GeneMarkS_default_gcode_1
ORDM 4
ATG_ 1.000
GTG_ 0
TTG_ 0
CTG_ 0
TAA_ 1
TAG_ 1
TGA_ 1
MINC 300
MAXC 15000
MAXN 50000
NDEC 100
CDEC 800
CDCD 0.0
CD1P 1
CD2P 1
COD1 
0.002616 0.002114 0.001888
0.001516 0.001251 0.001499
0.001742 0.002647 0.002512
0.002345 0.002827 0.001743
0.001872 0.001703 0.001712
0.001247 0.000828 0.000896
0.000641 0.000369 0.000468
0.001488 0.001523 0.000917
0.003904 0.001639 0.002677
0.002106 0.000976 0.001697
0.002011 0.001395 0.002773
0.001824 0.001383 0.001282
0.000982 0.001366 0.001948
0.001634 0.001175 0.001676
0.001148 0.002038 0.003588
0.002246 0.002368 0.001682
0.002448 0.002083 0.001738
0.000943 0.000670 0.000871
0.001222 0.001687 0.001807
0.001618 0.001403 0.001196
0.001058 0.001294 0.000985
0.000775 0.000601 0.000597
0.000320 0.000318 0.000310
0.000910 0.001310 0.000555
0.000732 0.000522 0.000388
0.000340 0.000360 0.000227
0.000417 0.000414 0.000407
0.000373 0.000525 0.000196
0.000552 0.000791 0.000943
0.000803 0.000782 0.001040
0.000553 0.001066 0.001974
0.001289 0.001711 0.000978
0.004265 0.004333 0.001717
0.001467 0.001435 0.000736
0.001841 0.002949 0.001640
0.002320 0.003692 0.001003
0.002116 0.002593 0.001362
0.001338 0.001203 0.000656
0.000711 0.000467 0.000335
0.002036 0.002434 0.000740
0.004221 0.002126 0.001377
0.002069 0.001121 0.000961
0.001692 0.001310 0.001201
0.001988 0.001651 0.000728
0.000784 0.001095 0.000940
0.001146 0.000887 0.000797
0.000742 0.001436 0.001755
0.001967 0.002056 0.000899
0.002060 0.000001 0.001149
0.001125 0.000800 0.000652
0.001020 0.000001 0.001190
0.001970 0.001710 0.000949
0.001760 0.001458 0.001400
0.001617 0.000812 0.000700
0.000530 0.000381 0.000426
0.001673 0.001673 0.000698
0.003694 0.000001 0.001691
0.002465 0.000661 0.001347
0.002833 0.001314 0.002075
0.002384 0.000814 0.000911
0.000739 0.001108 0.001245
0.001738 0.001108 0.001528
0.000866 0.001766 0.002610
0.002259 0.002012 0.001294
0.002133 0.002072 0.001616
0.001167 0.001254 0.001374
0.001156 0.002419 0.001750
0.001477 0.002095 0.000948
0.001027 0.001163 0.000739
0.000874 0.000621 0.000426
0.000309 0.000321 0.000215
0.000817 0.001097 0.000440
0.002390 0.001222 0.001484
0.001261 0.000821 0.001183
0.001383 0.001061 0.001455
0.001247 0.001196 0.000850
0.000559 0.000962 0.000784
0.001247 0.001018 0.000912
0.000662 0.001737 0.001579
0.001511 0.001818 0.000860
0.001296 0.001020 0.001242
0.000660 0.000496 0.000880
0.000703 0.001045 0.001344
0.001157 0.001006 0.000950
0.000592 0.000813 0.000742
0.000481 0.000408 0.000404
0.000176 0.000221 0.000227
0.000600 0.000881 0.000444
0.000495 0.000314 0.000305
0.000236 0.000242 0.000211
0.000276 0.000249 0.000318
0.000309 0.000369 0.000181
0.000268 0.000453 0.000808
0.000575 0.000600 0.001122
0.000308 0.000750 0.001589
0.000867 0.001092 0.000959
0.000487 0.000722 0.000410
0.000266 0.000443 0.000288
0.000297 0.000917 0.000524
0.000348 0.000819 0.000313
0.000256 0.000336 0.000373
0.000265 0.000300 0.000285
0.000083 0.000143 0.000108
0.000287 0.000327 0.000238
0.000556 0.000367 0.000401
0.000359 0.000307 0.000293
0.000344 0.000350 0.000330
0.000347 0.000393 0.000232
0.000098 0.000175 0.000243
0.000231 0.000231 0.000291
0.000127 0.000413 0.000600
0.000303 0.000425 0.000307
0.000957 0.000001 0.000538
0.000735 0.000673 0.000448
0.000593 0.000001 0.000719
0.001019 0.001211 0.000434
0.000998 0.000760 0.000743
0.001117 0.000483 0.000444
0.000382 0.000278 0.000279
0.001117 0.000996 0.000532
0.002043 0.000001 0.000890
0.001644 0.000497 0.000687
0.001618 0.000797 0.001075
0.001613 0.000598 0.000505
0.000407 0.000606 0.000807
0.001163 0.001004 0.001140
0.000563 0.001329 0.001853
0.001293 0.001394 0.000959
0.002060 0.003376 0.003471
0.000828 0.001233 0.001644
0.001359 0.003491 0.004224
0.001316 0.002369 0.001823
0.000968 0.001406 0.001788
0.000605 0.000689 0.000836
0.000313 0.000382 0.000634
0.000621 0.001187 0.000927
0.002162 0.001451 0.002675
0.001084 0.000956 0.001622
0.001242 0.001410 0.002923
0.000974 0.001177 0.001343
0.000475 0.001248 0.002205
0.000880 0.001101 0.002012
0.000613 0.001920 0.004630
0.001208 0.001988 0.002081
0.001695 0.001990 0.002250
0.000727 0.000678 0.001219
0.001230 0.002249 0.002843
0.001183 0.001421 0.001408
0.000791 0.001235 0.001350
0.000521 0.000604 0.000662
0.000275 0.000323 0.000441
0.000658 0.001261 0.000706
0.000573 0.000506 0.000413
0.000246 0.000370 0.000246
0.000383 0.000428 0.000505
0.000293 0.000552 0.000239
0.000420 0.000896 0.001408
0.000792 0.000983 0.001452
0.000395 0.001398 0.002849
0.000996 0.002032 0.001466
0.001789 0.003487 0.002175
0.000659 0.001354 0.000910
0.001019 0.002896 0.002044
0.001048 0.003111 0.001194
0.001035 0.002031 0.001301
0.000784 0.001049 0.000778
0.000410 0.000445 0.000436
0.000896 0.001870 0.000699
0.001639 0.001322 0.001299
0.000840 0.000813 0.000840
0.000626 0.000750 0.001028
0.000774 0.001319 0.000644
0.000304 0.000938 0.000897
0.000611 0.000849 0.001019
0.000338 0.001346 0.001863
0.000940 0.001951 0.001092
0.001048 0.000001 0.000963
0.000606 0.000741 0.000599
0.000716 0.000001 0.001120
0.000847 0.001347 0.000661
0.000943 0.001081 0.001018
0.000715 0.000629 0.000569
0.000334 0.000305 0.000336
0.000741 0.001141 0.000570
0.002030 0.000001 0.001339
0.001303 0.000461 0.000865
0.001569 0.000938 0.001586
0.001103 0.000550 0.000647
0.000366 0.000926 0.001132
0.001037 0.001044 0.001316
0.000447 0.001602 0.002558
0.001225 0.001836 0.001251
0.001589 0.002020 0.000001
0.000732 0.001012 0.000001
0.000771 0.001595 0.000001
0.001039 0.002198 0.000001
0.000869 0.001500 0.001173
0.000673 0.000678 0.000538
0.000280 0.000328 0.000276
0.000661 0.001303 0.000588
0.001717 0.001150 0.000001
0.001018 0.000729 0.000001
0.000789 0.000747 0.000001
0.000839 0.000974 0.000001
0.000505 0.001285 0.000976
0.001040 0.001152 0.001102
0.000590 0.001807 0.002192
0.001334 0.002525 0.001069
0.002168 0.002072 0.001731
0.000923 0.000854 0.000873
0.001052 0.001816 0.001686
0.001418 0.001783 0.001217
0.000982 0.002133 0.001122
0.000664 0.000922 0.000570
0.000349 0.000483 0.000365
0.000777 0.002091 0.000666
0.000806 0.000653 0.000475
0.000306 0.000445 0.000244
0.000362 0.000465 0.000426
0.000416 0.000680 0.000265
0.000483 0.000949 0.001146
0.000802 0.001144 0.001391
0.000511 0.001475 0.002231
0.001107 0.002190 0.001270
0.002438 0.004594 0.000001
0.001080 0.001925 0.000001
0.001129 0.003114 0.000001
0.001659 0.004768 0.000001
0.001738 0.003458 0.000840
0.001201 0.001518 0.000483
0.000504 0.000570 0.000234
0.001399 0.003089 0.000477
0.003150 0.003226 0.001346
0.001702 0.001722 0.000854
0.001518 0.001854 0.001284
0.001501 0.002789 0.000759
0.000574 0.001559 0.000556
0.001020 0.001339 0.000459
0.000610 0.002149 0.001095
0.001405 0.003309 0.000537
0.001508 0.000001 0.000956
0.000970 0.001027 0.000739
0.000787 0.000001 0.001123
0.001492 0.001904 0.000806
0.001838 0.002047 0.001489
0.001638 0.001048 0.000731
0.000678 0.000521 0.000488
0.001700 0.002263 0.000850
0.003713 0.000001 0.001737
0.002358 0.000742 0.001305
0.002153 0.001339 0.001912
0.002248 0.000995 0.000902
0.000646 0.001466 0.001260
0.001637 0.001663 0.001396
0.000748 0.002515 0.002895
0.001994 0.002615 0.001428
0.002254 0.002487 0.002009
0.001087 0.001264 0.001234
0.001398 0.002743 0.002466
0.001687 0.002944 0.001423
0.001987 0.002009 0.001752
0.001176 0.000778 0.000843
0.000498 0.000434 0.000586
0.001202 0.001727 0.000878
0.002576 0.001498 0.002510
0.001564 0.000938 0.001586
0.001523 0.001328 0.002782
0.001370 0.001381 0.001302
0.000575 0.001228 0.001485
0.001073 0.000911 0.001386
0.000604 0.001835 0.002824
0.001394 0.002029 0.001366
0.001187 0.001591 0.001290
0.000535 0.000468 0.000675
0.000772 0.001508 0.001440
0.000931 0.001236 0.000858
0.000737 0.001553 0.001065
0.000441 0.000553 0.000428
0.000243 0.000352 0.000402
0.000546 0.001581 0.000552
0.000445 0.000419 0.000312
0.000178 0.000257 0.000253
0.000261 0.000375 0.000440
0.000192 0.000403 0.000199
0.000291 0.000593 0.000788
0.000441 0.000552 0.000862
0.000343 0.000965 0.001695
0.000712 0.001416 0.000852
0.002371 0.003194 0.001301
0.000904 0.001276 0.000593
0.001376 0.002837 0.001418
0.001650 0.003443 0.000709
0.002227 0.002472 0.001334
0.001011 0.000919 0.000595
0.000508 0.000467 0.000519
0.001406 0.002282 0.000649
0.002170 0.001823 0.001024
0.001338 0.000934 0.000751
0.001078 0.001225 0.001031
0.001237 0.001455 0.000536
0.000530 0.001068 0.000837
0.000962 0.000774 0.000730
0.000570 0.001476 0.001701
0.001519 0.002040 0.000779
0.001049 0.000001 0.000958
0.000660 0.000779 0.000585
0.000605 0.000001 0.001077
0.001130 0.001659 0.000829
0.001350 0.002036 0.001519
0.001130 0.000919 0.000745
0.000465 0.000509 0.000583
0.001071 0.002218 0.000808
0.002139 0.000001 0.001562
0.001397 0.000581 0.001203
0.001578 0.001346 0.002144
0.001335 0.000777 0.000987
0.000508 0.001217 0.001201
0.001096 0.001104 0.001461
0.000528 0.001890 0.002697
0.001458 0.002307 0.001244
0.002043 0.001638 0.001139
0.001043 0.000849 0.000790
0.001075 0.001904 0.001205
0.001195 0.001478 0.000632
0.001178 0.000975 0.000735
0.001257 0.000673 0.000471
0.000329 0.000329 0.000260
0.000752 0.001034 0.000362
0.002357 0.000814 0.001108
0.001119 0.000622 0.000857
0.001058 0.000662 0.001050
0.001126 0.000858 0.000663
0.000601 0.000830 0.000682
0.001331 0.000930 0.000803
0.000588 0.001464 0.001316
0.001423 0.001689 0.000718
0.001245 0.000857 0.000881
0.000614 0.000361 0.000522
0.000598 0.000776 0.000841
0.000904 0.000672 0.000599
0.000574 0.000693 0.000585
0.000426 0.000277 0.000249
0.000192 0.000211 0.000250
0.000443 0.000766 0.000315
0.000494 0.000208 0.000211
0.000250 0.000184 0.000197
0.000254 0.000207 0.000293
0.000279 0.000289 0.000138
0.000261 0.000383 0.000614
0.000609 0.000581 0.000775
0.000256 0.000657 0.001119
0.000746 0.000947 0.000675
0.000433 0.000543 0.000348
0.000246 0.000365 0.000192
0.000276 0.000699 0.000401
0.000307 0.000659 0.000216
0.000324 0.000345 0.000358
0.000354 0.000318 0.000242
0.000093 0.000178 0.000141
0.000231 0.000370 0.000198
0.000587 0.000347 0.000287
0.000341 0.000272 0.000203
0.000277 0.000289 0.000292
0.000289 0.000320 0.000168
0.000110 0.000183 0.000267
0.000258 0.000255 0.000292
0.000137 0.000464 0.000562
0.000291 0.000416 0.000298
0.001042 0.000001 0.000472
0.000791 0.000500 0.000330
0.000635 0.000001 0.000518
0.001049 0.000712 0.000371
0.001390 0.000798 0.000879
0.001722 0.000631 0.000573
0.000527 0.000344 0.000395
0.001270 0.001105 0.000565
0.002134 0.000001 0.000734
0.001538 0.000400 0.000617
0.001369 0.000521 0.000915
0.001521 0.000424 0.000479
0.000562 0.000606 0.000763
0.001530 0.000899 0.000986
0.000565 0.001134 0.001520
0.001499 0.001146 0.000828
0.000600 0.000558 0.000617
0.000346 0.000298 0.000351
0.000438 0.000704 0.000972
0.000527 0.000497 0.000419
0.000417 0.000413 0.000608
0.000283 0.000208 0.000279
0.000166 0.000157 0.000396
0.000296 0.000364 0.000313
0.000746 0.000329 0.000831
0.000491 0.000285 0.000528
0.000462 0.000384 0.001122
0.000428 0.000329 0.000450
0.000211 0.000267 0.000511
0.000342 0.000260 0.000584
0.000225 0.000470 0.001195
0.000471 0.000473 0.000552
0.000588 0.000317 0.000354
0.000261 0.000158 0.000193
0.000396 0.000461 0.000500
0.000478 0.000249 0.000244
0.000396 0.000356 0.000409
0.000249 0.000229 0.000225
0.000178 0.000188 0.000275
0.000387 0.000398 0.000245
0.000207 0.000088 0.000131
0.000100 0.000094 0.000112
0.000138 0.000111 0.000230
0.000129 0.000092 0.000091
0.000178 0.000161 0.000243
0.000247 0.000226 0.000289
0.000181 0.000377 0.000577
0.000433 0.000383 0.000274
0.000610 0.000653 0.000433
0.000265 0.000371 0.000199
0.000361 0.000724 0.000532
0.000410 0.000722 0.000271
0.000386 0.000508 0.000431
0.000288 0.000395 0.000260
0.000193 0.000258 0.000319
0.000339 0.000496 0.000222
0.000553 0.000420 0.000344
0.000321 0.000292 0.000276
0.000243 0.000281 0.000398
0.000264 0.000339 0.000213
0.000135 0.000216 0.000274
0.000232 0.000231 0.000272
0.000151 0.000471 0.000570
0.000403 0.000460 0.000295
0.000399 0.000001 0.000192
0.000233 0.000168 0.000121
0.000234 0.000001 0.000267
0.000438 0.000262 0.000161
0.000403 0.000338 0.000362
0.000341 0.000251 0.000232
0.000228 0.000189 0.000231
0.000482 0.000369 0.000227
0.000871 0.000001 0.000465
0.000653 0.000139 0.000309
0.000636 0.000283 0.000708
0.000602 0.000139 0.000226
0.000205 0.000211 0.000292
0.000434 0.000288 0.000381
0.000226 0.000463 0.000659
0.000624 0.000436 0.000359
0.000911 0.001374 0.000001
0.000416 0.000608 0.000001
0.000564 0.001132 0.000001
0.000573 0.001432 0.000001
0.000736 0.001351 0.001065
0.000538 0.000584 0.000486
0.000244 0.000295 0.000339
0.000507 0.001303 0.000519
0.001229 0.000880 0.000001
0.000673 0.000544 0.000001
0.000633 0.000547 0.000001
0.000568 0.000947 0.000001
0.000287 0.000926 0.000768
0.000602 0.000786 0.000680
0.000396 0.001286 0.001644
0.000736 0.001829 0.000743
0.001539 0.001806 0.000993
0.000697 0.000575 0.000485
0.000804 0.001631 0.001054
0.001083 0.001444 0.000683
0.000867 0.002091 0.000918
0.000484 0.000856 0.000433
0.000352 0.000466 0.000345
0.000675 0.002163 0.000532
0.000581 0.000603 0.000293
0.000347 0.000411 0.000236
0.000324 0.000434 0.000404
0.000374 0.000727 0.000227
0.000377 0.000907 0.000796
0.000762 0.000980 0.000895
0.000512 0.001476 0.001646
0.000991 0.002110 0.000832
0.001764 0.003143 0.000001
0.000614 0.001124 0.000001
0.000846 0.002089 0.000001
0.000980 0.003197 0.000001
0.001242 0.003238 0.000805
0.000764 0.001328 0.000424
0.000360 0.000553 0.000302
0.000941 0.003034 0.000394
0.002066 0.002380 0.000838
0.001043 0.001109 0.000507
0.000872 0.001194 0.000771
0.001077 0.002214 0.000516
0.000362 0.001467 0.000453
0.000730 0.001027 0.000377
0.000388 0.001792 0.000897
0.001000 0.002837 0.000411
0.001155 0.000001 0.000683
0.000802 0.000745 0.000485
0.000664 0.000001 0.000711
0.001244 0.001347 0.000530
0.001786 0.002237 0.001560
0.001498 0.001148 0.000774
0.000666 0.000564 0.000541
0.001706 0.002491 0.000898
0.002603 0.000001 0.001395
0.001932 0.000589 0.000943
0.001848 0.001001 0.001509
0.001833 0.000874 0.000765
0.000590 0.001316 0.000878
0.001454 0.001283 0.000965
0.000716 0.002036 0.002250
0.001607 0.001827 0.001013
0.003969 0.001601 0.002553
0.001820 0.000774 0.001483
0.002253 0.001496 0.002762
0.002915 0.001542 0.001649
0.001984 0.000923 0.001471
0.001101 0.000431 0.000752
0.000680 0.000197 0.000463
0.001660 0.000835 0.000778
0.005929 0.001139 0.003090
0.003027 0.000681 0.001919
0.002673 0.000816 0.002818
0.002280 0.000931 0.001291
0.000952 0.000724 0.001366
0.001617 0.000628 0.001306
0.001037 0.001109 0.002537
0.002354 0.001197 0.001326
0.002480 0.000836 0.001321
0.000989 0.000316 0.000667
0.001324 0.000715 0.001354
0.001855 0.000678 0.000877
0.001025 0.000610 0.000795
0.000641 0.000240 0.000364
0.000364 0.000128 0.000319
0.000857 0.000640 0.000410
0.001203 0.000277 0.000369
0.000380 0.000178 0.000205
0.000485 0.000206 0.000402
0.000443 0.000236 0.000179
0.000594 0.000306 0.000699
0.000772 0.000265 0.000746
0.000566 0.000457 0.001425
0.001425 0.000671 0.000678
0.003834 0.001733 0.001347
0.001293 0.000713 0.000633
0.001777 0.001228 0.001238
0.002286 0.001799 0.000797
0.001995 0.001203 0.001114
0.001073 0.000476 0.000518
0.000637 0.000211 0.000361
0.001866 0.001126 0.000652
0.004456 0.001314 0.001340
0.001988 0.000672 0.000908
0.001434 0.000665 0.000998
0.001858 0.000997 0.000554
0.000773 0.000592 0.000697
0.001048 0.000416 0.000573
0.000638 0.000717 0.001203
0.001922 0.001063 0.000713
0.002545 0.000001 0.000922
0.001362 0.000471 0.000576
0.001334 0.000001 0.000958
0.002544 0.000937 0.000779
0.002198 0.000819 0.001112
0.001926 0.000443 0.000624
0.000796 0.000251 0.000490
0.002012 0.000867 0.000613
0.005976 0.000001 0.001557
0.003175 0.000340 0.001155
0.003219 0.000754 0.001801
0.003105 0.000434 0.000833
0.001046 0.000586 0.000954
0.002072 0.000614 0.001199
0.001124 0.001008 0.002154
0.002990 0.001137 0.001014
0.002923 0.001358 0.001504
0.001527 0.000823 0.001232
0.001546 0.001488 0.001676
0.002031 0.001461 0.000939
0.001443 0.000850 0.000801
0.001042 0.000460 0.000451
0.000474 0.000222 0.000252
0.001153 0.000843 0.000415
0.003586 0.000900 0.001739
0.002525 0.000838 0.001617
0.001704 0.000765 0.001584
0.001837 0.000966 0.000933
0.000738 0.000710 0.000806
0.001519 0.000647 0.000884
0.000791 0.001175 0.001428
0.002044 0.001345 0.000808
0.001772 0.000764 0.001080
0.000908 0.000416 0.000784
0.000787 0.000730 0.001117
0.001669 0.000814 0.000883
0.000772 0.000580 0.000776
0.000506 0.000322 0.000341
0.000292 0.000172 0.000322
0.000848 0.000672 0.000414
0.000719 0.000273 0.000308
0.000448 0.000222 0.000245
0.000382 0.000215 0.000371
0.000433 0.000307 0.000192
0.000395 0.000335 0.000703
0.000761 0.000510 0.001037
0.000417 0.000571 0.001343
0.001149 0.000937 0.000898
0.000548 0.000408 0.000421
0.000296 0.000294 0.000240
0.000359 0.000528 0.000438
0.000420 0.000503 0.000284
0.000308 0.000228 0.000408
0.000229 0.000213 0.000261
0.000108 0.000098 0.000144
0.000331 0.000272 0.000246
0.000700 0.000326 0.000411
0.000526 0.000290 0.000309
0.000373 0.000296 0.000321
0.000402 0.000326 0.000219
0.000113 0.000152 0.000277
0.000255 0.000191 0.000308
0.000141 0.000356 0.000573
0.000401 0.000336 0.000347
0.001316 0.000001 0.000577
0.001022 0.000519 0.000533
0.000857 0.000001 0.000771
0.001569 0.000837 0.000487
0.001474 0.000666 0.000948
0.001280 0.000440 0.000531
0.000707 0.000219 0.000438
0.001616 0.000821 0.000588
0.002812 0.000001 0.001079
0.002984 0.000408 0.000869
0.002058 0.000529 0.001318
0.002197 0.000429 0.000619
0.000637 0.000537 0.000919
0.001751 0.000709 0.001411
0.000715 0.000922 0.001931
0.002023 0.001053 0.001066
0.002754 0.001866 0.002707
0.001211 0.000748 0.001322
0.001770 0.001829 0.003411
0.001816 0.001374 0.001442
0.001160 0.000897 0.001618
0.000730 0.000383 0.000685
0.000418 0.000248 0.000713
0.000782 0.000759 0.000869
0.002566 0.000981 0.002502
0.001440 0.000592 0.001594
0.001944 0.000852 0.002657
0.001386 0.000687 0.001158
0.000722 0.000686 0.001889
0.001158 0.000581 0.001606
0.000690 0.001129 0.003605
0.001665 0.001195 0.001734
0.001632 0.001077 0.001697
0.000858 0.000410 0.000900
0.001083 0.001053 0.002027
0.001411 0.000916 0.001182
0.000917 0.000816 0.001233
0.000502 0.000344 0.000499
0.000366 0.000215 0.000550
0.000823 0.000870 0.000685
0.000614 0.000341 0.000428
0.000305 0.000251 0.000264
0.000481 0.000284 0.000524
0.000405 0.000383 0.000248
0.000496 0.000491 0.001040
0.000649 0.000496 0.001099
0.000440 0.000736 0.002111
0.001090 0.001197 0.001142
0.001795 0.001543 0.001439
0.000689 0.000669 0.000553
0.000796 0.001330 0.001280
0.001044 0.001637 0.000884
0.001076 0.001118 0.001044
0.000606 0.000504 0.000465
0.000345 0.000251 0.000381
0.000826 0.001041 0.000560
0.001404 0.000808 0.000787
0.000791 0.000463 0.000516
0.000647 0.000300 0.000566
0.000744 0.000762 0.000400
0.000372 0.000476 0.000813
0.000581 0.000389 0.000748
0.000333 0.000682 0.001361
0.000992 0.001079 0.000967
0.001175 0.000001 0.000729
0.000753 0.000415 0.000463
0.000781 0.000001 0.000857
0.001185 0.000792 0.000573
0.001266 0.000694 0.000889
0.000924 0.000330 0.000467
0.000532 0.000230 0.000393
0.001092 0.000770 0.000563
0.002180 0.000001 0.001154
0.001552 0.000295 0.000783
0.002058 0.000606 0.001556
0.001613 0.000391 0.000649
0.000679 0.000592 0.000995
0.001343 0.000598 0.001188
0.000629 0.000977 0.002095
0.001676 0.001174 0.001157
0.001363 0.001067 0.000001
0.000654 0.000496 0.000001
0.000645 0.000780 0.000001
0.000837 0.001004 0.000001
0.000759 0.000807 0.000870
0.000602 0.000359 0.000390
0.000248 0.000150 0.000241
0.000597 0.000682 0.000467
0.001610 0.000631 0.000001
0.000968 0.000482 0.000001
0.000690 0.000393 0.000001
0.000761 0.000642 0.000001
0.000377 0.000584 0.000746
0.000720 0.000519 0.000693
0.000403 0.000808 0.001425
0.001014 0.001174 0.000720
0.001520 0.001081 0.001023
0.000777 0.000433 0.000588
0.000693 0.000806 0.000969
0.001159 0.000918 0.000797
0.000779 0.000954 0.000743
0.000444 0.000372 0.000377
0.000264 0.000181 0.000268
0.000672 0.000972 0.000433
0.000614 0.000380 0.000341
0.000272 0.000258 0.000205
0.000294 0.000260 0.000312
0.000347 0.000432 0.000218
0.000387 0.000448 0.000690
0.000658 0.000526 0.000800
0.000420 0.000694 0.001302
0.000890 0.001134 0.000749
0.002172 0.002082 0.000001
0.000907 0.000939 0.000001
0.000903 0.001188 0.000001
0.001196 0.002250 0.000001
0.001228 0.001713 0.000592
0.000845 0.000705 0.000314
0.000331 0.000249 0.000172
0.000998 0.001661 0.000315
0.002656 0.001747 0.000853
0.001310 0.000900 0.000527
0.001088 0.000954 0.000830
0.001336 0.001641 0.000475
0.000365 0.000836 0.000365
0.000692 0.000646 0.000310
0.000407 0.001028 0.000630
0.001121 0.001615 0.000378
0.001385 0.000001 0.000705
0.000952 0.000526 0.000562
0.000749 0.000001 0.000759
0.001382 0.000982 0.000565
0.001591 0.001213 0.001118
0.001407 0.000601 0.000628
0.000643 0.000302 0.000410
0.001549 0.001312 0.000696
0.003233 0.000001 0.001307
0.002269 0.000415 0.001031
0.002072 0.000631 0.001520
0.002202 0.000606 0.000703
0.000685 0.000760 0.000908
0.001627 0.000845 0.001031
0.000735 0.001280 0.002140
0.001844 0.001434 0.001005
0.000001 0.001456 0.001773
0.000001 0.000704 0.001038
0.000001 0.001543 0.002109
0.000001 0.001579 0.001198
0.000001 0.000978 0.001294
0.000001 0.000413 0.000573
0.000001 0.000214 0.000346
0.000001 0.000851 0.000628
0.000001 0.000829 0.001616
0.000001 0.000501 0.001002
0.000001 0.000731 0.001597
0.000001 0.000695 0.000762
0.000001 0.000627 0.001372
0.000001 0.000518 0.001210
0.000001 0.001050 0.002439
0.000001 0.001083 0.001228
0.001724 0.001183 0.001587
0.000734 0.000366 0.000819
0.000982 0.001061 0.001683
0.001131 0.000816 0.001054
0.000748 0.000958 0.000970
0.000467 0.000423 0.000462
0.000247 0.000216 0.000288
0.000582 0.000941 0.000504
0.000521 0.000318 0.000326
0.000208 0.000208 0.000207
0.000255 0.000264 0.000356
0.000237 0.000280 0.000185
0.000448 0.000452 0.000874
0.000502 0.000403 0.000966
0.000429 0.000671 0.001832
0.000906 0.000959 0.000923
0.000001 0.001893 0.001205
0.000001 0.000762 0.000549
0.000001 0.001537 0.001175
0.000001 0.001985 0.000672
0.000001 0.001447 0.001029
0.000001 0.000560 0.000476
0.000001 0.000257 0.000279
0.000001 0.001331 0.000562
0.000001 0.001055 0.000772
0.000001 0.000485 0.000509
0.000001 0.000605 0.000651
0.000001 0.000766 0.000375
0.000001 0.000588 0.000743
0.000001 0.000419 0.000635
0.000001 0.000805 0.001354
0.000001 0.001093 0.000686
0.001172 0.000001 0.001107
0.000662 0.000529 0.000673
0.000641 0.000001 0.001143
0.001125 0.001038 0.000917
0.001218 0.001196 0.001535
0.000958 0.000550 0.000706
0.000454 0.000272 0.000393
0.001002 0.001279 0.000789
0.002591 0.000001 0.001509
0.001598 0.000457 0.001144
0.001961 0.000827 0.001871
0.001532 0.000623 0.000884
0.000639 0.000721 0.001364
0.000975 0.000735 0.001673
0.000558 0.001203 0.003030
0.001554 0.001528 0.001481
0.002339 0.002063 0.002173
0.001212 0.001134 0.001473
0.001369 0.002368 0.002408
0.001300 0.002026 0.001131
0.001157 0.001275 0.001155
0.000867 0.000694 0.000622
0.000343 0.000333 0.000350
0.000804 0.001218 0.000571
0.002417 0.001088 0.001961
0.001235 0.000822 0.001496
0.001293 0.000854 0.001731
0.001147 0.001028 0.001135
0.000539 0.000949 0.001172
0.001585 0.001056 0.001421
0.000662 0.001516 0.002132
0.001539 0.001748 0.001207
0.001555 0.001124 0.002156
0.000829 0.000557 0.001333
0.000867 0.001129 0.002361
0.001182 0.001033 0.001515
0.000727 0.000756 0.001263
0.000534 0.000392 0.000641
0.000229 0.000234 0.000481
0.000678 0.000864 0.000699
0.000558 0.000363 0.000437
0.000277 0.000291 0.000348
0.000316 0.000277 0.000513
0.000297 0.000453 0.000285
0.000288 0.000522 0.001395
0.000932 0.000720 0.001972
0.000364 0.000772 0.002518
0.001023 0.001122 0.001628
0.000590 0.000685 0.000735
0.000334 0.000493 0.000444
0.000395 0.000784 0.000767
0.000396 0.000857 0.000437
0.000297 0.000381 0.000588
0.000322 0.000322 0.000425
0.000100 0.000144 0.000181
0.000298 0.000415 0.000357
0.000627 0.000393 0.000547
0.000430 0.000363 0.000402
0.000338 0.000293 0.000439
0.000341 0.000370 0.000301
0.000109 0.000230 0.000520
0.000402 0.000374 0.000565
0.000157 0.000473 0.001032
0.000404 0.000514 0.000539
0.001230 0.000001 0.000879
0.000986 0.000719 0.000717
0.000834 0.000001 0.001096
0.001191 0.001074 0.000732
0.001594 0.000990 0.001558
0.001457 0.000675 0.000833
0.000558 0.000319 0.000518
0.001469 0.001252 0.000964
0.002563 0.000001 0.001506
0.001985 0.000623 0.001137
0.001852 0.000785 0.001751
0.001792 0.000691 0.000880
0.000486 0.000663 0.001381
0.001996 0.001165 0.002128
0.000622 0.001233 0.002920
0.001648 0.001514 0.001520
0.000001 0.002649 0.004154
0.000001 0.001182 0.002109
0.000001 0.003095 0.005291
0.000001 0.002296 0.002271
0.000001 0.001507 0.002630
0.000001 0.000607 0.001087
0.000001 0.000366 0.000759
0.000001 0.001238 0.001243
0.000001 0.001256 0.003152
0.000001 0.000811 0.001822
0.000001 0.001158 0.003008
0.000001 0.000995 0.001421
0.000001 0.001038 0.003172
0.000001 0.000901 0.002718
0.000001 0.001827 0.006035
0.000001 0.001673 0.002843
0.001216 0.001966 0.003707
0.000529 0.000674 0.001791
0.000760 0.002113 0.004259
0.000806 0.001345 0.002244
0.000620 0.001459 0.002125
0.000475 0.000675 0.001032
0.000198 0.000390 0.000700
0.000485 0.001453 0.001082
0.000338 0.000448 0.000612
0.000158 0.000343 0.000343
0.000237 0.000436 0.000704
0.000207 0.000477 0.000317
0.000262 0.000823 0.002055
0.000458 0.000804 0.002220
0.000350 0.001373 0.004483
0.000702 0.001721 0.002217
0.001624 0.003192 0.003496
0.000673 0.001491 0.001429
0.000937 0.002954 0.003474
0.001088 0.003360 0.001880
0.000959 0.002145 0.002201
0.000567 0.001018 0.001105
0.000311 0.000507 0.000667
0.000859 0.001979 0.001189
0.001584 0.001609 0.001874
0.000961 0.000882 0.001217
0.000817 0.000935 0.001589
0.000843 0.001467 0.001012
0.000397 0.000993 0.001903
0.000602 0.000844 0.001773
0.000469 0.001642 0.003606
0.001006 0.001939 0.001957
0.000725 0.000001 0.001618
0.000405 0.000647 0.001025
0.000419 0.000001 0.001787
0.000616 0.001185 0.001121
0.000627 0.001265 0.001883
0.000499 0.000613 0.000892
0.000236 0.000352 0.000567
0.000486 0.001261 0.000995
0.001378 0.000001 0.002216
0.000820 0.000501 0.001442
0.000979 0.000857 0.002538
0.000806 0.000608 0.001059
0.000259 0.000870 0.002052
0.000615 0.000925 0.002306
0.000351 0.001522 0.004469
0.000794 0.001646 0.002126
0.001420 0.001659 0.000001
0.000655 0.000722 0.000001
0.000778 0.001465 0.000001
0.000829 0.001606 0.000001
0.001060 0.001486 0.001469
0.000724 0.000606 0.000629
0.000299 0.000300 0.000366
0.000720 0.001305 0.000715
0.001621 0.000941 0.000001
0.000937 0.000592 0.000001
0.000800 0.000617 0.000001
0.000736 0.000853 0.000001
0.000398 0.001049 0.001111
0.000935 0.000967 0.001158
0.000517 0.001507 0.002431
0.001103 0.002016 0.001195
0.002364 0.002224 0.002477
0.001124 0.000835 0.001227
0.001244 0.002070 0.002385
0.001609 0.001789 0.001634
0.001216 0.002180 0.001655
0.000656 0.000931 0.000787
0.000419 0.000451 0.000470
0.001013 0.002281 0.000980
0.000816 0.000746 0.000601
0.000336 0.000435 0.000331
0.000438 0.000529 0.000588
0.000454 0.000815 0.000362
0.000545 0.001121 0.001609
0.001014 0.001221 0.001995
0.000656 0.001631 0.003019
0.001588 0.002509 0.001903
0.002848 0.003988 0.000001
0.001117 0.001730 0.000001
0.001342 0.002995 0.000001
0.001604 0.004533 0.000001
0.001891 0.003578 0.001076
0.001167 0.001384 0.000557
0.000509 0.000600 0.000233
0.001384 0.003188 0.000588
0.003126 0.002913 0.001290
0.001592 0.001427 0.000811
0.001414 0.001681 0.001324
0.001505 0.002594 0.000726
0.000531 0.001689 0.000795
0.001050 0.001326 0.000703
0.000562 0.002281 0.001367
0.001437 0.003181 0.000690
0.001403 0.000001 0.001344
0.000971 0.000886 0.001022
0.000803 0.000001 0.001509
0.001420 0.001663 0.001058
0.001703 0.002225 0.002184
0.001300 0.001096 0.001177
0.000538 0.000498 0.000608
0.001527 0.002466 0.001365
0.003696 0.000001 0.002481
0.002193 0.000714 0.001678
0.002542 0.001181 0.002703
0.002194 0.001089 0.001215
0.000628 0.001393 0.001557
0.001567 0.001549 0.001683
0.000786 0.002248 0.003354
0.001601 0.001857 0.001138

COD2 
0.002616 0.002114 0.001888
0.001516 0.001251 0.001499
0.001742 0.002647 0.002512
0.002345 0.002827 0.001743
0.001872 0.001703 0.001712
0.001247 0.000828 0.000896
0.000641 0.000369 0.000468
0.001488 0.001523 0.000917
0.003904 0.001639 0.002677
0.002106 0.000976 0.001697
0.002011 0.001395 0.002773
0.001824 0.001383 0.001282
0.000982 0.001366 0.001948
0.001634 0.001175 0.001676
0.001148 0.002038 0.003588
0.002246 0.002368 0.001682
0.002448 0.002083 0.001738
0.000943 0.000670 0.000871
0.001222 0.001687 0.001807
0.001618 0.001403 0.001196
0.001058 0.001294 0.000985
0.000775 0.000601 0.000597
0.000320 0.000318 0.000310
0.000910 0.001310 0.000555
0.000732 0.000522 0.000388
0.000340 0.000360 0.000227
0.000417 0.000414 0.000407
0.000373 0.000525 0.000196
0.000552 0.000791 0.000943
0.000803 0.000782 0.001040
0.000553 0.001066 0.001974
0.001289 0.001711 0.000978
0.004265 0.004333 0.001717
0.001467 0.001435 0.000736
0.001841 0.002949 0.001640
0.002320 0.003692 0.001003
0.002116 0.002593 0.001362
0.001338 0.001203 0.000656
0.000711 0.000467 0.000335
0.002036 0.002434 0.000740
0.004221 0.002126 0.001377
0.002069 0.001121 0.000961
0.001692 0.001310 0.001201
0.001988 0.001651 0.000728
0.000784 0.001095 0.000940
0.001146 0.000887 0.000797
0.000742 0.001436 0.001755
0.001967 0.002056 0.000899
0.002060 0.000001 0.001149
0.001125 0.000800 0.000652
0.001020 0.000001 0.001190
0.001970 0.001710 0.000949
0.001760 0.001458 0.001400
0.001617 0.000812 0.000700
0.000530 0.000381 0.000426
0.001673 0.001673 0.000698
0.003694 0.000001 0.001691
0.002465 0.000661 0.001347
0.002833 0.001314 0.002075
0.002384 0.000814 0.000911
0.000739 0.001108 0.001245
0.001738 0.001108 0.001528
0.000866 0.001766 0.002610
0.002259 0.002012 0.001294
0.002133 0.002072 0.001616
0.001167 0.001254 0.001374
0.001156 0.002419 0.001750
0.001477 0.002095 0.000948
0.001027 0.001163 0.000739
0.000874 0.000621 0.000426
0.000309 0.000321 0.000215
0.000817 0.001097 0.000440
0.002390 0.001222 0.001484
0.001261 0.000821 0.001183
0.001383 0.001061 0.001455
0.001247 0.001196 0.000850
0.000559 0.000962 0.000784
0.001247 0.001018 0.000912
0.000662 0.001737 0.001579
0.001511 0.001818 0.000860
0.001296 0.001020 0.001242
0.000660 0.000496 0.000880
0.000703 0.001045 0.001344
0.001157 0.001006 0.000950
0.000592 0.000813 0.000742
0.000481 0.000408 0.000404
0.000176 0.000221 0.000227
0.000600 0.000881 0.000444
0.000495 0.000314 0.000305
0.000236 0.000242 0.000211
0.000276 0.000249 0.000318
0.000309 0.000369 0.000181
0.000268 0.000453 0.000808
0.000575 0.000600 0.001122
0.000308 0.000750 0.001589
0.000867 0.001092 0.000959
0.000487 0.000722 0.000410
0.000266 0.000443 0.000288
0.000297 0.000917 0.000524
0.000348 0.000819 0.000313
0.000256 0.000336 0.000373
0.000265 0.000300 0.000285
0.000083 0.000143 0.000108
0.000287 0.000327 0.000238
0.000556 0.000367 0.000401
0.000359 0.000307 0.000293
0.000344 0.000350 0.000330
0.000347 0.000393 0.000232
0.000098 0.000175 0.000243
0.000231 0.000231 0.000291
0.000127 0.000413 0.000600
0.000303 0.000425 0.000307
0.000957 0.000001 0.000538
0.000735 0.000673 0.000448
0.000593 0.000001 0.000719
0.001019 0.001211 0.000434
0.000998 0.000760 0.000743
0.001117 0.000483 0.000444
0.000382 0.000278 0.000279
0.001117 0.000996 0.000532
0.002043 0.000001 0.000890
0.001644 0.000497 0.000687
0.001618 0.000797 0.001075
0.001613 0.000598 0.000505
0.000407 0.000606 0.000807
0.001163 0.001004 0.001140
0.000563 0.001329 0.001853
0.001293 0.001394 0.000959
0.002060 0.003376 0.003471
0.000828 0.001233 0.001644
0.001359 0.003491 0.004224
0.001316 0.002369 0.001823
0.000968 0.001406 0.001788
0.000605 0.000689 0.000836
0.000313 0.000382 0.000634
0.000621 0.001187 0.000927
0.002162 0.001451 0.002675
0.001084 0.000956 0.001622
0.001242 0.001410 0.002923
0.000974 0.001177 0.001343
0.000475 0.001248 0.002205
0.000880 0.001101 0.002012
0.000613 0.001920 0.004630
0.001208 0.001988 0.002081
0.001695 0.001990 0.002250
0.000727 0.000678 0.001219
0.001230 0.002249 0.002843
0.001183 0.001421 0.001408
0.000791 0.001235 0.001350
0.000521 0.000604 0.000662
0.000275 0.000323 0.000441
0.000658 0.001261 0.000706
0.000573 0.000506 0.000413
0.000246 0.000370 0.000246
0.000383 0.000428 0.000505
0.000293 0.000552 0.000239
0.000420 0.000896 0.001408
0.000792 0.000983 0.001452
0.000395 0.001398 0.002849
0.000996 0.002032 0.001466
0.001789 0.003487 0.002175
0.000659 0.001354 0.000910
0.001019 0.002896 0.002044
0.001048 0.003111 0.001194
0.001035 0.002031 0.001301
0.000784 0.001049 0.000778
0.000410 0.000445 0.000436
0.000896 0.001870 0.000699
0.001639 0.001322 0.001299
0.000840 0.000813 0.000840
0.000626 0.000750 0.001028
0.000774 0.001319 0.000644
0.000304 0.000938 0.000897
0.000611 0.000849 0.001019
0.000338 0.001346 0.001863
0.000940 0.001951 0.001092
0.001048 0.000001 0.000963
0.000606 0.000741 0.000599
0.000716 0.000001 0.001120
0.000847 0.001347 0.000661
0.000943 0.001081 0.001018
0.000715 0.000629 0.000569
0.000334 0.000305 0.000336
0.000741 0.001141 0.000570
0.002030 0.000001 0.001339
0.001303 0.000461 0.000865
0.001569 0.000938 0.001586
0.001103 0.000550 0.000647
0.000366 0.000926 0.001132
0.001037 0.001044 0.001316
0.000447 0.001602 0.002558
0.001225 0.001836 0.001251
0.001589 0.002020 0.000001
0.000732 0.001012 0.000001
0.000771 0.001595 0.000001
0.001039 0.002198 0.000001
0.000869 0.001500 0.001173
0.000673 0.000678 0.000538
0.000280 0.000328 0.000276
0.000661 0.001303 0.000588
0.001717 0.001150 0.000001
0.001018 0.000729 0.000001
0.000789 0.000747 0.000001
0.000839 0.000974 0.000001
0.000505 0.001285 0.000976
0.001040 0.001152 0.001102
0.000590 0.001807 0.002192
0.001334 0.002525 0.001069
0.002168 0.002072 0.001731
0.000923 0.000854 0.000873
0.001052 0.001816 0.001686
0.001418 0.001783 0.001217
0.000982 0.002133 0.001122
0.000664 0.000922 0.000570
0.000349 0.000483 0.000365
0.000777 0.002091 0.000666
0.000806 0.000653 0.000475
0.000306 0.000445 0.000244
0.000362 0.000465 0.000426
0.000416 0.000680 0.000265
0.000483 0.000949 0.001146
0.000802 0.001144 0.001391
0.000511 0.001475 0.002231
0.001107 0.002190 0.001270
0.002438 0.004594 0.000001
0.001080 0.001925 0.000001
0.001129 0.003114 0.000001
0.001659 0.004768 0.000001
0.001738 0.003458 0.000840
0.001201 0.001518 0.000483
0.000504 0.000570 0.000234
0.001399 0.003089 0.000477
0.003150 0.003226 0.001346
0.001702 0.001722 0.000854
0.001518 0.001854 0.001284
0.001501 0.002789 0.000759
0.000574 0.001559 0.000556
0.001020 0.001339 0.000459
0.000610 0.002149 0.001095
0.001405 0.003309 0.000537
0.001508 0.000001 0.000956
0.000970 0.001027 0.000739
0.000787 0.000001 0.001123
0.001492 0.001904 0.000806
0.001838 0.002047 0.001489
0.001638 0.001048 0.000731
0.000678 0.000521 0.000488
0.001700 0.002263 0.000850
0.003713 0.000001 0.001737
0.002358 0.000742 0.001305
0.002153 0.001339 0.001912
0.002248 0.000995 0.000902
0.000646 0.001466 0.001260
0.001637 0.001663 0.001396
0.000748 0.002515 0.002895
0.001994 0.002615 0.001428
0.002254 0.002487 0.002009
0.001087 0.001264 0.001234
0.001398 0.002743 0.002466
0.001687 0.002944 0.001423
0.001987 0.002009 0.001752
0.001176 0.000778 0.000843
0.000498 0.000434 0.000586
0.001202 0.001727 0.000878
0.002576 0.001498 0.002510
0.001564 0.000938 0.001586
0.001523 0.001328 0.002782
0.001370 0.001381 0.001302
0.000575 0.001228 0.001485
0.001073 0.000911 0.001386
0.000604 0.001835 0.002824
0.001394 0.002029 0.001366
0.001187 0.001591 0.001290
0.000535 0.000468 0.000675
0.000772 0.001508 0.001440
0.000931 0.001236 0.000858
0.000737 0.001553 0.001065
0.000441 0.000553 0.000428
0.000243 0.000352 0.000402
0.000546 0.001581 0.000552
0.000445 0.000419 0.000312
0.000178 0.000257 0.000253
0.000261 0.000375 0.000440
0.000192 0.000403 0.000199
0.000291 0.000593 0.000788
0.000441 0.000552 0.000862
0.000343 0.000965 0.001695
0.000712 0.001416 0.000852
0.002371 0.003194 0.001301
0.000904 0.001276 0.000593
0.001376 0.002837 0.001418
0.001650 0.003443 0.000709
0.002227 0.002472 0.001334
0.001011 0.000919 0.000595
0.000508 0.000467 0.000519
0.001406 0.002282 0.000649
0.002170 0.001823 0.001024
0.001338 0.000934 0.000751
0.001078 0.001225 0.001031
0.001237 0.001455 0.000536
0.000530 0.001068 0.000837
0.000962 0.000774 0.000730
0.000570 0.001476 0.001701
0.001519 0.002040 0.000779
0.001049 0.000001 0.000958
0.000660 0.000779 0.000585
0.000605 0.000001 0.001077
0.001130 0.001659 0.000829
0.001350 0.002036 0.001519
0.001130 0.000919 0.000745
0.000465 0.000509 0.000583
0.001071 0.002218 0.000808
0.002139 0.000001 0.001562
0.001397 0.000581 0.001203
0.001578 0.001346 0.002144
0.001335 0.000777 0.000987
0.000508 0.001217 0.001201
0.001096 0.001104 0.001461
0.000528 0.001890 0.002697
0.001458 0.002307 0.001244
0.002043 0.001638 0.001139
0.001043 0.000849 0.000790
0.001075 0.001904 0.001205
0.001195 0.001478 0.000632
0.001178 0.000975 0.000735
0.001257 0.000673 0.000471
0.000329 0.000329 0.000260
0.000752 0.001034 0.000362
0.002357 0.000814 0.001108
0.001119 0.000622 0.000857
0.001058 0.000662 0.001050
0.001126 0.000858 0.000663
0.000601 0.000830 0.000682
0.001331 0.000930 0.000803
0.000588 0.001464 0.001316
0.001423 0.001689 0.000718
0.001245 0.000857 0.000881
0.000614 0.000361 0.000522
0.000598 0.000776 0.000841
0.000904 0.000672 0.000599
0.000574 0.000693 0.000585
0.000426 0.000277 0.000249
0.000192 0.000211 0.000250
0.000443 0.000766 0.000315
0.000494 0.000208 0.000211
0.000250 0.000184 0.000197
0.000254 0.000207 0.000293
0.000279 0.000289 0.000138
0.000261 0.000383 0.000614
0.000609 0.000581 0.000775
0.000256 0.000657 0.001119
0.000746 0.000947 0.000675
0.000433 0.000543 0.000348
0.000246 0.000365 0.000192
0.000276 0.000699 0.000401
0.000307 0.000659 0.000216
0.000324 0.000345 0.000358
0.000354 0.000318 0.000242
0.000093 0.000178 0.000141
0.000231 0.000370 0.000198
0.000587 0.000347 0.000287
0.000341 0.000272 0.000203
0.000277 0.000289 0.000292
0.000289 0.000320 0.000168
0.000110 0.000183 0.000267
0.000258 0.000255 0.000292
0.000137 0.000464 0.000562
0.000291 0.000416 0.000298
0.001042 0.000001 0.000472
0.000791 0.000500 0.000330
0.000635 0.000001 0.000518
0.001049 0.000712 0.000371
0.001390 0.000798 0.000879
0.001722 0.000631 0.000573
0.000527 0.000344 0.000395
0.001270 0.001105 0.000565
0.002134 0.000001 0.000734
0.001538 0.000400 0.000617
0.001369 0.000521 0.000915
0.001521 0.000424 0.000479
0.000562 0.000606 0.000763
0.001530 0.000899 0.000986
0.000565 0.001134 0.001520
0.001499 0.001146 0.000828
0.000600 0.000558 0.000617
0.000346 0.000298 0.000351
0.000438 0.000704 0.000972
0.000527 0.000497 0.000419
0.000417 0.000413 0.000608
0.000283 0.000208 0.000279
0.000166 0.000157 0.000396
0.000296 0.000364 0.000313
0.000746 0.000329 0.000831
0.000491 0.000285 0.000528
0.000462 0.000384 0.001122
0.000428 0.000329 0.000450
0.000211 0.000267 0.000511
0.000342 0.000260 0.000584
0.000225 0.000470 0.001195
0.000471 0.000473 0.000552
0.000588 0.000317 0.000354
0.000261 0.000158 0.000193
0.000396 0.000461 0.000500
0.000478 0.000249 0.000244
0.000396 0.000356 0.000409
0.000249 0.000229 0.000225
0.000178 0.000188 0.000275
0.000387 0.000398 0.000245
0.000207 0.000088 0.000131
0.000100 0.000094 0.000112
0.000138 0.000111 0.000230
0.000129 0.000092 0.000091
0.000178 0.000161 0.000243
0.000247 0.000226 0.000289
0.000181 0.000377 0.000577
0.000433 0.000383 0.000274
0.000610 0.000653 0.000433
0.000265 0.000371 0.000199
0.000361 0.000724 0.000532
0.000410 0.000722 0.000271
0.000386 0.000508 0.000431
0.000288 0.000395 0.000260
0.000193 0.000258 0.000319
0.000339 0.000496 0.000222
0.000553 0.000420 0.000344
0.000321 0.000292 0.000276
0.000243 0.000281 0.000398
0.000264 0.000339 0.000213
0.000135 0.000216 0.000274
0.000232 0.000231 0.000272
0.000151 0.000471 0.000570
0.000403 0.000460 0.000295
0.000399 0.000001 0.000192
0.000233 0.000168 0.000121
0.000234 0.000001 0.000267
0.000438 0.000262 0.000161
0.000403 0.000338 0.000362
0.000341 0.000251 0.000232
0.000228 0.000189 0.000231
0.000482 0.000369 0.000227
0.000871 0.000001 0.000465
0.000653 0.000139 0.000309
0.000636 0.000283 0.000708
0.000602 0.000139 0.000226
0.000205 0.000211 0.000292
0.000434 0.000288 0.000381
0.000226 0.000463 0.000659
0.000624 0.000436 0.000359
0.000911 0.001374 0.000001
0.000416 0.000608 0.000001
0.000564 0.001132 0.000001
0.000573 0.001432 0.000001
0.000736 0.001351 0.001065
0.000538 0.000584 0.000486
0.000244 0.000295 0.000339
0.000507 0.001303 0.000519
0.001229 0.000880 0.000001
0.000673 0.000544 0.000001
0.000633 0.000547 0.000001
0.000568 0.000947 0.000001
0.000287 0.000926 0.000768
0.000602 0.000786 0.000680
0.000396 0.001286 0.001644
0.000736 0.001829 0.000743
0.001539 0.001806 0.000993
0.000697 0.000575 0.000485
0.000804 0.001631 0.001054
0.001083 0.001444 0.000683
0.000867 0.002091 0.000918
0.000484 0.000856 0.000433
0.000352 0.000466 0.000345
0.000675 0.002163 0.000532
0.000581 0.000603 0.000293
0.000347 0.000411 0.000236
0.000324 0.000434 0.000404
0.000374 0.000727 0.000227
0.000377 0.000907 0.000796
0.000762 0.000980 0.000895
0.000512 0.001476 0.001646
0.000991 0.002110 0.000832
0.001764 0.003143 0.000001
0.000614 0.001124 0.000001
0.000846 0.002089 0.000001
0.000980 0.003197 0.000001
0.001242 0.003238 0.000805
0.000764 0.001328 0.000424
0.000360 0.000553 0.000302
0.000941 0.003034 0.000394
0.002066 0.002380 0.000838
0.001043 0.001109 0.000507
0.000872 0.001194 0.000771
0.001077 0.002214 0.000516
0.000362 0.001467 0.000453
0.000730 0.001027 0.000377
0.000388 0.001792 0.000897
0.001000 0.002837 0.000411
0.001155 0.000001 0.000683
0.000802 0.000745 0.000485
0.000664 0.000001 0.000711
0.001244 0.001347 0.000530
0.001786 0.002237 0.001560
0.001498 0.001148 0.000774
0.000666 0.000564 0.000541
0.001706 0.002491 0.000898
0.002603 0.000001 0.001395
0.001932 0.000589 0.000943
0.001848 0.001001 0.001509
0.001833 0.000874 0.000765
0.000590 0.001316 0.000878
0.001454 0.001283 0.000965
0.000716 0.002036 0.002250
0.001607 0.001827 0.001013
0.003969 0.001601 0.002553
0.001820 0.000774 0.001483
0.002253 0.001496 0.002762
0.002915 0.001542 0.001649
0.001984 0.000923 0.001471
0.001101 0.000431 0.000752
0.000680 0.000197 0.000463
0.001660 0.000835 0.000778
0.005929 0.001139 0.003090
0.003027 0.000681 0.001919
0.002673 0.000816 0.002818
0.002280 0.000931 0.001291
0.000952 0.000724 0.001366
0.001617 0.000628 0.001306
0.001037 0.001109 0.002537
0.002354 0.001197 0.001326
0.002480 0.000836 0.001321
0.000989 0.000316 0.000667
0.001324 0.000715 0.001354
0.001855 0.000678 0.000877
0.001025 0.000610 0.000795
0.000641 0.000240 0.000364
0.000364 0.000128 0.000319
0.000857 0.000640 0.000410
0.001203 0.000277 0.000369
0.000380 0.000178 0.000205
0.000485 0.000206 0.000402
0.000443 0.000236 0.000179
0.000594 0.000306 0.000699
0.000772 0.000265 0.000746
0.000566 0.000457 0.001425
0.001425 0.000671 0.000678
0.003834 0.001733 0.001347
0.001293 0.000713 0.000633
0.001777 0.001228 0.001238
0.002286 0.001799 0.000797
0.001995 0.001203 0.001114
0.001073 0.000476 0.000518
0.000637 0.000211 0.000361
0.001866 0.001126 0.000652
0.004456 0.001314 0.001340
0.001988 0.000672 0.000908
0.001434 0.000665 0.000998
0.001858 0.000997 0.000554
0.000773 0.000592 0.000697
0.001048 0.000416 0.000573
0.000638 0.000717 0.001203
0.001922 0.001063 0.000713
0.002545 0.000001 0.000922
0.001362 0.000471 0.000576
0.001334 0.000001 0.000958
0.002544 0.000937 0.000779
0.002198 0.000819 0.001112
0.001926 0.000443 0.000624
0.000796 0.000251 0.000490
0.002012 0.000867 0.000613
0.005976 0.000001 0.001557
0.003175 0.000340 0.001155
0.003219 0.000754 0.001801
0.003105 0.000434 0.000833
0.001046 0.000586 0.000954
0.002072 0.000614 0.001199
0.001124 0.001008 0.002154
0.002990 0.001137 0.001014
0.002923 0.001358 0.001504
0.001527 0.000823 0.001232
0.001546 0.001488 0.001676
0.002031 0.001461 0.000939
0.001443 0.000850 0.000801
0.001042 0.000460 0.000451
0.000474 0.000222 0.000252
0.001153 0.000843 0.000415
0.003586 0.000900 0.001739
0.002525 0.000838 0.001617
0.001704 0.000765 0.001584
0.001837 0.000966 0.000933
0.000738 0.000710 0.000806
0.001519 0.000647 0.000884
0.000791 0.001175 0.001428
0.002044 0.001345 0.000808
0.001772 0.000764 0.001080
0.000908 0.000416 0.000784
0.000787 0.000730 0.001117
0.001669 0.000814 0.000883
0.000772 0.000580 0.000776
0.000506 0.000322 0.000341
0.000292 0.000172 0.000322
0.000848 0.000672 0.000414
0.000719 0.000273 0.000308
0.000448 0.000222 0.000245
0.000382 0.000215 0.000371
0.000433 0.000307 0.000192
0.000395 0.000335 0.000703
0.000761 0.000510 0.001037
0.000417 0.000571 0.001343
0.001149 0.000937 0.000898
0.000548 0.000408 0.000421
0.000296 0.000294 0.000240
0.000359 0.000528 0.000438
0.000420 0.000503 0.000284
0.000308 0.000228 0.000408
0.000229 0.000213 0.000261
0.000108 0.000098 0.000144
0.000331 0.000272 0.000246
0.000700 0.000326 0.000411
0.000526 0.000290 0.000309
0.000373 0.000296 0.000321
0.000402 0.000326 0.000219
0.000113 0.000152 0.000277
0.000255 0.000191 0.000308
0.000141 0.000356 0.000573
0.000401 0.000336 0.000347
0.001316 0.000001 0.000577
0.001022 0.000519 0.000533
0.000857 0.000001 0.000771
0.001569 0.000837 0.000487
0.001474 0.000666 0.000948
0.001280 0.000440 0.000531
0.000707 0.000219 0.000438
0.001616 0.000821 0.000588
0.002812 0.000001 0.001079
0.002984 0.000408 0.000869
0.002058 0.000529 0.001318
0.002197 0.000429 0.000619
0.000637 0.000537 0.000919
0.001751 0.000709 0.001411
0.000715 0.000922 0.001931
0.002023 0.001053 0.001066
0.002754 0.001866 0.002707
0.001211 0.000748 0.001322
0.001770 0.001829 0.003411
0.001816 0.001374 0.001442
0.001160 0.000897 0.001618
0.000730 0.000383 0.000685
0.000418 0.000248 0.000713
0.000782 0.000759 0.000869
0.002566 0.000981 0.002502
0.001440 0.000592 0.001594
0.001944 0.000852 0.002657
0.001386 0.000687 0.001158
0.000722 0.000686 0.001889
0.001158 0.000581 0.001606
0.000690 0.001129 0.003605
0.001665 0.001195 0.001734
0.001632 0.001077 0.001697
0.000858 0.000410 0.000900
0.001083 0.001053 0.002027
0.001411 0.000916 0.001182
0.000917 0.000816 0.001233
0.000502 0.000344 0.000499
0.000366 0.000215 0.000550
0.000823 0.000870 0.000685
0.000614 0.000341 0.000428
0.000305 0.000251 0.000264
0.000481 0.000284 0.000524
0.000405 0.000383 0.000248
0.000496 0.000491 0.001040
0.000649 0.000496 0.001099
0.000440 0.000736 0.002111
0.001090 0.001197 0.001142
0.001795 0.001543 0.001439
0.000689 0.000669 0.000553
0.000796 0.001330 0.001280
0.001044 0.001637 0.000884
0.001076 0.001118 0.001044
0.000606 0.000504 0.000465
0.000345 0.000251 0.000381
0.000826 0.001041 0.000560
0.001404 0.000808 0.000787
0.000791 0.000463 0.000516
0.000647 0.000300 0.000566
0.000744 0.000762 0.000400
0.000372 0.000476 0.000813
0.000581 0.000389 0.000748
0.000333 0.000682 0.001361
0.000992 0.001079 0.000967
0.001175 0.000001 0.000729
0.000753 0.000415 0.000463
0.000781 0.000001 0.000857
0.001185 0.000792 0.000573
0.001266 0.000694 0.000889
0.000924 0.000330 0.000467
0.000532 0.000230 0.000393
0.001092 0.000770 0.000563
0.002180 0.000001 0.001154
0.001552 0.000295 0.000783
0.002058 0.000606 0.001556
0.001613 0.000391 0.000649
0.000679 0.000592 0.000995
0.001343 0.000598 0.001188
0.000629 0.000977 0.002095
0.001676 0.001174 0.001157
0.001363 0.001067 0.000001
0.000654 0.000496 0.000001
0.000645 0.000780 0.000001
0.000837 0.001004 0.000001
0.000759 0.000807 0.000870
0.000602 0.000359 0.000390
0.000248 0.000150 0.000241
0.000597 0.000682 0.000467
0.001610 0.000631 0.000001
0.000968 0.000482 0.000001
0.000690 0.000393 0.000001
0.000761 0.000642 0.000001
0.000377 0.000584 0.000746
0.000720 0.000519 0.000693
0.000403 0.000808 0.001425
0.001014 0.001174 0.000720
0.001520 0.001081 0.001023
0.000777 0.000433 0.000588
0.000693 0.000806 0.000969
0.001159 0.000918 0.000797
0.000779 0.000954 0.000743
0.000444 0.000372 0.000377
0.000264 0.000181 0.000268
0.000672 0.000972 0.000433
0.000614 0.000380 0.000341
0.000272 0.000258 0.000205
0.000294 0.000260 0.000312
0.000347 0.000432 0.000218
0.000387 0.000448 0.000690
0.000658 0.000526 0.000800
0.000420 0.000694 0.001302
0.000890 0.001134 0.000749
0.002172 0.002082 0.000001
0.000907 0.000939 0.000001
0.000903 0.001188 0.000001
0.001196 0.002250 0.000001
0.001228 0.001713 0.000592
0.000845 0.000705 0.000314
0.000331 0.000249 0.000172
0.000998 0.001661 0.000315
0.002656 0.001747 0.000853
0.001310 0.000900 0.000527
0.001088 0.000954 0.000830
0.001336 0.001641 0.000475
0.000365 0.000836 0.000365
0.000692 0.000646 0.000310
0.000407 0.001028 0.000630
0.001121 0.001615 0.000378
0.001385 0.000001 0.000705
0.000952 0.000526 0.000562
0.000749 0.000001 0.000759
0.001382 0.000982 0.000565
0.001591 0.001213 0.001118
0.001407 0.000601 0.000628
0.000643 0.000302 0.000410
0.001549 0.001312 0.000696
0.003233 0.000001 0.001307
0.002269 0.000415 0.001031
0.002072 0.000631 0.001520
0.002202 0.000606 0.000703
0.000685 0.000760 0.000908
0.001627 0.000845 0.001031
0.000735 0.001280 0.002140
0.001844 0.001434 0.001005
0.000001 0.001456 0.001773
0.000001 0.000704 0.001038
0.000001 0.001543 0.002109
0.000001 0.001579 0.001198
0.000001 0.000978 0.001294
0.000001 0.000413 0.000573
0.000001 0.000214 0.000346
0.000001 0.000851 0.000628
0.000001 0.000829 0.001616
0.000001 0.000501 0.001002
0.000001 0.000731 0.001597
0.000001 0.000695 0.000762
0.000001 0.000627 0.001372
0.000001 0.000518 0.001210
0.000001 0.001050 0.002439
0.000001 0.001083 0.001228
0.001724 0.001183 0.001587
0.000734 0.000366 0.000819
0.000982 0.001061 0.001683
0.001131 0.000816 0.001054
0.000748 0.000958 0.000970
0.000467 0.000423 0.000462
0.000247 0.000216 0.000288
0.000582 0.000941 0.000504
0.000521 0.000318 0.000326
0.000208 0.000208 0.000207
0.000255 0.000264 0.000356
0.000237 0.000280 0.000185
0.000448 0.000452 0.000874
0.000502 0.000403 0.000966
0.000429 0.000671 0.001832
0.000906 0.000959 0.000923
0.000001 0.001893 0.001205
0.000001 0.000762 0.000549
0.000001 0.001537 0.001175
0.000001 0.001985 0.000672
0.000001 0.001447 0.001029
0.000001 0.000560 0.000476
0.000001 0.000257 0.000279
0.000001 0.001331 0.000562
0.000001 0.001055 0.000772
0.000001 0.000485 0.000509
0.000001 0.000605 0.000651
0.000001 0.000766 0.000375
0.000001 0.000588 0.000743
0.000001 0.000419 0.000635
0.000001 0.000805 0.001354
0.000001 0.001093 0.000686
0.001172 0.000001 0.001107
0.000662 0.000529 0.000673
0.000641 0.000001 0.001143
0.001125 0.001038 0.000917
0.001218 0.001196 0.001535
0.000958 0.000550 0.000706
0.000454 0.000272 0.000393
0.001002 0.001279 0.000789
0.002591 0.000001 0.001509
0.001598 0.000457 0.001144
0.001961 0.000827 0.001871
0.001532 0.000623 0.000884
0.000639 0.000721 0.001364
0.000975 0.000735 0.001673
0.000558 0.001203 0.003030
0.001554 0.001528 0.001481
0.002339 0.002063 0.002173
0.001212 0.001134 0.001473
0.001369 0.002368 0.002408
0.001300 0.002026 0.001131
0.001157 0.001275 0.001155
0.000867 0.000694 0.000622
0.000343 0.000333 0.000350
0.000804 0.001218 0.000571
0.002417 0.001088 0.001961
0.001235 0.000822 0.001496
0.001293 0.000854 0.001731
0.001147 0.001028 0.001135
0.000539 0.000949 0.001172
0.001585 0.001056 0.001421
0.000662 0.001516 0.002132
0.001539 0.001748 0.001207
0.001555 0.001124 0.002156
0.000829 0.000557 0.001333
0.000867 0.001129 0.002361
0.001182 0.001033 0.001515
0.000727 0.000756 0.001263
0.000534 0.000392 0.000641
0.000229 0.000234 0.000481
0.000678 0.000864 0.000699
0.000558 0.000363 0.000437
0.000277 0.000291 0.000348
0.000316 0.000277 0.000513
0.000297 0.000453 0.000285
0.000288 0.000522 0.001395
0.000932 0.000720 0.001972
0.000364 0.000772 0.002518
0.001023 0.001122 0.001628
0.000590 0.000685 0.000735
0.000334 0.000493 0.000444
0.000395 0.000784 0.000767
0.000396 0.000857 0.000437
0.000297 0.000381 0.000588
0.000322 0.000322 0.000425
0.000100 0.000144 0.000181
0.000298 0.000415 0.000357
0.000627 0.000393 0.000547
0.000430 0.000363 0.000402
0.000338 0.000293 0.000439
0.000341 0.000370 0.000301
0.000109 0.000230 0.000520
0.000402 0.000374 0.000565
0.000157 0.000473 0.001032
0.000404 0.000514 0.000539
0.001230 0.000001 0.000879
0.000986 0.000719 0.000717
0.000834 0.000001 0.001096
0.001191 0.001074 0.000732
0.001594 0.000990 0.001558
0.001457 0.000675 0.000833
0.000558 0.000319 0.000518
0.001469 0.001252 0.000964
0.002563 0.000001 0.001506
0.001985 0.000623 0.001137
0.001852 0.000785 0.001751
0.001792 0.000691 0.000880
0.000486 0.000663 0.001381
0.001996 0.001165 0.002128
0.000622 0.001233 0.002920
0.001648 0.001514 0.001520
0.000001 0.002649 0.004154
0.000001 0.001182 0.002109
0.000001 0.003095 0.005291
0.000001 0.002296 0.002271
0.000001 0.001507 0.002630
0.000001 0.000607 0.001087
0.000001 0.000366 0.000759
0.000001 0.001238 0.001243
0.000001 0.001256 0.003152
0.000001 0.000811 0.001822
0.000001 0.001158 0.003008
0.000001 0.000995 0.001421
0.000001 0.001038 0.003172
0.000001 0.000901 0.002718
0.000001 0.001827 0.006035
0.000001 0.001673 0.002843
0.001216 0.001966 0.003707
0.000529 0.000674 0.001791
0.000760 0.002113 0.004259
0.000806 0.001345 0.002244
0.000620 0.001459 0.002125
0.000475 0.000675 0.001032
0.000198 0.000390 0.000700
0.000485 0.001453 0.001082
0.000338 0.000448 0.000612
0.000158 0.000343 0.000343
0.000237 0.000436 0.000704
0.000207 0.000477 0.000317
0.000262 0.000823 0.002055
0.000458 0.000804 0.002220
0.000350 0.001373 0.004483
0.000702 0.001721 0.002217
0.001624 0.003192 0.003496
0.000673 0.001491 0.001429
0.000937 0.002954 0.003474
0.001088 0.003360 0.001880
0.000959 0.002145 0.002201
0.000567 0.001018 0.001105
0.000311 0.000507 0.000667
0.000859 0.001979 0.001189
0.001584 0.001609 0.001874
0.000961 0.000882 0.001217
0.000817 0.000935 0.001589
0.000843 0.001467 0.001012
0.000397 0.000993 0.001903
0.000602 0.000844 0.001773
0.000469 0.001642 0.003606
0.001006 0.001939 0.001957
0.000725 0.000001 0.001618
0.000405 0.000647 0.001025
0.000419 0.000001 0.001787
0.000616 0.001185 0.001121
0.000627 0.001265 0.001883
0.000499 0.000613 0.000892
0.000236 0.000352 0.000567
0.000486 0.001261 0.000995
0.001378 0.000001 0.002216
0.000820 0.000501 0.001442
0.000979 0.000857 0.002538
0.000806 0.000608 0.001059
0.000259 0.000870 0.002052
0.000615 0.000925 0.002306
0.000351 0.001522 0.004469
0.000794 0.001646 0.002126
0.001420 0.001659 0.000001
0.000655 0.000722 0.000001
0.000778 0.001465 0.000001
0.000829 0.001606 0.000001
0.001060 0.001486 0.001469
0.000724 0.000606 0.000629
0.000299 0.000300 0.000366
0.000720 0.001305 0.000715
0.001621 0.000941 0.000001
0.000937 0.000592 0.000001
0.000800 0.000617 0.000001
0.000736 0.000853 0.000001
0.000398 0.001049 0.001111
0.000935 0.000967 0.001158
0.000517 0.001507 0.002431
0.001103 0.002016 0.001195
0.002364 0.002224 0.002477
0.001124 0.000835 0.001227
0.001244 0.002070 0.002385
0.001609 0.001789 0.001634
0.001216 0.002180 0.001655
0.000656 0.000931 0.000787
0.000419 0.000451 0.000470
0.001013 0.002281 0.000980
0.000816 0.000746 0.000601
0.000336 0.000435 0.000331
0.000438 0.000529 0.000588
0.000454 0.000815 0.000362
0.000545 0.001121 0.001609
0.001014 0.001221 0.001995
0.000656 0.001631 0.003019
0.001588 0.002509 0.001903
0.002848 0.003988 0.000001
0.001117 0.001730 0.000001
0.001342 0.002995 0.000001
0.001604 0.004533 0.000001
0.001891 0.003578 0.001076
0.001167 0.001384 0.000557
0.000509 0.000600 0.000233
0.001384 0.003188 0.000588
0.003126 0.002913 0.001290
0.001592 0.001427 0.000811
0.001414 0.001681 0.001324
0.001505 0.002594 0.000726
0.000531 0.001689 0.000795
0.001050 0.001326 0.000703
0.000562 0.002281 0.001367
0.001437 0.003181 0.000690
0.001403 0.000001 0.001344
0.000971 0.000886 0.001022
0.000803 0.000001 0.001509
0.001420 0.001663 0.001058
0.001703 0.002225 0.002184
0.001300 0.001096 0.001177
0.000538 0.000498 0.000608
0.001527 0.002466 0.001365
0.003696 0.000001 0.002481
0.002193 0.000714 0.001678
0.002542 0.001181 0.002703
0.002194 0.001089 0.001215
0.000628 0.001393 0.001557
0.001567 0.001549 0.001683
0.000786 0.002248 0.003354
0.001601 0.001857 0.001138

NONC 
0.004820
0.002133
0.002658
0.003522
0.001994
0.000916
0.000961
0.001445
0.002598
0.001189
0.001518
0.001871
0.003412
0.001577
0.002054
0.002668
0.002436
0.001198
0.000884
0.001774
0.001161
0.000593
0.000317
0.000836
0.000676
0.000340
0.000268
0.000477
0.001603
0.000893
0.000676
0.001306
0.002563
0.001196
0.001607
0.001797
0.001194
0.000597
0.000643
0.000836
0.001598
0.000789
0.001015
0.001113
0.001674
0.000846
0.001142
0.001306
0.002747
0.001503
0.001946
0.002605
0.001565
0.000896
0.000936
0.001424
0.002116
0.001195
0.001567
0.001918
0.002587
0.001550
0.002062
0.002668
0.003139
0.001515
0.001286
0.002449
0.001469
0.000727
0.000503
0.001139
0.001068
0.000523
0.000455
0.000821
0.002280
0.001198
0.001027
0.001918
0.001818
0.000942
0.000452
0.001441
0.000949
0.000500
0.000172
0.000752
0.000290
0.000154
0.000068
0.000221
0.001271
0.000763
0.000355
0.001113
0.000932
0.000436
0.000454
0.000666
0.000480
0.000246
0.000162
0.000349
0.000328
0.000169
0.000161
0.000221
0.000531
0.000319
0.000312
0.000477
0.001625
0.001074
0.000887
0.001700
0.001165
0.000786
0.000533
0.001181
0.000798
0.000558
0.000475
0.000821
0.001608
0.001227
0.001029
0.001871
0.002707
0.001152
0.001668
0.001935
0.001155
0.000529
0.000605
0.000826
0.001660
0.000748
0.001032
0.001181
0.001813
0.000828
0.001208
0.001424
0.001540
0.000763
0.000614
0.001135
0.000793
0.000414
0.000244
0.000588
0.000488
0.000255
0.000204
0.000349
0.001005
0.000568
0.000441
0.000836
0.001646
0.000780
0.001046
0.001160
0.000824
0.000421
0.000442
0.000588
0.001061
0.000533
0.000649
0.000752
0.001062
0.000550
0.000717
0.000836
0.001357
0.000756
0.001060
0.001344
0.000867
0.000514
0.000538
0.000826
0.001201
0.000698
0.000920
0.001139
0.001282
0.000811
0.001130
0.001445
0.002287
0.001301
0.001584
0.002342
0.001380
0.000823
0.000779
0.001344
0.001763
0.001036
0.001281
0.001700
0.002324
0.001466
0.001843
0.002605
0.001833
0.001156
0.000809
0.001774
0.001238
0.000794
0.000440
0.001160
0.000713
0.000461
0.000353
0.000666
0.001674
0.001207
0.000879
0.001797
0.001890
0.001138
0.001443
0.001774
0.001237
0.000778
0.000812
0.001135
0.001582
0.000977
0.001193
0.001441
0.001713
0.001125
0.001431
0.001774
0.001713
0.001330
0.001625
0.002342
0.001535
0.001203
0.001209
0.001935
0.001959
0.001505
0.001845
0.002449
0.002393
0.002054
0.002537
0.003522
0.003137
0.001451
0.001495
0.002537
0.001404
0.000665
0.000580
0.001130
0.001277
0.000600
0.000629
0.001029
0.002368
0.001189
0.001235
0.002062
0.001745
0.000869
0.000549
0.001431
0.000876
0.000442
0.000213
0.000717
0.000387
0.000196
0.000123
0.000312
0.001260
0.000728
0.000446
0.001142
0.001150
0.000526
0.000601
0.000879
0.000570
0.000282
0.000227
0.000441
0.000475
0.000234
0.000250
0.000355
0.000744
0.000412
0.000446
0.000676
0.001728
0.001077
0.001071
0.001843
0.001167
0.000748
0.000616
0.001208
0.000981
0.000642
0.000641
0.001027
0.001751
0.001254
0.001235
0.002054
0.002114
0.001051
0.000748
0.001845
0.001054
0.000528
0.000313
0.000920
0.000548
0.000273
0.000192
0.000475
0.001663
0.000930
0.000641
0.001567
0.001319
0.000679
0.000298
0.001193
0.000710
0.000362
0.000126
0.000649
0.000182
0.000095
0.000035
0.000161
0.001031
0.000627
0.000250
0.001015
0.000448
0.000205
0.000174
0.000353
0.000249
0.000125
0.000057
0.000204
0.000093
0.000048
0.000035
0.000068
0.000255
0.000169
0.000123
0.000268
0.001102
0.000802
0.000504
0.001281
0.000901
0.000660
0.000355
0.001032
0.000390
0.000305
0.000192
0.000455
0.001170
0.001022
0.000629
0.001518
0.001551
0.000657
0.000812
0.001209
0.000688
0.000311
0.000290
0.000538
0.000686
0.000304
0.000355
0.000533
0.001072
0.000515
0.000616
0.000936
0.000981
0.000479
0.000302
0.000812
0.000523
0.000264
0.000118
0.000442
0.000201
0.000103
0.000057
0.000162
0.000687
0.000400
0.000227
0.000643
0.000602
0.000270
0.000320
0.000440
0.000320
0.000159
0.000118
0.000244
0.000245
0.000122
0.000126
0.000172
0.000344
0.000200
0.000213
0.000317
0.000666
0.000431
0.000471
0.000779
0.000536
0.000365
0.000290
0.000605
0.000436
0.000310
0.000313
0.000503
0.000696
0.000559
0.000580
0.000961
0.001427
0.000880
0.000856
0.001625
0.000974
0.000620
0.000471
0.001060
0.000810
0.000514
0.000504
0.000887
0.001542
0.001109
0.001071
0.001946
0.001309
0.000871
0.000512
0.001443
0.000967
0.000641
0.000320
0.001046
0.000416
0.000290
0.000174
0.000454
0.001327
0.001035
0.000601
0.001607
0.000774
0.000494
0.000512
0.000809
0.000589
0.000399
0.000302
0.000614
0.000441
0.000308
0.000298
0.000452
0.000702
0.000563
0.000549
0.000884
0.001006
0.000947
0.000856
0.001584
0.001140
0.001058
0.000812
0.001668
0.000858
0.000830
0.000748
0.001286
0.001543
0.001689
0.001495
0.002658
0.002801
0.001104
0.001689
0.002054
0.001107
0.000470
0.000559
0.000811
0.001681
0.000702
0.001022
0.001227
0.001932
0.000813
0.001254
0.001550
0.001497
0.000698
0.000563
0.001125
0.000728
0.000359
0.000200
0.000550
0.000436
0.000211
0.000169
0.000319
0.000996
0.000530
0.000412
0.000846
0.001668
0.000733
0.001035
0.001207
0.000776
0.000370
0.000400
0.000568
0.001050
0.000491
0.000627
0.000763
0.001108
0.000530
0.000728
0.000893
0.001469
0.000750
0.001109
0.001466
0.000860
0.000475
0.000515
0.000828
0.001249
0.000674
0.000930
0.001198
0.001405
0.000813
0.001189
0.001577
0.001888
0.000840
0.000830
0.001505
0.000871
0.000409
0.000310
0.000698
0.000703
0.000324
0.000305
0.000558
0.001368
0.000674
0.000642
0.001195
0.001168
0.000582
0.000308
0.000977
0.000626
0.000321
0.000122
0.000533
0.000207
0.000107
0.000048
0.000169
0.000852
0.000491
0.000234
0.000789
0.000616
0.000278
0.000290
0.000461
0.000328
0.000164
0.000103
0.000255
0.000215
0.000107
0.000095
0.000154
0.000365
0.000211
0.000196
0.000340
0.000945
0.000592
0.000514
0.001036
0.000697
0.000455
0.000304
0.000748
0.000480
0.000324
0.000273
0.000523
0.000953
0.000702
0.000600
0.001189
0.001648
0.000650
0.001058
0.001203
0.000697
0.000303
0.000365
0.000514
0.001073
0.000455
0.000660
0.000786
0.001100
0.000475
0.000748
0.000896
0.001004
0.000478
0.000399
0.000778
0.000530
0.000269
0.000159
0.000421
0.000323
0.000164
0.000125
0.000246
0.000682
0.000370
0.000282
0.000597
0.001073
0.000488
0.000641
0.000794
0.000545
0.000269
0.000264
0.000414
0.000664
0.000321
0.000362
0.000500
0.000718
0.000359
0.000442
0.000593
0.000797
0.000425
0.000620
0.000823
0.000527
0.000303
0.000311
0.000529
0.000726
0.000409
0.000528
0.000727
0.000762
0.000470
0.000665
0.000916
0.001272
0.000655
0.000947
0.001330
0.000758
0.000425
0.000431
0.000756
0.001085
0.000592
0.000802
0.001074
0.001274
0.000750
0.001077
0.001503
0.001123
0.000677
0.000494
0.001138
0.000783
0.000488
0.000270
0.000780
0.000444
0.000278
0.000205
0.000436
0.001053
0.000733
0.000526
0.001196
0.001176
0.000677
0.000871
0.001156
0.000786
0.000478
0.000479
0.000763
0.000980
0.000582
0.000679
0.000942
0.001097
0.000698
0.000869
0.001198
0.000871
0.000655
0.000880
0.001301
0.000841
0.000650
0.000657
0.001152
0.001113
0.000840
0.001051
0.001515
0.001281
0.001104
0.001451
0.002133
0.002396
0.001281
0.001543
0.002393
0.001360
0.000762
0.000696
0.001282
0.001722
0.000953
0.001170
0.001608
0.002375
0.001405
0.001751
0.002587
0.001835
0.001097
0.000702
0.001713
0.001179
0.000718
0.000344
0.001062
0.000606
0.000365
0.000255
0.000531
0.001613
0.001108
0.000744
0.001674
0.001865
0.001053
0.001327
0.001674
0.001152
0.000682
0.000687
0.001005
0.001466
0.000852
0.001031
0.001271
0.001613
0.000996
0.001260
0.001603
0.001749
0.001274
0.001542
0.002324
0.001480
0.001100
0.001072
0.001813
0.001877
0.001368
0.001663
0.002280
0.002375
0.001932
0.002368
0.003412
0.001889
0.001113
0.000858
0.001959
0.001207
0.000726
0.000436
0.001201
0.000812
0.000480
0.000390
0.000798
0.001877
0.001249
0.000981
0.002116
0.001577
0.000980
0.000441
0.001582
0.001076
0.000664
0.000245
0.001061
0.000345
0.000215
0.000093
0.000328
0.001466
0.001050
0.000475
0.001598
0.000780
0.000444
0.000416
0.000713
0.000538
0.000323
0.000201
0.000488
0.000345
0.000207
0.000182
0.000290
0.000606
0.000436
0.000387
0.000676
0.001292
0.001085
0.000810
0.001763
0.001279
0.001073
0.000686
0.001660
0.000812
0.000703
0.000548
0.001068
0.001722
0.001681
0.001277
0.002598
0.001608
0.000841
0.001140
0.001535
0.000944
0.000527
0.000536
0.000867
0.001279
0.000697
0.000901
0.001165
0.001480
0.000860
0.001167
0.001565
0.001324
0.000786
0.000589
0.001237
0.000892
0.000545
0.000320
0.000824
0.000538
0.000328
0.000249
0.000480
0.001152
0.000776
0.000570
0.001194
0.001381
0.000783
0.000967
0.001238
0.000892
0.000530
0.000523
0.000793
0.001076
0.000626
0.000710
0.000949
0.001179
0.000728
0.000876
0.001161
0.001063
0.000758
0.000974
0.001380
0.000944
0.000697
0.000688
0.001155
0.001207
0.000871
0.001054
0.001469
0.001360
0.001107
0.001404
0.001994
0.001211
0.000871
0.001006
0.001713
0.001063
0.000797
0.000666
0.001357
0.001292
0.000945
0.001102
0.001625
0.001749
0.001469
0.001728
0.002747
0.001501
0.001176
0.000774
0.001890
0.001381
0.001073
0.000602
0.001646
0.000780
0.000616
0.000448
0.000932
0.001865
0.001668
0.001150
0.002563
0.001501
0.001123
0.001309
0.001833
0.001324
0.001004
0.000981
0.001540
0.001577
0.001168
0.001319
0.001818
0.001835
0.001497
0.001745
0.002436
0.001211
0.001272
0.001427
0.002287
0.001608
0.001648
0.001551
0.002707
0.001889
0.001888
0.002114
0.003139
0.002396
0.002801
0.003137
0.004820

RBSS 9
RBSM 
0.246 0.156 0.273 0.325
0.342 0.303 0.178 0.176
0.203 0.153 0.502 0.142
0.341 0.253 0.230 0.176
0.358 0.251 0.169 0.222
0.390 0.135 0.299 0.176
0.334 0.181 0.216 0.269
0.314 0.228 0.199 0.259
0.289 0.170 0.309 0.232

RBSL -3
RBSD 1
